AF,835.6679684,39.10939762,62.34601669
AL,2959.587177,45.28525419,54.26502123
AL,6433.836189,24.84127159,83.72942924
AL,1051.652517,35.59387817,11.00891827
AL,2054.91654,47.07441294,-3.361225706
AL,1020.347009,33.27864826,23.9050763
AL,2387.492901,22.37878625,28.5303101
AL,2100.737913,36.39249635,-2.347042709
AL,2859.7146,37.02612856,50.88409397
AL,547.2609254,36.84417972,18.18025243
AL,259.8834031,39.1968973,20.56835315
AL,2515.13246,28.73209677,41.08797387
AL,4554.966327,44.32955304,73.47920896
AL,316.3463945,39.34745144,22.19117974
AL,1749.111681,32.2990537,34.6421157
AL,3368.051422,28.9155422,51.69105468
AL,1193.23158,48.3217659,9.379370041
AL,1918.842337,26.24893101,27.40128347
AL,852.6939041,40.81455859,29.4086024
AL,146.7522873,40.09327025,19.56781461
AL,1042.157662,40.8395061,31.56049164
AL,6069.73234,36.95952827,-48.36528517
AM,1792.005806,30.19601819,30.34176191
AR,9652.027995,25.38100164,0.909410757
AU,19319.93039,35.55750636,-11.77590181
AU,10457.09371,18.22698916,73.91607401
AU,6423.121786,0.720724894,104.9633443
AU,14561.9647,11.29265739,-87.06647057
AU,3223.638216,-35.30068857,115.3305524
AU,12266.78012,39.91846866,70.34264223
AU,13906.27892,22.11405115,39.19428937
AU,20087.60752,40.90201784,-21.89915978
AU,14854.31719,36.8342884,36.84528547
AU,13820.88779,33.01139578,46.52845465
AU,12747.38625,8.245681955,42.23693357
AU,16215.59827,30.0870492,19.13111252
AU,4885.198045,-14.80049921,108.6606291
AU,9468.602672,25.04254411,92.60482599
BA,1182.602726,39.61216205,30.66012233
BG,2705.359172,21.35921107,12.90911643
BG,1877.435832,31.51493938,8.898398328
BG,783.0804891,36.78566777,27.36344762
BR,8751.262495,25.36814525,15.87203754
BR,11842.54299,39.90347093,43.08703224
BR,11169.44044,46.13471435,32.79972193
BR,8262.901588,42.22919416,-4.683754895
BR,8902.243559,20.41261265,19.8819125
BR,9604.166556,34.4919988,20.05018623
BR,10777.85924,39.58597562,30.97005509
BR,9462.053893,44.22640355,11.20304239
BR,6209.901666,1.143265933,2.773068387
BR,6240.326394,24.31793353,-12.21493366
BR,3914.37216,2.938167017,-20.0579489
BR,6274.561296,30.80822657,-20.73088496
BR,6435.632407,22.06952976,-7.494698207
BR,11379.26177,33.8221164,39.78535639
BR,4931.249551,-2.323285234,-7.557220201
BR,10139.6788,31.87845993,27.32851561
BR,8912.613029,30.05360813,14.9011872
BR,3138.889476,4.767375356,-30.65944666
BR,10777.85924,39.58597562,30.97005509
BR,7192.592446,30.49937993,-6.245860314
BR,6720.219374,15.12093284,0.813375784
BR,10161.67356,37.09331943,25.024257
BR,7899.846803,49.36143478,-28.97335261
BR,8809.550302,35.58555128,9.860993603
BR,12342.69376,36.29408279,49.39859944
BR,6942.840521,29.80793941,-8.893132437
BR,10299.35514,26.02872097,31.40459508
BR,10644.21135,40.17145479,29.12278536
BR,8053.279257,20.09172369,11.53835376
BR,16997.80036,-15.00301847,114.4834934
BR,14118.99107,24.4358162,68.51442889
BR,11950.68502,38.28257274,44.71129666
BR,10228.43368,35.85923024,26.41826006
BR,12650.24119,22.74526869,54.99117045
BR,13023.53617,51.16960009,55.91558991
BR,10467.42048,36.99834834,28.5808
BZ,8442.429996,15.04251749,-13.47754948
BZ,13180.69861,32.66742794,43.23095588
BZ,9154.245574,34.92268521,-1.648890697
BZ,12209.69097,28.3792251,28.25894936
BZ,4524.323173,27.81278352,-48.44898809
BZ,6786.245596,42.28327323,-26.95859921
BZ,12629.88072,34.27640291,37.5993816
BZ,3567.466237,36.77214445,-62.37207348
BZ,2111.223776,19.09182739,-69.93574447
BZ,11458.01378,46.98443159,33.51766141
BZ,3868.636734,26.17672977,-54.51783599
BZ,4461.370813,37.09631426,-51.89123483
CD,2698.006276,13.42580437,30.00704147
CI,3455.745019,24.11918514,19.54128952
CM,3101.277843,26.27253445,-3.052323451
CN,8219.860479,32.00616142,26.59825349
CN,3864.383344,36.3688958,74.41136668
CN,8300.516113,31.09041696,26.37425495
CN,3460.236635,43.17880695,76.89889644
CN,4729.755497,44.74922646,61.24828726
CN,4493.674379,41.56004531,65.18409486
CN,3867.582261,47.69559309,71.3559637
CN,5775.845649,41.48158514,49.85449412
CN,7013.424008,45.76490802,31.18753671
CN,8843.26844,35.0756017,15.86825637
CN,3969.065279,32.71875233,75.01437684
CN,3166.505915,43.3615792,80.32602775
CN,4803.025728,40.96704058,61.76524617
CN,6901.224194,38.83367127,37.62709309
CN,6121.998071,41.7770291,45.42714154
CN,6436.818848,47.23408463,38.07157472
CN,5723.126532,35.14161442,53.96868404
CN,11014.92753,22.15517219,0.726884399
CN,6734.815109,29.30754852,46.10707768
CN,5700.937773,49.32530272,46.95165261
CN,8476.751433,27.19121048,27.49253463
CN,4560.604376,45.11022681,63.21855939
CN,6059.691702,36.82422626,49.07096918
CN,4835.608029,49.93337089,58.40911606
CN,6514.940793,40.60501454,41.251281
CN,8463.872452,20.39884264,33.13943384
CN,5901.303512,39.12432574,49.62203491
CN,7125.5717,25.96001102,44.04055213
CN,7827.884145,27.8500036,34.59457148
CN,8259.185285,39.54856923,19.43790993
CN,4277.833205,35.64465962,70.10621472
CN,8266.053035,36.95062178,21.73843105
CN,7889.499444,37.91041611,25.81166068
CN,7296.49129,37.21711001,33.88009194
CN,9247.682061,28.44465694,16.99682763
CN,5577.139996,36.84562172,54.69915996
CN,6586.629124,43.15530027,38.70002971
CN,6111.702559,31.66333781,51.6346697
CN,7237.827574,47.48896801,26.65955994
CN,7196.094213,37.09995814,35.20964167
CO,2898.455002,29.08039459,-77.6869357
CU,5885.298946,38.75504523,-25.8580233
CU,8558.978606,35.71704955,2.590730412
CU,10946.74887,49.57533918,44.0989668
CV,3800.558879,25.22875219,9.250399611
CV,1789.657721,16.8785256,-7.798585626
CV,2964.577571,16.33944147,2.669071271
CV,7093.188164,21.91263094,40.11730558
CV,5499.859755,12.71663668,24.73797306
CV,6955.835041,31.91751897,39.21633577
CV,3120.018742,27.26655814,1.78468383
CV,6169.019447,5.930031772,29.22300342
CV,6040.581658,17.12722517,30.10229226
CV,5700.598775,33.30409277,26.31542715
CV,7163.308831,27.69670465,41.19460068
CV,4717.825305,37.06004165,14.30514132
CV,5139.929413,19.61799049,22.17021994
CV,5420.898699,26.55151101,24.5409401
CV,7257.315462,36.20116068,42.18490474
CV,7942.100532,35.43221609,49.36679333
CV,4431.693233,13.73167827,15.45322012
CV,4886.466308,36.28122277,16.61940941
CV,7643.414254,46.95970571,45.74849877
CV,2964.577571,16.33944147,2.669071271
CV,5182.194059,38.87734132,18.78163795
CV,7128.88914,44.75849088,39.77468249
CV,1952.486204,12.67669694,-6.546867218
CV,11734.83628,30.76549126,87.91926463
CV,5584.083885,41.16493376,22.43978209
CV,4367.616578,35.59051899,11.06700386
CV,7148.235252,29.82197839,41.12208258
CV,7987.140618,50.65926439,49.81267569
CV,6927.495233,43.51700855,37.62001231
CV,9107.893778,39.34432943,62.43608801
CV,4849.84659,35.94680701,16.36052374
CV,6757.64477,30.12049495,37.28443659
CV,5195.036729,31.61555529,21.50160421
CV,2682.121897,13.54808973,0.012279889
DZ,4630.625884,-1.965536656,11.44399805
DZ,4280.173527,36.45041367,49.02746759
DZ,3402.053307,22.62271752,-26.14102764
DZ,5006.34903,43.77948022,59.36268593
DZ,1712.37964,42.08660452,20.78364405
DZ,2007.956799,42.01210656,-17.87154516
DZ,2184.841408,18.59265267,-1.617291672
DZ,2610.241312,18.4614974,-11.22736742
DZ,3430.418837,21.04095915,-25.17488288
DZ,1971.660312,20.15112743,0.010873712
DZ,1196.945849,26.64909853,5.177565564
DZ,3676.970296,25.9791988,37.89435149
DZ,2206.898117,20.68808536,-8.064136788
DZ,3261.376634,38.70557413,38.42346874
DZ,1787.110527,28.2569232,18.25311357
DZ,3013.361089,40.6192269,35.86716961
DZ,1857.139781,21.32430064,-1.015126539
DZ,2438.950879,37.69687948,29.32815281
DZ,2381.14688,16.97708565,-2.073651748
DZ,2475.51174,31.95225853,28.1504416
DZ,4307.385614,37.78029925,49.73464154
DZ,2024.779017,21.00131399,-4.962951527
DZ,4967.971144,16.55788549,-38.97625191
DZ,1938.463531,24.77832893,16.54062154
DZ,3073.110279,44.75059934,36.34079607
DZ,3677.03528,19.0078885,32.70452556
DZ,536.4141153,37.53978447,8.839668942
DZ,2953.761422,41.39061743,35.21017323
DZ,2396.307965,20.60953095,17.59568662
DZ,2449.81309,18.01583135,13.72512415
DZ,3457.06872,37.34510586,40.30037821
DZ,1777.144415,21.57972504,3.746445068
DZ,3604.466595,41.09911738,42.56932789
DZ,5131.201492,28.39171467,54.71184452
DZ,2279.228547,33.86440591,26.78376918
EG,1301.969962,38.3331632,22.31532542
EG,4823.439887,20.75759309,-13.36549625
EG,6225.027324,21.77750974,-27.60499831
EG,3494.098585,22.3165051,-0.923028954
EG,4480.022277,16.32674178,-7.770131441
EG,2398.354737,30.518878,7.534053522
EG,5350.066391,43.04692236,86.66291021
EG,2770.969826,7.770791359,39.52940424
EG,2089.454068,37.02612856,50.88409397
EG,2127.257063,39.89280061,49.82397663
EG,2345.883547,44.00547613,13.19759918
EG,3481.492291,36.4859926,66.00622952
EG,4885.752435,30.5611455,79.76242593
EG,2996.242159,4.921212436,26.46711016
EG,865.052114,35.62813501,25.51148992
EG,2812.832492,19.71202643,55.10947193
EG,4570.574621,-3.250577636,52.2842734
EG,5178.969946,65.68140305,-11.43151351
EG,1050.503117,36.59095948,23.92912782
EG,2778.01472,37.81821862,4.173184686
EG,4416.8411,31.33201609,-12.77564474
EG,1214.218392,39.85825824,35.12440962
EG,3715.853981,15.12093284,0.813375784
EG,6234.51068,58.56821675,-36.14526056
EG,3346.799368,45.3412295,61.96718975
EG,1386.85818,34.00316153,18.08540499
EG,3008.748077,32.17795058,61.11209775
EG,2196.67583,31.52380291,52.93981554
EG,7902.310725,25.74910118,-46.27058471
EG,1316.403899,36.5776233,42.1090257
EG,3915.103754,20.35366185,66.6288614
ES,714.7475937,39.94457645,-11.64143937
ES,2133.015903,22.43164103,-6.529170813
ES,2446.53692,19.74186705,-0.909603558
ES,4101.02816,8.722412966,-20.11786039
ES,4566.508535,21.45621938,-43.87122818
ES,2866.802043,39.94415619,28.41534777
ES,3606.548606,24.10972392,-34.79783069
ET,5209.159378,17.43590078,-6.096255712
ET,1457.010226,19.07503883,31.22943724
ET,4276.301536,40.50720663,18.1508761
ET,2616.137454,29.29010842,28.8825149
ET,5204.86238,47.50191311,64.69235591
ET,6527.584545,23.57328003,-17.52395586
ET,3636.468009,31.99682691,61.13219681
ET,1551.526953,20.31353,31.63115174
ET,6243.646474,21.68209006,92.55890943
ET,2278.022819,21.4659275,23.27840802
ET,1920.051226,21.52642865,27.79238453
ET,3099.908223,34.41683531,30.89652588
ET,2071.506889,26.64492045,39.58601905
ET,4095.238606,41.35207146,53.51119464
ET,4885.515267,17.27570226,-3.212850359
ET,2843.432444,32.29891462,31.54752727
ET,3335.968269,37.39415141,37.24121724
ET,2738.205484,22.95666799,19.22984994
ET,4708.935086,31.80589775,3.133700927
ET,5871.191387,27.45195302,-10.62530919
ET,4646.619214,29.78045635,2.695582552
ET,1194.500797,17.62341819,44.33158807
ET,5969.050216,37.02809962,-8.293832289
ET,3011.994519,34.64332852,39.98580191
ET,2623.424305,31.3133241,40.31064137
ET,2489.72348,19.03918918,19.4500037
ET,4378.049052,37.92206289,12.59579131
ET,5153.35454,25.38498945,-4.154378887
ET,3168.292337,35.14891961,46.08813475
ET,5079.104233,14.13910795,-5.146681129
FI,1754.121094,55.25147016,-1.705683579
FI,4486.645806,34.04681641,68.17744446
FR,2549.852454,27.33380631,-1.341862529
GE,1352.420069,42.66299292,60.28538689
GE,364.6053784,40.75253848,48.70602353
GE,0,41.71,44.78
GE,2060.25734,39.62521115,67.80755517
GE,793.7839531,39.41709177,36.40853127
GE,424.8443088,44.51766424,41.65636089
GE,868.8887653,49.0524442,46.05054223
GE,0,41.71,44.78
GE,674.460254,39.89236853,51.97714112
GE,1481.221792,45.77522435,61.34103376
GE,0,41.71,44.78
GE,129.0247948,41.03784694,45.93751343
GE,674.460254,39.89236853,51.97714112
GE,129.0247948,41.03784694,45.93751343
GE,118.0673692,41.31025703,46.01138803
GE,1120.687201,42.8859578,31.96817919
GE,950.071727,40.3707824,55.36149663
GE,0,41.71,44.78
GE,1352.420069,42.66299292,60.28538689
GE,0,41.71,44.78
GE,0,41.71,44.78
GE,3770.656862,14.25481997,25.58643677
GE,1137.668126,51.27762366,42.59385169
GE,3897.863564,21.24051034,13.69792935
GE,369.9527277,44.38799411,47.04814571
GE,1846.755541,43.27633713,66.05171967
GE,1161.858932,40.36566156,57.78325314
GE,554.4257049,42.470389,38.50192297
GM,7769.585196,25.95291044,53.14794653
GM,5486.354569,35.43455229,29.35909903
GM,4197.312335,20.44784849,20.11532738
GM,815.9018441,18.77222491,-11.94096629
GN,2498.40251,27.44285865,-1.577633236
GN,2119.62803,17.09943742,3.138021265
GN,6864.262564,25.535733,45.75146189
GN,4312.973306,46.02818584,-9.289351383
GN,4123.53389,32.62520597,14.93165515
GN,6834.772231,32.62444925,44.46135218
GN,8055.145287,37.71561798,56.49535976
GR,463.6164864,41.34929173,20.9969524
GR,210.8544486,39.34745144,22.19117974
GR,3197.062666,17.62341819,44.33158807
GR,387.3507763,39.78797176,27.27008914
GR,393.1810123,40.92803225,25.81055946
GR,1243.236961,41.87377246,36.5728644
GR,2658.350734,41.28528061,52.92781102
GR,525.1470116,37.15697406,18.16981137
GR,2146.142026,41.83799849,47.07882094
GR,690.1492569,39.58597562,30.97005509
GR,182.3108763,39.39936207,22.85030093
GR,656.8040471,40.30937434,30.27882806
GR,2988.848572,27.62786333,51.51979038
GR,916.0504425,31.42037649,28.80797465
GR,517.5553613,39.23185856,29.12458558
GR,233.1447498,39.6889668,22.37186278
GR,1018.767823,33.65936638,14.44105275
GR,2644.809561,40.31791875,52.7214276
GR,702.566844,32.02069529,23.56970133
GR,877.0598138,32.12227951,18.07944257
GR,3652.77913,25.63639796,57.56879217
GR,111.6602847,37.24347092,24.43646273
GR,344.8478555,38.84866043,27.29720025
GR,916.0504425,31.42037649,28.80797465
GR,163.2622275,39.12605988,24.75164923
GR,344.8478555,38.84866043,27.29720025
GR,2329.387381,18.18017518,23.04801667
GR,2223.951857,21.60395233,12.72587139
GR,877.0598138,32.12227951,18.07944257
GR,3008.812173,13.56233471,32.33719833
GR,236.7070671,36.44811793,25.32405004
GR,803.4272578,38.26167908,15.0188743
GR,907.7346294,38.31719909,33.53314326
GR,517.5553613,39.23185856,29.12458558
GR,1232.37145,35.78004804,10.87897369
GR,2358.405849,20.60819428,12.11941128
GR,1060.610321,29.0654728,25.26943684
GR,1117.928224,38.88371287,11.60381711
GR,2781.61344,16.74742612,11.82624871
GR,320.8659448,39.1968973,20.56835315
GR,453.6448808,35.8318491,27.70758068
GR,472.1653677,39.53665401,18.94580266
GR,1258.173624,37.12310856,10.23279057
GR,248.8367035,39.78145558,25.18236432
GR,1369.381713,27.37395311,17.99756577
GR,1057.96702,36.42851816,12.56786556
HR,1181.795015,54.63363739,23.56493163
HR,1001.194548,37.92788419,20.39658165
HR,2463.016636,30.42004507,34.29660528
ID,3944.276178,21.86553349,87.96928972
ID,9823.642633,37.91106804,29.87190997
ID,9676.194321,19.10895898,27.12368498
ID,10487.44882,22.82068017,20.22327007
ID,8773.783466,32.58244288,39.42562837
ID,8586.849608,26.66576638,39.25375412
ID,7484.240051,36.1779892,55.94513346
ID,4723.191411,25.60457067,81.4620234
ID,6354.562436,29.64862346,64.57805911
ID,7653.382651,38.46118516,55.55672131
ID,8702.065214,31.34693146,39.71338232
ID,10689.30594,27.05530254,18.86614258
ID,7762.947473,30.54271283,49.32088202
ID,9178.321902,40.12126978,38.02494958
ID,11728.06529,14.20500205,8.204333904
ID,10238.28503,31.75992638,24.04291113
ID,10144.79888,39.88542088,26.8219643
ID,7132.773709,42.58152733,66.95215533
ID,9016.026556,22.31785125,33.89633398
ID,4463.427842,29.86656394,94.28121189
ID,9906.946888,38.07108779,28.99533997
ID,10828.23583,32.29319307,18.15053473
ID,4461.586962,28.98377577,91.88915785
ID,11234.28827,38.42416582,14.51789204
ID,6888.072324,22.26640441,54.40968719
IL,903.2630192,27.97890523,42.92234206
IL,6557.294731,32.43538509,-31.87427595
IL,1716.965516,27.4162846,19.14760644
IN,5990.379612,28.35686028,18.55600133
IN,3700.859116,32.63814982,40.71182294
IN,4781.037857,32.13388255,29.82832063
IN,4354.025868,53.26843251,39.2836371
IN,1377.265003,27.1201708,64.0392684
IN,4577.128816,27.69988166,32.76114836
IN,10399.41444,12.97177857,-18.27985818
IN,332.6730987,31.16592203,75.79361024
IN,0,28.61,77.2
IN,143.640102,29.62885183,76.4262163
IN,5800.66823,39.32715609,17.98960815
IN,0,28.61,77.2
IN,6954.642578,29.49890216,8.395922191
IN,0,28.61,77.2
IN,5004.358373,39.61151619,26.76852088
IN,3001.137443,46.33233643,53.6927123
IN,6537.575444,27.19062132,13.45583216
IN,4688.994088,40.30937434,30.27882806
IN,2278.596601,38.3279085,56.98909803
IN,9029.295059,13.50420999,-5.022170147
IN,1620.050882,29.80278793,61.44800856
IN,0,28.61,77.2
IN,143.640102,29.62885183,76.4262163
IN,2956.25324,32.1484162,48.23069287
IN,3817.377723,6.817735201,102.7268831
IN,6367.939386,25.10422294,15.89678034
IN,4353.001394,30.58067786,34.38974834
IN,6592.111299,46.44510804,7.566286221
IN,4303.474365,29.96109282,34.98879373
IN,4979.009852,27.28235502,28.91290283
IN,7840.333743,20.15651881,3.399753118
IN,6170.380811,31.3893537,15.8250018
IN,4751.182619,32.35172853,30.09674821
IN,3554.957468,36.03129577,42.27221332
IN,0,28.61,77.2
IN,6498.175765,38.02043488,10.55222026
IN,2265.846363,40.75699873,58.87108563
IN,2074.640208,37.57579296,58.97399042
IN,4713.656143,45.86377566,30.72272056
IN,2002.35889,37.90608802,60.05273594
IN,1370.753252,34.84120596,65.58416122
IN,3940.134062,42.64626967,39.23667467
IN,1440.389969,34.42140387,64.51710315
IN,1720.674412,33.83273648,61.17275323
IN,0,28.61,77.2
IN,2668.304426,38.31827817,52.45780113
IN,3705.200694,38.86455147,41.02945125
IN,5273.914371,30.89358986,25.0807046
IN,768.8178493,34.34479281,80.90035444
IN,552.0537313,23.92047164,77.53628082
IN,1924.730949,26.50652836,58.85363216
IN,4296.329205,34.85613668,34.50216118
IN,1004.772158,32.12761003,68.15890249
IN,2292.824637,22.52166232,56.60701285
IN,1661.75453,32.09173524,61.29446214
IN,3825.081283,34.08269498,39.39560576
IN,4274.413443,32.6664468,34.89765128
IN,6137.111006,20.88232769,19.77897861
IN,1628.912835,18.11304748,87.09187007
IN,9890.619871,2.836991493,-7.728554529
IN,8133.177923,19.2925925,0.910196734
IN,6242.659967,33.65936638,14.44105275
IN,5487.071058,29.15712239,23.36650379
IN,605.5626794,25.96874576,82.18206489
IN,899.2771056,30.14509929,68.59151833
IN,859.6493293,31.97987531,69.67373144
IN,0,28.61,77.2
IN,1766.824523,35.01807445,61.1556306
IN,899.2771056,30.14509929,68.59151833
IQ,3532.881455,22.33360943,12.59638267
IQ,4763.078833,25.63550275,-1.684858101
IQ,5342.727642,25.30712045,-7.447776095
IR,2991.767015,40.17349211,19.44852517
IR,2879.673949,39.53450153,20.69774744
IR,1748.777268,29.6453403,67.60662095
IR,2451.963499,35.10695713,25.74316264
IR,1337.635885,35.99455664,37.35793576
IR,8108.010738,16.08926917,-24.0117024
IR,1229.592137,30.06084133,40.88260776
IR,2331.242153,34.32776509,27.17855114
IR,787.7715245,42.27506246,52.97294026
IR,1382.224921,32.00715469,37.93671137
IR,1427.568866,41.82063314,37.9330446
IR,1362.918285,25.62476794,58.15545091
IR,2577.612064,37.60742561,24.07286501
IR,7195.918837,12.3641083,-11.92729683
IR,3488.191329,35.2516964,14.74111419
IR,3189.279953,35.30213769,84.91404255
IR,930.2722804,43.59339273,51.03317375
IR,2667.791967,42.80890653,79.41774389
IR,1077.918964,34.52213395,62.54169086
IR,2560.190566,36.23882856,24.40754924
IR,1366.068058,44.31808898,41.21231526
IR,2059.286221,27.52874221,33.13450415
IR,790.7745562,36.5781251,43.14786115
IS,5564.821856,37.29958377,45.71412164
IT,2401.046083,28.01927207,30.92305725
IT,846.419434,35.9189431,7.30981918
IT,3412.661944,15.01382879,-0.262179061
IT,2003.04932,50.07491941,34.16015492
IT,4918.396082,39.54439772,68.65398592
IT,4378.473422,31.93712652,58.00748628
IT,1557.387474,29.3571065,17.78789844
IT,3178.054837,15.08647581,16.63376746
IT,1677.892684,41.49907972,31.64140497
IT,1408.608378,30.4073422,16.73312439
IT,3720.420655,37.42725561,53.60900671
IT,3516.54696,44.45666816,53.82140456
IT,2242.898416,37.32601571,36.63437745
IT,3228.81707,41.5257619,49.58835613
IT,1853.398778,37.36957814,32.15818524
IT,3321.588291,42.67050299,51.02152926
IT,2628.996664,57.20819823,38.16510011
IT,4099.471633,42.66299292,60.28538689
IT,2979.427171,31.55138209,41.58857364
IT,1751.517589,41.8585045,32.55043696
IT,1354.900452,35.83607001,25.1076621
IT,2960.36852,31.734552,41.49872065
IT,8592.0218,33.10125677,109.3549317
IT,1352.906951,37.55954803,26.37419352
IT,3370.381914,44.0759834,-27.00750951
IT,1326.092512,46.92735564,26.66440542
IT,2050.640454,42.07344506,36.03756154
IT,2150.008923,35.02762945,34.23168922
IT,4187.704041,25.02189028,50.66191646
IT,3118.70249,17.106953,1.399672285
IT,5101.48562,43.9733843,73.12558996
IT,731.8510949,40.67503697,20.61230775
IT,3348.561493,50.68519687,52.31954318
IT,1664.66529,39.58597562,30.97005509
IT,2130.731823,23.76383298,12.71994298
IT,6654.531559,44.22358886,93.41479522
IT,3886.436159,11.31651501,26.90247105
IT,760.1324023,36.28122277,16.61940941
IT,1717.193352,38.64399744,31.19945244
IT,3243.60895,28.49240221,42.30156646
IT,2296.065724,44.78731936,-14.22529187
IT,1807.893601,41.67608643,33.16768661
IT,2078.339475,24.20990792,12.2320004
IT,1945.853598,38.95850171,33.95446425
IT,991.1470952,50.30992229,11.50454639
IT,4150.69721,37.67068859,58.69145767
IT,3429.704341,29.38898128,45.26176231
IT,925.2658316,34.0870333,11.21464476
IT,849.0226883,37.57791261,20.02024874
IT,2037.122033,29.03552292,26.84588244
JM,1957.041112,16.23419622,-59.45940728
JM,985.8372348,11.65321092,-71.09384555
JM,8363.942302,38.56095479,3.140093867
JM,0.0001003,17.98,-76.8
JM,2086.994344,11.69427813,-59.59637126
JM,2912.362659,25.27328388,-51.25744144
JM,2962.108477,11.22652452,-51.66550737
JM,0.0001003,17.98,-76.8
JM,7140.988148,37.06190303,-10.24928265
JM,0.0001003,17.98,-76.8
JM,1372.126635,24.71705631,-66.54563221
JM,1225.881359,18.77306564,-65.8343167
JM,1379.246802,18.85934285,-64.4577742
JM,8200.852764,10.14441325,-4.894984133
JM,0.0001003,17.98,-76.8
JM,1662.875907,29.69247478,-85.51500305
JM,9390.395313,38.62085724,14.57813334
JM,8590.030038,10.10278685,-1.411012286
JM,1379.246802,18.85934285,-64.4577742
JM,1893.531826,17.65113682,-59.86765621
JM,3442.336669,25.74910118,-46.27058471
JM,7142.389196,-7.656689054,-20.93809393
JP,5172.719864,18.5660314,93.54461594
JP,13141.52816,22.76304977,-3.307642253
JP,7692.853995,27.76646346,61.19730821
JP,5916.88801,41.41251642,74.1398757
JP,8016.731756,39.70054374,49.52333603
JP,7199.816642,46.68286917,55.46501878
JP,12267.18369,39.37343728,-49.74913719
JP,8406.123641,32.58560915,49.88801306
JP,11682.91394,39.41518776,-8.741144882
JP,12143.93076,26.62657061,6.958253869
JP,8436.644913,49.86769585,34.87037665
JP,6772.877553,35.06020115,67.20646112
JP,10692.72956,40.24308936,10.15227693
JP,14599.87695,16.70416862,-20.29451009
JP,7524.472325,35.74033347,58.14891397
JP,7634.613729,42.16483222,52.6720167
JP,9396.595179,34.45594567,36.21498216
JP,11576.18765,43.89978655,-21.24233444
JP,9357.935577,24.50439119,44.85901312
KE,4301.802962,21.16293227,66.41098603
KE,6110.395462,23.86254891,-10.1289926
KE,9035.790929,23.37394741,-38.35480899
KE,5133.809398,40.87520101,49.53564552
KE,2426.147131,18.36332226,30.25688335
KE,2925.796996,23.55062743,34.5722368
KE,3812.581449,31.13393569,34.73107683
KE,7458.401973,54.37940516,-0.323815786
KE,5175.286304,24.65125781,0.030196497
KE,2820.782497,4.827328571,13.5508967
KE,817.9636018,5.556534054,38.22096202
KE,4673.826872,33.30477865,57.71044358
KE,1994.140824,10.25235258,24.26576304
KE,0,-1.26,36.8
KE,0,-1.26,36.8
KE,0,-1.26,36.8
KE,0,-1.26,36.8
KE,2032.272449,15.58536989,32.81765809
KE,0,-1.26,36.8
KE,0,-1.26,36.8
KE,0,-1.26,36.8
KE,0,-1.26,36.8
KE,2698.655331,5.823133615,14.91613415
KE,5191.636828,39.73971297,18.77995055
KE,0,-1.26,36.8
KE,4233.022057,17.41734651,5.521011028
KE,1309.222215,2.128823363,26.18148975
KE,0,-1.26,36.8
KE,0,-1.26,36.8
KE,2203.997596,11.13427638,22.63513902
KE,4663.933282,2.749631024,-2.709053862
KE,5182.923405,40.45403778,21.04774627
KG,1648.103306,28.99738201,71.92243019
KG,2323.912038,41.03935627,48.0033628
KG,1615.337047,45.22444504,55.70974815
KG,1461.829117,39.45224071,90.52509586
KG,4513.063983,43.21756813,21.09734025
KG,2200.274265,43.2069374,48.87976298
KG,3691.990023,39.83731604,32.48899037
KG,4057.712644,44.13082829,26.31540607
KG,3885.060351,41.13478412,29.62265946
KG,4188.806984,21.59903778,40.1681254
KG,0,42.86,74.6
KG,5056.622374,13.11410924,38.45673948
KG,770.7329591,46.65575026,67.05600173
KG,3473.635144,26.76669464,44.01662659
KG,1610.363455,38.79314694,57.25998813
KG,3149.177496,42.25986204,37.92259985
KG,0,42.86,74.6
KG,770.7329591,46.65575026,67.05600173
KG,2025.350852,37.95868093,52.81570899
KG,870.1791748,43.76731383,64.48995777
KG,0,42.86,74.6
KG,2285.078166,44.42863784,47.68573069
KG,770.7329591,46.65575026,67.05600173
KG,0,42.86,74.6
KG,1610.363455,38.79314694,57.25998813
KG,2708.929666,56.31542674,45.17367604
KH,6450.581464,32.83258163,49.41264284
KH,113.8838923,11.9954886,104.030517
KH,0,11.55,104.91
KH,1611.402289,20.4723028,94.05644198
KH,3788.297288,25.84714094,74.24853705
KH,1488.304927,20.02408119,95.1114318
KH,2067.227056,26.12671041,94.45520837
KH,1640.764845,19.448709,92.94358972
KH,1956.947008,25.68738033,95.58015563
KH,113.8838923,11.9954886,104.030517
KH,6951.679896,36.61184771,44.89297764
KH,6601.792331,49.12602223,54.07917656
KH,11568.93331,44.35598202,-9.310920593
KH,6518.498915,19.49243867,47.67042294
KZ,6539.399,24.78541349,6.15321945
KZ,5303.802156,24.74407004,23.25041939
KZ,4502.13362,37.81345297,19.78760642
KZ,6248.263673,28.95083048,5.382276083
LB,1061.374461,35.84397253,24.76940632
LB,6107.548106,-13.68751241,57.51599205
LT,0,54.68,25.31
LT,0,54.68,25.31
LT,1181.69295,54.77989019,42.77430429
LT,2055.691086,43.25261356,45.72647432
LT,0,54.68,25.31
LT,0,54.68,25.31
LT,2580.558403,33.05540856,19.83043485
LT,854.9078212,49.90494862,34.30986948
LT,0,54.68,25.31
LT,0,54.68,25.31
LT,535.7176619,53.1512273,32.60911174
LT,1289.49974,44.11458071,29.91662828
LT,1532.122553,48.60941555,6.60668291
LT,0,54.68,25.31
LT,0,54.68,25.31
LT,3224.69235,49.89660266,70.31398069
LT,0,54.68,25.31
LT,1665.45364,43.43716881,38.61299542
LT,0,54.68,25.31
LT,0,54.68,25.31
LT,0,54.68,25.31
LT,2199.642001,37.46384056,14.51673246
LT,1008.68859,51.87902328,38.913918
LT,3965.545302,42.86,74.6
LT,0,54.68,25.31
LT,0,54.68,25.31
LT,1672.914883,62.39117356,48.51982001
LT,0,54.68,25.31
LT,0,54.68,25.31
LT,0,54.68,25.31
LT,0,54.68,25.31
LT,2953.500738,29.74801846,20.81662518
MA,2938.304967,28.95581194,21.97662679
MA,1433.405938,37.6977751,7.528887546
MA,1680.775962,34.90045384,10.49272601
MA,2892.978702,15.36124691,-24.66883864
MA,1973.440228,37.48752212,13.45200329
MA,1492.851824,37.96891711,8.105939761
MA,1543.063152,21.00131399,-4.962951527
MA,1340.205192,34.19269961,-20.63788719
MA,1680.775962,34.90045384,10.49272601
MA,0,34.03,-6.85
MA,1333.934578,25.68781635,-15.75011114
MA,1327.586402,37.26392648,6.489651556
MA,2940.139735,22.372989,18.40792279
MA,2724.540302,38.72718198,21.48273274
MA,0,34.03,-6.85
MA,1433.405938,37.6977751,7.528887546
MA,2986.813296,40.32563407,24.25069983
MA,1680.775962,34.90045384,10.49272601
MA,692.7235466,28.19455288,-5.859621448
MA,4514.839504,26.19284931,36.99391086
MA,10813.31815,7.819477062,90.97831341
MA,1451.80872,27.99195627,-19.44976989
MA,5084.71191,43.25836111,48.34713026
MA,3862.387975,28.3013414,31.21220864
MA,1635.374851,44.96517806,4.37283389
MA,1925.927182,37.15992171,-26.68016838
MA,6154.074955,28.14678679,54.85660984
MA,5359.195666,34.51478071,49.10143018
MA,6429.981455,35.85691203,61.3379666
MA,5771.927682,30.58740196,51.95216335
MA,8162.942987,19.12274644,70.82601027
MA,2459.085604,34.27441319,18.50869979
MA,4048.996998,32.77677723,34.69607272
MK,2275.270228,40.33940131,47.16160501
MK,6497.135709,13.78524396,-33.97684422
ML,8861.716484,37.75820064,73.24499799
ML,3782.437329,31.26163924,20.55878014
ML,3490.398425,31.82953689,16.71841524
ML,2690.734542,31.98548727,5.372558079
ML,1662.562501,21.4198673,-19.63326086
ML,0,12.65,-8
ML,6620.233006,24.71705631,-66.54563221
ML,4110.329022,35.32970924,21.52946148
ML,482.1764453,16.44006391,-6.372215111
ML,4420.984828,27.02455165,29.18858836
ML,6280.527059,46.88407844,41.22847115
ML,0,12.65,-8
ML,0,12.65,-8
ML,2453.206677,29.3356996,5.522194101
ML,647.6277787,18.02628826,-9.264595751
ML,1710.219211,26.53759088,-3.349542536
ML,497.28557,16.8785256,-7.798585626
ML,219.4777148,13.07904474,-9.865136042
ML,5716.166008,5.996510814,40.91761362
ML,219.4777148,13.07904474,-9.865136042
ML,219.4777148,13.07904474,-9.865136042
ML,879.4469005,19.92766363,-6.171090625
ML,0,12.65,-8
ML,4168.384616,32.78251153,23.993891
ML,9898.134705,28.6436339,82.32642848
ML,6625.856629,7.646663354,49.17310953
ML,628.2077088,17.96485568,-7.388580237
ML,6740.528142,39.89280061,49.82397663
ML,4953.465749,19.40088686,35.41926475
ML,7005.760003,42.48385854,52.19983111
ML,7259.229974,24.63658134,56.53165824
ML,5967.447951,18.55684889,44.5559022
ML,3256.884771,35.04040858,10.07086877
ML,5107.146664,29.83431525,-51.22559091
ML,3287.932624,26.89580538,17.71804308
ML,8524.704635,-11.05084923,61.10065902
ML,5689.76583,19.17863859,42.0662765
ML,7019.234698,42.19373335,52.43359652
ML,3195.996819,30.71978432,14.04090033
ML,7528.687291,22.35187271,58.92138919
ML,5329.1821,31.67090169,-52.95757496
ML,6508.446086,47.04143157,44.19835863
ML,2366.871514,16.55179044,12.43728832
ML,766.5939368,17.15616,-3.114382712
ML,1463.977715,20.37235565,2.212093556
ML,3042.25687,15.73742442,18.53970686
ML,1463.977715,20.37235565,2.212093556
ML,0,12.65,-8
ML,219.4777148,13.07904474,-9.865136042
ML,5490.154618,59.19158684,-2.34249627
ML,219.4777148,13.07904474,-9.865136042
ML,219.4777148,13.07904474,-9.865136042
ML,4906.149366,18.92753863,35.01245557
ML,0,12.65,-8
ML,602.2691322,17.43590078,-6.096255712
ML,616.6929319,17.89935742,-8.028300915
ML,645.9644327,18.10688469,-7.298595492
ML,2607.94833,25.07464409,11.5026826
ML,0,12.65,-8
ML,4439.900433,27.75345123,29.14944793
ML,1393.702444,3.940776769,-16.14924578
ML,355.772881,13.17584285,-11.05982672
ML,2406.501413,9.208901956,-28.57410773
ML,5773.114243,31.20047219,41.61619522
ML,4099.368737,30.44503005,24.52714457
ML,0,12.65,-8
MM,0,19.75,96.1
MM,0,19.75,96.1
MM,300.4385472,20.50190928,93.49661736
MM,3847.890619,22.54606703,61.0301487
MM,3455.399695,30.67628891,65.77289919
MM,1216.597811,19.01707143,85.14736389
MM,4360.663702,27.42191878,56.29114675
MM,644.8257844,14.69228619,98.33353937
MM,0,19.75,96.1
MM,6794.034561,27.06398398,32.95849755
MM,2978.642388,14.2944458,70.17263331
MM,3778.537189,22.76748401,61.66384729
MM,1216.597811,19.01707143,85.14736389
MM,0,19.75,96.1
MM,1216.597811,19.01707143,85.14736389
MM,0,19.75,96.1
MM,11911.09663,32.44851305,-22.38486393
MM,389.3764439,16.64828362,94.86994655
MM,4741.919806,34.00841257,53.35293622
MM,2811.011944,43.37743263,91.59359349
MM,3542.221601,36.22593404,67.24807874
MM,3096.074548,15.4751306,68.78307806
MM,2901.638968,40.9823117,81.28895008
MM,0,19.75,96.1
MM,2546.660395,25.61378559,73.44365659
MT,2748.479332,35.57047049,43.42249106
MX,9979.502858,47.03695566,4.176812958
MX,10239.11256,12.65,-8
MX,15305.74381,13.21049238,42.2421997
MX,11740.01188,48.93489786,33.02681946
NE,927.8297158,21.42330247,1.79739917
NG,2501.880841,15.14075491,-13.41012601
NZ,19330.95059,26.78638842,-12.05210415
PE,8679.058924,21.34085764,-9.860147461
PK,4679.137005,39.15932489,23.5195516
PK,4044.667623,44.74448306,30.48756941
PK,6708.782642,37.27874962,1.406095186
PK,3371.186152,32.03464441,38.90100002
PK,1237.675726,40.05314733,62.67456725
PK,4409.471905,42.35128319,26.17032647
PK,4773.611026,39.6889668,22.37186278
PK,3150.413885,38.92189856,40.34517433
PK,6231.271043,20.15911849,14.82870382
PK,5115.382027,28.95581194,21.97662679
PK,2651.05252,39.87367759,45.95021481
PK,7599.739383,36.03556999,-8.171959449
PK,3854.367897,41.8585045,32.55043696
PK,1585.670447,35.34349166,56.89045282
PK,3558.693412,40.6192269,35.86716961
PK,2949.854629,39.65492238,42.59591188
PK,2968.956381,41.09911738,42.56932789
PK,4717.434366,33.95359337,24.35486825
PK,4141.638489,48.56891724,29.88970789
PK,9378.442549,-4.351867264,-1.568313972
PK,614.7610021,30.14509929,68.59151833
PK,1668.814284,40.70297835,88.68809874
PK,200.5983586,33.51356086,75.20222809
PK,2496.492161,35.47176799,47.37423338
PK,2121.053423,41.09455985,52.37259145
PK,9319.749142,13.58531244,-12.9470432
PK,1998.635997,29.97932265,53.57830916
PK,824.2260552,34.36005397,64.73591652
PK,4105.877769,27.28726691,33.02654444
PK,4249.522721,33.47906099,29.40907126
PK,2652.753742,38.96563891,45.80332379
PK,2320.0992,46.85433527,53.72879939
PK,2143.935821,40.77248461,51.97381959
PK,7599.739383,36.03556999,-8.171959449
PK,3101.619486,22.27881507,46.04719319
PK,3334.687015,39.94646951,38.34548027
PK,4962.528916,40.89781034,20.02283125
PK,2791.918172,34.74394902,44.35666447
PK,3409.784087,39.37044151,37.5038007
PK,2824.273926,37.94907803,43.86410711
PK,3612.765231,50.08012656,37.55920851
PK,3893.495654,37.61581514,32.34863629
PK,1902.523027,41.17502944,55.03382693
PK,2600.0594,29.64819407,47.5193829
PK,942.4948355,35.92408963,63.7830034
PK,9774.072894,34.46740556,-33.3714479
PK,3032.939512,30.99986507,42.65815436
PL,357.1038626,49.36219637,19.34754129
PL,3482.252335,29.84026507,-5.413654577
PR,8659.637182,9.99253961,9.92959361
RO,4268.218263,19.26385075,-5.441765393
RO,2497.250293,30.88616235,46.99326754
RO,2416.989828,37.45739222,51.8773467
RO,2860.836266,25.29750829,44.73200822
RO,3777.14822,14.14224482,38.83464275
RO,1732.760396,30.50167184,19.87077615
RO,2107.118208,31.07016083,41.37615037
RO,1440.540473,35.53818433,15.01248922
RO,2879.793425,38.37176778,58.0008772
RO,554.5460167,40.49560424,29.67825373
RO,6273.025168,32.13051553,94.35872756
RO,2237.984707,25.76381885,21.27672159
RO,1564.565774,32.80625217,34.50927368
RO,6110.971499,16.1995309,78.32763991
RO,3907.691273,14.21774024,42.50250737
RO,4409.008402,31.81850944,71.78124307
RO,1964.000296,27.93849158,22.52406574
RO,788.7729993,39.91,32.83
RO,1472.938606,32.50878214,21.03504249
RS,3281.259164,25.21520327,-4.218335744
RU,6506.690069,11.98932479,-6.342744283
RU,6862.99502,14.05271683,-16.1194652
RU,5631.229,19.76679525,-4.899216965
RU,3679.232723,25.69308457,25.52651682
SD,4830.264439,17.60692108,-10.41833424
SN,6793.450852,20.47511282,43.26073441
SN,1658.849659,22.07483066,-4.733536532
SN,1713.068449,21.29598787,-3.745745186
SN,3195.177599,10.77005161,-45.02456023
SN,3583.80268,20.98259892,13.9968487
SN,2334.662792,27.82820048,-33.4379431
SN,6170.312273,50.47890295,30.43085442
SN,9526.524515,20.81496534,68.47339636
SN,1216.104772,8.13659205,-9.205371037
SN,1592.919564,27.47432645,-22.17460362
SN,5322.994706,9.789278572,28.75891447
SN,3341.759903,26.31286303,-45.21415876
SN,8556.013463,45.73724626,62.87423486
SN,6650.370248,20.60995344,41.96747088
SN,4816.245597,14.77903005,25.0439751
SN,9767.720817,33.24653538,73.96351901
SN,4520.275041,18.11458126,22.61039241
SN,5597.486642,41.39133078,28.34991171
SN,1993.392761,9.928484398,-0.724231369
SN,3940.603,10.34563053,16.6964429
SN,2974.608136,11.81228438,8.451357931
SN,2593.806791,33.45327334,-4.622096316
SN,2717.816959,8.448664573,-40.17488561
TH,6832.417652,22.69814959,39.58251826
TH,7976.47223,40.08617286,27.95892393
TH,3980.984943,28.50954799,67.58348535
TH,4141.696539,30.13455977,66.5801503
TH,6486.673802,31.75241596,43.11277465
TH,10215.9317,29.17968079,6.229567902
TH,5520.004648,34.57343011,53.65812698
TH,9546.718693,29.36185771,12.87266805
TH,3206.204232,33.38541793,79.61884209
TH,4288.544331,24.31257765,63.3721846
TH,7357.056849,28.55333975,34.4195582
TH,3564.368966,34.693048,76.15534134
TH,5427.053253,32.6966647,54.0878892
TH,9545.403831,26.23119207,13.57361194
TH,3818.053242,19.19571994,67.01241271
TH,681.5425447,18.98706062,103.082581
TH,5914.266663,25.07299232,48.13306439
TH,9829.286473,22.74185274,11.65602447
TH,4433.27441,21.32368653,61.60093695
TH,3520.086754,36.11768124,78.23112261
TH,6278.041214,35.49891015,45.83990999
TH,8558.744346,57.30891118,20.88747198
TH,3815.238334,37.17908339,75.23100887
TH,5478.498392,28.14921055,52.60988442
TH,4237.315804,34.07014725,67.52574949
TH,1366.478716,21.15216455,91.06512307
TH,1798.695243,26.96765091,92.21052142
TJ,9261.579535,16.64486687,-20.04534541
TJ,5151.488372,32.22804623,14.79357681
TJ,4877.377994,36.79460873,15.63921067
TM,5563.861863,40.57607797,26.89659735
TM,3680.963674,30.86100083,5.708138472
TM,7672.740342,40.88200662,56.46559578
TN,6739.922033,42.6997721,87.11551902
TR,163.5779245,39.04894901,31.41224024
TR,1539.233067,32.4610624,46.22017757
TR,3094.269488,18.21663027,15.52209607
TR,4971.906931,29.04790282,-17.52326285
TR,2140.883852,33.5880063,11.42467326
TR,330.6415714,42.71237246,32.4824865
TR,1147.672069,30.20335776,34.18290169
TR,2121.311305,41.75117639,56.64754716
TR,4284.972905,16.63568325,0.416502751
TR,1575.064036,37.83886886,15.78766286
TR,1170.017523,32.49546971,24.57201518
TR,1207.978598,47.79598368,42.01275215
TR,487.6137876,41.88358436,27.99794622
TR,5330.39264,10.40772945,-6.136850341
TR,1922.058359,37.79156717,11.94909864
TR,1599.311335,33.45450472,17.84791163
TR,985.4178862,32.62286385,37.99213118
TR,172.2539599,39.58597562,30.97005509
TR,0,39.91,32.83
TR,0,39.91,32.83
TR,1713.763605,40.77248461,51.97381959
TR,0,39.91,32.83
TR,0,39.91,32.83
TR,0,39.91,32.83
TR,0,39.91,32.83
TR,233.9628348,40.30937434,30.27882806
TR,0,39.91,32.83
TR,0,39.91,32.83
TR,0,39.91,32.83
TR,0,39.91,32.83
TR,0,39.91,32.83
TR,157.581183,40.8395061,31.56049164
TR,1292.885508,41.02196073,18.42162804
TR,361.3863006,40.5881031,28.89831387
TR,2078.524264,32.96087376,12.53498761
TR,756.6711027,37.78487579,25.01925333
TR,0,39.91,32.83
TR,732.2604458,39.86223205,24.7041477
TR,1332.782986,39.63954705,47.60386176
TR,0,39.91,32.83
TR,0,39.91,32.83
TR,1189.970877,37.40510632,20.24863707
TR,0,39.91,32.83
TR,0,39.91,32.83
TR,3321.391401,35.32150567,68.29102944
TR,2945.744096,34.59174292,1.874395628
TR,2262.891971,45.94134853,57.94923327
TR,859.6493293,39.10510165,42.26130602
TR,8081.260426,47.69490714,-69.77873501
TR,11546.10062,-25.08981414,112.2126516
TR,2538.694214,59.28046011,48.01507598
TR,172.5921447,38.5974415,33.68235711
TR,725.0110984,33.79557894,31.78251868
TR,5456.264381,10.09479848,-7.394223976
TR,1290.245512,39.60274371,47.12593959
TR,134.7892829,39.15586692,33.95118919
TR,0,39.91,32.83
TR,172.2539599,39.58597562,30.97005509
TR,746.1374567,39.82820695,41.10745461
TR,0,39.91,32.83
TR,172.2539599,39.58597562,30.97005509
TR,1504.203529,52.37883517,37.06774873
TR,172.2539599,39.58597562,30.97005509
TR,971.8868774,46.47398987,25.90754544
TV,18769.54103,-1.53184606,-18.40684159
TW,6223.190085,36.52936261,60.51924259
TW,5728.038587,46.85126453,66.70320046
TW,1352.420069,30.23571271,110.3044693
TW,2548.104468,33.49477117,98.83485415
TW,0,23.76,121
TW,1352.420069,30.23571271,110.3044693
TW,0,23.76,121
TW,0,23.76,121
TW,0,23.76,121
TW,0,23.76,121
TW,0,23.76,121
TW,0,23.76,121
TW,0,23.76,121
TW,0,23.76,121
TW,0,23.76,121
TW,0,23.76,121
TW,0,23.76,121
TW,0,23.76,121
TW,0,23.76,121
TW,0,23.76,121
TW,0,23.76,121
TW,0,23.76,121
TW,0,23.76,121
TW,7963.309387,46.96350034,38.69011099
TW,3847.056104,43.56087672,89.15843228
TZ,3950.833519,-3.485736193,2.090844373
TZ,3764.1749,25.53217051,40.52535385
TZ,1127.351315,3.264638156,33.98360983
TZ,5638.942926,11.19150743,-9.230957037
TZ,5087.814364,10.63420157,-4.353244742
TZ,2606.328366,11.59853731,49.09376931
TZ,1482.329809,-7.205029097,23.07792015
TZ,1242.62911,4.335276633,34.50382226
TZ,828.3801747,0.83490554,34.93056745
TZ,6727.73469,39.65817388,72.98514296
TZ,1014.869259,2.239204014,33.75865165
TZ,3932.872389,26.49112269,28.16048135
TZ,5035.911406,36.18095757,42.80619421
TZ,2688.743715,11.42107389,50.45554466
TZ,5542.559904,40.5881031,28.89831387
TZ,4528.538089,27.84154115,16.95293431
TZ,4025.832912,19.05744818,12.19755337
TZ,3325.410841,18.45373735,21.58326886
TZ,4345.786864,30.20948584,42.73217611
TZ,3492.691761,23.30469172,39.72365672
UK,3093.656957,26.17162082,0.596730853
UK,2031.532644,40.19706143,17.67091312
UK,3769.359086,44.73872816,47.97093112
UK,4949.445412,37.11585214,57.09147085
UK,0,52.5,-0.12
UK,0,52.5,-0.12
UK,0,52.5,-0.12
UK,0,52.5,-0.12
UK,0,52.5,-0.12
UK,0,52.5,-0.12
UK,0,52.5,-0.12
UK,0,52.5,-0.12
UK,0,52.5,-0.12
UK,0,52.5,-0.12
UK,0,52.5,-0.12
UK,0,52.5,-0.12
UK,0,52.5,-0.12
UK,0,52.5,-0.12
UK,0,52.5,-0.12
UK,0,52.5,-0.12
UK,0,52.5,-0.12
UK,0,52.5,-0.12
UK,1884.853391,53.49594551,26.64547106
UK,3340.93722,29.84515043,23.30407968
UK,1370.88747,41.80004559,6.774514627
UK,2203.951958,44.48864716,25.70408743
UK,723.3230413,48.46040161,7.193253726
UK,3981.364352,34.66878592,40.71297911
UK,4185.820995,24.76068854,-29.74991949
UK,570.940308,51.24058269,7.486591913
UK,988.8402612,49.62333298,12.48933112
UK,3153.540747,25.95726271,-5.441602373
UK,2138.76878,39.64314402,18.67199626
US,10644.58661,34.22036137,47.37980874
UZ,3049.156958,41.7255699,34.32299991
UZ,7153.987328,21.00076194,0.083059705
UZ,8694.997347,12.95002292,-10.75812613
UZ,2061.650193,40.98206354,45.84645172
UZ,3124.291722,35.90133959,35.66164674
UZ,3861.415781,31.48199518,29.82870868
UZ,3422.972448,41.05014907,30.17791715
UZ,2362.568282,38.34442207,43.20841933
UZ,3879.253353,37.49041007,26.33274223
UZ,3649.530394,34.03757939,30.69990521
UZ,12904.0228,11.5807038,-60.63298992
UZ,4371.44518,37.51160598,20.6756928
UZ,3286.748442,33.61231318,35.05571396
UZ,3235.33534,40.72924511,32.45148462
UZ,3424.486747,39.82351183,30.57800404
UZ,2808.484079,38.0648187,38.26596142
UZ,4604.460423,40.20539645,16.68424656
UZ,3849.473696,37.84442763,26.51138337
UZ,4438.666616,41.2594554,18.18479134
UZ,8631.94441,30.99056566,-25.70062347
UZ,4706.314715,37.17783519,16.97883606
UZ,1828.280243,42.35297149,48.33044441
UZ,5075.47056,41.96705019,10.21741236
UZ,5495.087667,33.07939661,10.26348591
UZ,1450.019721,46.37548843,53.59935372
UZ,3762.962612,39.39774885,26.84211314
UZ,1947.179712,42.37869724,46.95624384
UZ,2815.349858,42.67140931,36.8369212
UZ,0,41.26,69.21
UZ,2362.287793,41.19612857,42.36576554
UZ,4023.412346,39.03728572,23.98533617
UZ,1385.8976,40.75784516,53.56962767
UZ,651.2461506,39.69156389,62.21761795
UZ,2458.576629,41.58191725,41.18053291
UZ,1197.488653,32.58029949,62.50600483
UZ,3297.122294,41.56657077,31.48399354
XK,1307.672316,32.34167921,26.44384838
ZA,7526.399643,30.03573193,14.43575559
ZA,12676.54006,32.31814177,109.1645125
GE,2000.520214,38.39786893,22.8925858
EG,2048.053778,37.63238178,12.26392127
EG,4050.396294,22.78732375,-6.611097133
EG,2385.124341,28.72933445,7.918531024
EG,2292.473041,34.57701134,8.703411669
EG,5179.62226,10.99474856,-11.66694741
EG,5803.767367,41.41120478,-29.29286306
EG,1863.763072,45.64475475,27.6260837
EG,1324.833202,32.1857362,44.14744427
EG,1645.091832,35.99676876,16.07349838
EG,2131.49145,40.95698898,49.09355931
EG,2668.646588,28.37871636,57.22107788
EG,296.1971543,30.91973594,33.94735742
EG,11358.77988,-1.716747599,-65.52428677
EG,1113.894802,26.16195165,21.39060919
EG,1771.2391,30.48492712,13.74548015
20087.6075151 0.0 3700.80881148,,,
