BG,218.618848285,41.2111620273,24.8464011313
AF,2985.8322804,37.6542748745,37.7742928808
BR,9938.02940354,31.3432334463,25.4094654023
BR,11500.5216466,40.7017004806,38.9346723084
BR,5716.99461056,12.65,-8.0
BR,16042.1405941,-1.27796638217,91.5871996385
CU,8522.40461997,41.4491105149,4.29864668877
CU,12809.5009783,36.3274010969,56.5890348557
CV,6442.05541665,39.91,32.83
ML,6871.5251846,36.3321712398,52.0125462704
TR,1612.9151926,42.0411799318,50.829988583
DZ,4477.84522211,-1.14500844228,8.09784531325
EG,3865.75110801,26.5558858642,-6.11566879055
ES,3298.13375099,43.1107473838,-41.4928940887
ES,3525.72517634,11.0933809757,-10.865309732
ES,3293.60749466,12.65,-8.0
ET,5011.18482831,24.7783250795,-2.94525767906
FI,5515.28580802,28.61,77.2
GN,3373.82899226,18.3600582396,-41.8999396768
HR,7701.07403836,36.3217521058,107.100958805
IL,1535.80687643,38.5484373301,21.4978294994
IN,6022.94040378,18.4475971983,21.9047641017
IQ,1645.65409129,29.3273830035,28.6942845547
IR,2608.88277181,38.0,23.71
MA,3889.03278232,18.2075216287,25.8045531925
ML,0.0,12.65,-8.0
ML,1646.80374733,26.5558858642,-6.11566879055
ML,5564.34367708,-6.17,35.74
MX,13273.5465533,42.0411799318,50.829988583
MX,7766.72514098,83.851619501,-61.9672508341
NG,5356.20457222,0.966150837055,-37.6096135311
PE,9928.99614585,11.3072288306,4.80106210124
PL,2288.12632825,32.9144514393,24.6939988022
PL,3766.75219191,46.2156690165,70.2515390331
RU,6530.16040456,12.65,-8.0
RU,1957.32662286,40.8035060377,26.3845488104
SN,549.870007472,13.6994320622,-12.6849031689
SN,5560.7348893,27.0599233453,31.8216237556
TR,3935.06921126,24.7783250795,-2.94525767906
TR,513.523261484,43.9693851308,35.0113913976
TV,17391.8388846,37.7954458624,13.3702931834
UK,5926.7527982,37.4763955106,71.2855517604
UK,4038.66197097,40.6401223997,47.9603517864
UZ,3225.83038521,39.91,32.83
AR,9313.59577221,24.7783250795,-2.94525767906
BR,14686.4533053,39.9189259865,74.8252115965
TR,0.0,39.91,32.83
UZ,7506.33615584,7.88027974609,7.21091513575
DZ,1865.7093535,41.3548863173,22.8097338152
UZ,1686.17552276,37.7470300597,51.1345639069
DZ,1240.11656232,27.7608693529,9.86330294379
UZ,4044.27953719,41.3548863173,22.8097338152
ES,4110.28893373,38.7278221005,42.1606201624
UZ,3058.92945017,21.5831232463,89.4363783367
ES,6267.31149606,0.370131587999,-42.5558947735
UZ,3449.46617341,44.3789974312,28.997229489
GN,2172.73357069,26.5558858642,-6.11566879055
UZ,9282.30050235,41.4904909699,-46.7302268553
IS,10662.5110031,13.75,100.48
UZ,3153.22865982,41.2002715467,33.2591150737
IT,1195.30905156,38.6157833644,-0.155195024154
UZ,4783.33407215,34.1620117639,17.7581530899
ML,0.0,12.65,-8.0
UZ,4830.05999015,37.4760936332,15.3874445354
MX,5404.58978653,53.4962452216,-59.5967477114
UZ,2445.74872878,45.23588609,40.9982865196
RU,6530.16040456,12.65,-8.0
UZ,1612.9151926,42.0411799318,50.829988583
SN,1099.74001494,12.65,-8.0
UZ,3832.45650127,17.3409827389,43.3451602224
TR,2815.44880748,29.5960054452,6.33450812327
UZ,4299.98547413,41.33,19.8
IN,6548.15577753,41.4264860706,9.15684178174
UZ,835.818535959,35.0000716407,73.5148146668
ZA,8877.08555922,41.5864394127,15.2189677716
UZ,2226.96066238,38.8030614658,93.8435952211
UZ,4237.06135354,32.9144514393,24.6939988022
DZ,5904.78820675,41.26,69.21
LB,5545.85327511,10.6447870997,-9.51857070664
PK,10590.9275219,11.5732826306,-24.8663639257
UK,4261.56596154,52.8234069506,61.6402345356
UZ,12748.0264733,-10.623455018,-36.1704342708
RO,3653.44105431,37.2965083715,66.5799672838
LT,0.0,54.68,25.31
RO,2777.60711824,31.3384980116,0.908239683343
LT,0.0,54.68,25.31
RO,2108.61396555,27.0599233453,31.8216237556
LT,0.0,54.68,25.31
RO,788.772999328,39.91,32.83
UK,0.0,52.5,-0.12
RO,2994.05384619,26.3301069464,3.78797343652
UK,0.0,52.5,-0.12
RO,2869.65101944,36.3274010969,56.5890348557
MA,4478.17508227,27.2455370352,37.0917445479
RO,788.772999328,39.91,32.83
LT,2788.44140937,38.4615676263,51.0130401314
RO,4691.03442996,56.8027251496,88.4942893402
UK,0.0,52.5,-0.12
RO,2947.447486,19.4705060765,29.3837579684
UK,0.0,52.5,-0.12
RO,2138.0568528,38.4786204777,49.1567742568
MA,3339.99324393,39.0438237783,28.2084149057
RO,782.002349383,38.0,23.71
UK,0.0,52.5,-0.12
RO,4580.70601044,14.5304030845,55.6321331211
MA,8931.95060226,6.20227498119,70.4635778799
RO,5560.02627703,13.5996944485,-16.2355416834
UK,0.0,52.5,-0.12
RO,0.000100299715996,44.41,26.1
MA,5146.78143851,-0.429736548676,-35.7050643283
RO,788.772999328,39.91,32.83
UK,0.0,52.5,-0.12
RO,5403.1701053,11.0933809757,-10.865309732
UK,0.0,52.5,-0.12
DZ,4184.11285054,11.5732826306,-24.8663639257
MA,7546.70564655,35.0000716407,73.5148146668
DZ,1565.8015649,23.563888272,5.83031450005
MA,3718.78450964,9.74584352408,-29.0029606551
DZ,3887.22717324,41.9230605333,45.893809205
MA,4893.20102374,41.9230605333,45.893809205
DZ,6077.34780175,-0.429736548676,-35.7050643283
MA,3264.29809656,28.5035982943,25.1493310285
DZ,4556.37858451,36.3321712398,52.0125462704
ET,4046.9837546,41.2111620273,24.8464011313
DZ,6043.75167851,14.5304030845,55.6321331211
ET,3037.17224982,10.3115741426,12.5392923517
DZ,4237.57576496,38.4786204777,49.1567742568
ET,3506.49395419,36.3321712398,52.0125462704
DZ,8901.02670531,-4.53261115322,71.6982750097
ET,6283.60752004,13.9022778912,-15.7172538676
DZ,6721.91611192,58.5062603084,-82.4297589046
UK,0.0,52.5,-0.12
DZ,4184.11285054,11.5732826306,-24.8663639257
ET,4444.35621753,37.2965083715,66.5799672838
DZ,5174.12616421,20.742114142,50.648270461
ET,2816.02984762,30.2899402993,26.8842905085
DZ,10861.2040399,26.0400366207,118.272212955
ET,6617.80121902,19.75,96.1
DZ,6043.75167851,14.5304030845,55.6321331211
UK,0.0,52.5,-0.12
TR,1576.06614129,35.7613983656,49.0146520207
ET,1957.23029215,20.7376093924,26.4476560266
TR,1830.07694377,43.3221652368,53.2189849865
ET,2411.58927515,19.8435686509,56.7948171949
TR,6300.7934639,15.0037268221,-21.991825426
UK,0.0,52.5,-0.12
TR,1095.10116841,33.2636942167,40.984759638
ET,4142.0542535,41.3548863173,22.8097338152
TR,5474.62446477,15.6263461698,-13.05043698
UK,0.0,52.5,-0.12
TR,524.513318848,37.6542748745,37.7742928808
ET,2411.58927515,19.8435686509,56.7948171949
TR,3221.02770833,30.4188266654,1.13697206688
ET,1840.09425872,24.4982989473,36.1567551835
TR,5474.62446477,15.6263461698,-13.05043698
ET,5172.94803294,42.0915325877,71.8710197415
TR,1817.56949852,41.9,12.48
UK,0.0,52.5,-0.12
TR,858.891313874,38.7278221005,42.1606201624
ET,5828.43210314,-14.5704598955,-5.27242539047
MM,7306.88210862,44.41,26.1
MM,5792.28907809,25.2811588426,42.7260697544
MM,429.919469989,16.7615538044,98.324559591
MM,3308.90060951,16.3002163875,66.6655558561
MM,0.0,19.75,96.1
MM,0.0,19.75,96.1
MM,0.0,19.75,96.1
MM,6004.11327598,56.9889284149,48.3086096681
MM,1136.51873575,24.4734977291,86.9817283808
MM,6233.56430864,29.4533487223,38.1421768709
MM,3905.80171703,52.4629532761,88.472087176
MM,2429.35508278,29.5021933143,116.217706107
MM,3308.90060951,16.3002163875,66.6655558561
MM,0.0,19.75,96.1
MM,0.0,19.75,96.1
MM,3308.90060951,16.3002163875,66.6655558561
TH,4492.80656315,37.2965083715,66.5799672838
TH,7537.70177388,39.91,32.83
TH,3079.89881823,28.61,77.2
TH,2880.52526299,26.817987819,78.2759455216
TH,8437.43684796,31.9877555142,23.5330104837
TH,6779.53500479,20.2691931278,40.2104743566
TH,5366.06821653,31.3878042707,54.3742304121
TH,2612.14224325,26.2540199695,80.8474660963
TH,7227.48603862,39.5834863405,36.2416826154
TH,4419.69500962,32.8068818658,64.8141909834
TH,13418.3852629,12.25352116,-18.5548232723
TH,569.746138052,11.55,104.91
TH,3079.89881823,28.61,77.2
TH,7354.19301214,19.3355559172,35.0765452623
TH,5191.59324585,11.9717391488,55.1230562803
TH,0.0,13.75,100.48
TH,2945.66984595,32.7079251804,82.4811136419
TH,7354.19301214,19.3355559172,35.0765452623
TH,0.0,13.75,100.48
TH,284.873069026,12.6591538419,102.704550355
TH,5366.06821653,31.3878042707,54.3742304121
TH,9676.41638596,47.3712316862,6.81366062237
TH,5124.94836349,38.5445337215,59.7574150379
TH,6489.53965038,25.2811588426,42.7260697544
TH,5367.71753925,36.6276124419,56.0553288768
TH,0.0,13.75,100.48
TH,0.0,13.75,100.48
CN,1034.17700408,44.2151908407,106.022520464
CN,8245.84581584,36.3290703464,22.5577472275
CN,2958.70149373,42.5905517011,82.850279735
CN,4291.65946414,54.5666791841,65.5313637383
CN,5987.18568547,49.1809205237,43.1021906662
CN,4617.7900029,67.5508550532,64.4939956354
CN,13025.8530844,15.2423856098,-18.8131270064
CN,10516.2860707,27.8412379586,0.954430635289
CN,1926.43966522,47.7619109549,96.3131219777
CN,4169.2521185,30.6956453331,73.9329810505
CN,1741.63079659,27.0503675309,107.489791795
CN,2079.49130038,43.0675252305,93.047455981
CN,2902.62082873,28.9120934968,89.3801983311
CN,8118.3822611,27.0599233453,31.8216237556
CN,2956.40269292,47.8481053208,82.9153596085
CN,11438.7796567,7.51741986587,10.1767020274
CN,12110.4726402,18.2663978614,-9.56003497744
CN,8118.3822611,27.0599233453,31.8216237556
CN,0.0,39.91,116.38
CN,4336.28929475,34.7405849433,69.8884973801
CN,0.0,39.91,116.38
CN,4055.4201632,52.195812545,68.7732594761
CN,4268.92424166,3.88280470675,111.136227256
CN,6174.76115172,41.9126027976,44.6916829953
CN,3992.15799166,28.61,77.2
CN,7220.56868423,39.91,32.83
CN,7096.61749632,18.2555372311,50.0837292599
CN,6326.73436025,37.6081235983,45.4268927832
CN,4981.6325156,35.1572315985,62.4192219205
CN,7070.7790147,36.0603572576,37.4908490526
CN,6309.90172754,45.23588609,40.9982865196
CN,5066.49879363,38.5445337215,59.7574150379
CN,5817.58958715,38.5430918894,50.9439743452
CN,8245.84581584,36.3290703464,22.5577472275
CN,7709.52537078,38.7114742611,27.4769116643
CN,8855.31378244,39.3708006712,11.2726802412
CN,7646.59270363,24.4050662987,39.2939451778
CN,2079.49130038,43.0675252305,93.047455981
CN,7997.49366998,34.0718405466,27.6365590876
TW,4627.33208874,28.61,77.2
TW,5109.09520267,47.5557591296,74.8851475063
TW,0.0,23.76,121.0
TW,0.0,23.76,121.0
TW,0.0,23.76,121.0
TW,3787.50261412,39.1607051644,87.4433366793
TW,0.0,23.76,121.0
TW,0.0,23.76,121.0
TW,0.0,23.76,121.0
TW,0.0,23.76,121.0
TW,0.0,23.76,121.0
TW,0.0,23.76,121.0
TW,0.0,23.76,121.0
TW,10446.2515931,45.4605495205,6.29067934158
TW,0.0,23.76,121.0
TW,0.0,23.76,121.0
TW,0.0,23.76,121.0
TW,0.0,23.76,121.0
TW,0.0,23.76,121.0
TW,0.0,23.76,121.0
TW,0.0,23.76,121.0
TW,0.0,23.76,121.0
TW,0.0,23.76,121.0
TW,8892.18965671,42.9535460275,28.6546012752
TW,0.0,23.76,121.0
ID,1643.78052548,6.81951764036,101.607298764
ID,10138.5679897,35.8142087894,25.9116067331
ID,2642.37976003,11.5937538177,92.9510674843
ID,6785.2303118,5.99908358598,50.2507792526
ID,8795.59233373,14.4013358155,34.205914877
ID,9437.79446364,20.2353492046,29.516942232
ID,6080.30705363,35.0000716407,73.5148146668
ID,5638.29246635,31.1507536538,75.2338319347
ID,2996.18141907,14.330294477,91.5255119646
ID,7334.982011,38.5445337215,59.7574150379
ID,9927.12390106,30.2899402993,26.8842905085
ID,11222.9523745,4.55898378051,11.73370467
ID,10952.7431861,39.2496158171,17.6847174559
ID,8230.64041993,42.0411799318,50.829988583
ID,11785.2745296,7.88027974609,7.21091513575
ID,9877.9214827,29.3354902881,27.1718609789
ID,8821.38470727,16.875046447,34.472694675
ID,3441.45929669,18.4496073977,90.7227070867
ID,6435.81404179,37.4763955106,71.2855517604
ID,7522.83038339,54.7291717696,83.0892089474
ID,10154.5326413,41.4325500142,27.118404716
ID,7792.04734355,39.3338570552,54.4611303753
ID,1643.78052548,6.81951764036,101.607298764
ID,7818.38685581,36.3321712398,52.0125462704
ID,7665.36997145,10.3072583248,43.4147247522
JM,3741.94600055,30.738834015,-44.5796384609
JM,0.000100299715996,17.98,-76.8
JM,0.000100299715996,17.98,-76.8
JM,2590.79571002,1.15128414662,-62.2880433186
JM,3339.92804885,18.6269318828,-46.8277444625
JM,3862.29666801,34.7413227014,-44.9513922457
JM,2590.79571002,1.15128414662,-62.2880433186
JM,0.000100299715996,17.98,-76.8
JM,0.000100299715996,17.98,-76.8
JM,0.000100299715996,17.98,-76.8
JM,0.000100299715996,17.98,-76.8
JM,0.000100299715996,17.98,-76.8
JM,3889.73880342,18.3600582396,-41.8999396768
JM,12297.9606159,14.4013358155,34.205914877
JM,3889.73880342,18.3600582396,-41.8999396768
JM,0.000100299715996,17.98,-76.8
JM,10001.7810276,41.3548863173,22.8097338152
JM,6513.5019301,24.2340631399,-17.3223125436
JM,6655.60330187,10.5455167819,-18.6319842396
JM,3862.29666801,34.7413227014,-44.9513922457
JM,11248.099798,30.03,31.21
JM,6655.60330187,10.5455167819,-18.6319842396
PK,4855.480435,31.9877555142,23.5330104837
PK,3181.40187956,49.1809205237,43.1021906662
PK,2869.81224178,16.9959856637,53.2611373141
PK,5625.40018361,37.7954458624,13.3702931834
PK,1623.12881014,36.3274010969,56.5890348557
PK,3791.15451031,41.2002715467,33.2591150737
PK,7714.66988117,7.88027974609,7.21091513575
MA,7897.04695355,31.1507536538,75.2338319347
MA,0.0,34.03,-6.85
MA,3718.78450964,9.74584352408,-29.0029606551
MA,2388.16585517,34.1620117639,17.7581530899
MA,1878.11501987,38.6651930191,12.1908624841
MA,3756.23003975,39.91,32.83
MA,1463.84418525,37.0003736956,8.03563482568
MA,0.0,34.03,-6.85
MA,1463.84418525,37.0003736956,8.03563482568
MA,3718.78450964,9.74584352408,-29.0029606551
MA,2946.48697311,9.22275201408,-10.8734966359
MA,5054.51740041,44.9084689702,48.2319550885
MA,5569.26588479,36.3321712398,52.0125462704
MA,3791.15451031,41.2002715467,33.2591150737
MA,1878.11501987,38.6651930191,12.1908624841
MA,6101.97653274,51.3233296523,62.8622815787
MA,3718.78450964,9.74584352408,-29.0029606551
UK,0.0,52.5,-0.12
UK,0.0,52.5,-0.12
UK,0.0,52.5,-0.12
UK,0.0,52.5,-0.12
UK,0.0,52.5,-0.12
MA,3147.23373066,42.1109584477,25.8441478412
MA,3949.3205076,43.9693851308,35.0113913976
MA,9753.35134001,21.5831232463,89.4363783367
ET,2354.53049439,22.2427458868,54.4363070173
ET,2411.58927515,19.8435686509,56.7948171949
ET,4142.0542535,41.3548863173,22.8097338152
ET,9204.74503271,18.3600582396,-41.8999396768
ET,0.0,9.03,38.74
ET,2411.58927515,19.8435686509,56.7948171949
ET,2354.53049439,22.2427458868,54.4363070173
ET,2411.58927515,19.8435686509,56.7948171949
ET,0.0,9.03,38.74
ET,9808.02076356,47.7287081245,128.975382522
ET,4302.82811588,29.5960054452,6.33450812327
ET,5749.87929796,9.22275201408,-10.8734966359
ET,4259.55020252,45.23588609,40.9982865196
ET,3237.40977078,13.3708891287,10.9801593932
EG,2594.0597028,36.3274010969,56.5890348557
EG,2817.39657607,16.9959856637,53.2611373141
EG,8569.85139623,3.79579038334,103.686914391
EG,3601.69533007,24.7783250795,-2.94525767906
IR,2698.62579535,41.3548863173,22.8097338152
MA,7897.04695355,31.1507536538,75.2338319347
PK,5992.36283814,-6.17,106.82
PK,1055.2296153,35.1572315985,62.4192219205
PK,2487.63780795,40.6401223997,47.9603517864
SN,6245.4355984,39.3122329272,36.661846546
TR,0.0,39.91,32.83
PK,4233.12276586,27.0599233453,31.8216237556
PK,718.856785093,28.61,77.2
PK,359.428392547,31.1507536538,75.2338319347
PK,4712.31298582,14.4013358155,34.205914877
PK,359.428392547,31.1507536538,75.2338319347
PK,0.0,33.66,73.16
PK,2487.63780795,40.6401223997,47.9603517864
PK,2341.18143362,38.4786204777,49.1567742568
PK,11105.4209636,9.74584352408,-29.0029606551
PK,9202.05167913,15.6263461698,-13.05043698
PK,7304.66150899,17.637587831,5.28700766098
PK,2359.85169943,37.1699778292,48.8193412192
PK,3840.78448388,58.4539107331,41.1399124955
PK,3791.15451031,41.2002715467,33.2591150737
PK,2483.79227814,39.8848396666,47.8269744713
PK,1494.71846688,39.1607051644,87.4433366793
PK,482.767851329,37.4763955106,71.2855517604
PK,2131.29921667,43.0675252305,93.047455981
PK,4489.73436781,-4.53261115322,71.6982750097
TR,0.0,39.91,32.83
TR,0.0,39.91,32.83
TR,0.0,39.91,32.83
TR,1182.34496338,41.9230605333,45.893809205
TR,0.0,39.91,32.83
TR,0.0,39.91,32.83
TR,0.0,39.91,32.83
TR,0.0,39.91,32.83
TR,0.0,39.91,32.83
TR,0.0,39.91,32.83
TR,1628.09081139,41.6356837872,14.6374390705
TR,0.0,39.91,32.83
TR,0.0,39.91,32.83
TR,0.0,39.91,32.83
TR,0.0,39.91,32.83
TR,1310.3336685,40.0855990833,18.2556443711
TR,1878.11501987,38.6651930191,12.1908624841
TR,1878.11501987,38.6651930191,12.1908624841
TR,1878.11501987,38.6651930191,12.1908624841
TR,0.0,39.91,32.83
TR,1878.11501987,38.6651930191,12.1908624841
TR,5474.62446477,15.6263461698,-13.05043698
TR,0.0,39.91,32.83
TR,3828.63842208,17.637587831,5.28700766098
TR,1403.44294547,43.330282754,48.1694682742
TR,7314.16371301,9.74584352408,-29.0029606551
TR,1915.74730042,38.5345501939,53.8538404294
TR,7023.27878091,11.5937538177,92.9510674843
TR,1878.11501987,38.6651930191,12.1908624841
TR,15318.2435389,-35.3,149.12
TR,3865.46539853,63.1438321505,72.3771925179
TR,5474.62446477,15.6263461698,-13.05043698
TR,5904.15335485,13.5996944485,-16.2355416834
TR,6341.55971164,38.7868109436,-39.0298386155
TR,1493.85473874,38.4786204777,49.1567742568
TR,5372.75814248,-5.32391453006,25.5096292681
TR,5474.62446477,15.6263461698,-13.05043698
TR,0.0,39.91,32.83
TR,0.0,39.91,32.83
TR,0.0,39.91,32.83
TR,5978.65849178,79.5979880434,-57.2737102013
TR,1915.74730042,38.5345501939,53.8538404294
TR,1593.04910271,48.4658484752,18.0856107452
EG,4875.68272251,62.0647199526,-9.64291461956
EG,4059.15409386,25.4087984547,-7.65776412091
EG,1171.05030262,39.91,32.83
EG,793.117973247,28.5477943278,38.7636038853
EG,1210.37724908,39.3122329272,36.661846546
EG,7046.55684516,33.9506129622,-40.8859566864
EG,5306.80544461,57.7668814573,83.6256018476
EG,6333.42041355,-11.4417074268,-4.5813667421
EG,1171.05030262,39.91,32.83
EG,4745.28177104,14.9506193844,72.0817297608
EG,8569.85139623,3.79579038334,103.686914391
EG,5127.74121306,61.1067223302,-15.7642568428
DZ,1382.4874646,24.9622956232,2.22296169736
DZ,1565.8015649,23.563888272,5.83031450005
DZ,1313.77120827,41.6730871159,16.1561943167
DZ,1531.27517376,24.7783250795,-2.94525767906
DZ,1012.91545694,34.03,-6.85
DZ,1748.64849171,39.681382922,21.8021389999
DZ,3738.90284852,5.02384441547,6.57825603156
DZ,1716.60439393,25.4087984547,-7.65776412091
DZ,6096.08210573,-14.5704598955,-5.27242539047
DZ,2736.41577786,34.9726794091,31.9710290092
DZ,2353.30280078,34.0718405466,27.6365590876
DZ,5657.9791136,16.9959856637,53.2611373141
GM,9099.84122205,31.6614298975,66.8138694719
GM,4386.88007592,34.1620117639,17.7581530899
GM,2535.73771591,27.6444985961,0.847722414854
GM,2013.40808955,24.7783250795,-2.94525767906
SN,6339.04863114,55.2665213772,28.9546402498
SN,6233.56430864,29.4533487223,38.1421768709
SN,2003.13672595,1.22225895436,-28.03389744
SN,1657.69833923,25.4087984547,-7.65776412091
SN,9460.59709993,10.6067467044,65.4657045905
SN,3835.65569157,6.15626708652,14.6872865161
SN,11706.6107102,21.5831232463,89.4363783367
SN,6233.56430864,29.4533487223,38.1421768709
SN,6474.81954156,9.03,38.74
SN,1450.42152369,9.74584352408,-29.0029606551
SN,2756.84438319,-4.61519999037,-3.90756164947
SN,5901.0793892,19.3355559172,35.0765452623
SN,3339.92804885,18.6269318828,-46.8277444625
SN,2516.38258285,-0.564943723208,-32.6395599156
SN,5442.90880528,1.15128414662,-62.2880433186
SN,3339.92804885,18.6269318828,-46.8277444625
SN,7348.95761977,17.7053745196,-82.7921397954
IN,0.0,28.61,77.2
IN,0.0,28.61,77.2
IN,0.0,28.61,77.2
IN,3139.85414914,40.6401223997,47.9603517864
IN,0.0,28.61,77.2
IN,5108.31226676,30.2899402993,26.8842905085
IN,0.0,28.61,77.2
IN,5353.06742069,41.3548863173,22.8097338152
IN,3125.72785716,39.8848396666,47.8269744713
IN,4955.27180008,14.4013358155,34.205914877
IN,5037.53306369,40.8035060377,26.3845488104
IN,797.5835318,34.2914036801,72.8389811708
IN,11875.9676295,17.6562336237,-36.6013957546
IN,0.0,28.61,77.2
IN,0.0,28.61,77.2
IN,359.428392547,31.1507536538,75.2338319347
ML,3062.55034751,36.7,3.21
ML,0.0,12.65,-8.0
ML,0.0,12.65,-8.0
ML,0.0,12.65,-8.0
ML,0.0,12.65,-8.0
ML,0.0,12.65,-8.0
ML,0.0,12.65,-8.0
ML,3265.08020228,36.225731379,8.36658650339
ML,13570.4606236,-6.17,106.82
ML,549.870007472,13.6994320622,-12.6849031689
ML,549.870007472,13.6994320622,-12.6849031689
ML,0.0,12.65,-8.0
ML,0.0,12.65,-8.0
GN,10129.6607998,-4.53261115322,71.6982750097
GN,4978.75334546,32.9144514393,24.6939988022
GN,2670.59665806,27.6444985961,0.847722414854
GN,3226.67830131,29.5960054452,6.33450812327
GN,4502.30259739,37.4760936332,15.3874445354
ML,1388.16829293,14.209783527,-20.0439357392
ML,10481.4446988,24.4734977291,86.9817283808
ML,4841.51981859,16.875046447,34.472694675
ML,894.503837137,13.9022778912,-15.7172538676
ML,4932.63879786,41.4325500142,27.118404716
ML,9118.48039229,3.26621673544,70.03568308
ML,5708.55594237,28.3829602427,41.5175746645
KG,4807.26272198,42.4175819986,17.8613721931
KG,846.04140183,35.7419360358,76.0169383168
KG,0.0,42.86,74.6
KG,2499.19338883,35.5321210288,100.512869264
KG,4467.08775618,34.8023086975,26.1871581654
KG,3965.54530205,54.68,25.31
KG,6392.7525081,58.9174298942,-15.4998456679
KG,4467.08775618,34.8023086975,26.1871581654
KG,5264.67735872,41.9,12.48
KG,5931.22774735,25.2939220259,16.0322282492
KG,0.0,42.86,74.6
KG,5927.53352116,18.4475971983,21.9047641017
KG,0.0,42.86,74.6
KG,2258.51375394,43.330282754,48.1694682742
KG,0.0,42.86,74.6
KG,1830.07694377,43.3221652368,53.2189849865
KG,0.0,42.86,74.6
KG,0.0,42.86,74.6
KG,1797.12820156,36.3274010969,56.5890348557
