AF	1283.056731	1
AL	2304.52267	21
AM	2286.116361	1
AR	10156.28701	1
AU	13200.9994	14
BA	1498.74548	1
BG	2135.018031	3
BR	9174.423932	36
BZ	6405.045369	11
CD	3304.050407	1
CI	3888.876895	1
CM	2969.780641	1
CN	6210.318414	40
CO	3372.109015	1
CU	9352.005819	3
CV	6144.878592	34
DZ	2768.92928	35
EG	2020.611662	31
ES	2915.04017	7
ET	3456.735156	30
FI	3529.791351	2
FR	2105.719297	1
GE	1317.135162	29
GM	5603.031377	4
GN	4954.302916	7
GR	1199.495538	46
HR	2061.577696	3
ID	8271.340073	25
IL	4270.909489	3
IN	3652.87416	69
IQ	3280.247607	3
IR	2311.530518	23
IS	7202.67714	1
IT	2428.391523	51
JM	4169.306843	22
JP	8385.032621	19
KE	3147.63215	32
KG	2558.199963	26
KH	3960.478128	14
KZ	3807.339	4
LB	5171.730612	2
LT	2176.139122	32
MA	2998.494555	33
MK	1391.180472	2
ML	3405.788148	66
MM	3129.661231	25
MT	5942.356778	1
MX	12064.72707	4
NE	1002.337971	1
NG	2670.281833	1
NZ	17580.03602	1
PE	9293.920676	1
PK	3458.8914	47
PL	3355.578845	2
PR	9794.190283	1
RO	2523.285561	19
RS	2107.236215	1
RU	4987.575803	4
SD	5375.138464	1
SN	3915.814714	24
TH	5076.165288	27
TJ	5307.571145	3
TM	5584.238387	3
TN	6245.613645	1
TR	1379.739087	64
TV	18452.3419	1
TW	2623.820115	25
TZ	4305.691719	20
UK	1776.595266	33
US	10084.44027	1
UZ	2892.682655	36
XK	1597.454576	1
ZA	9046.058942	2
