TW	0							
TW	0		min	1	2	3	max	mean
TW	0		0	1676	3287.321027	5762.033469	19570.45388	4098.28083
TW	0							
TW	0							
AL	94.32108284							
MA	147.121539							
TR	235.7923251							
UZ	255.0162168							
MM	276.0098147							
MA	288.4487147							
DZ	321.688025							
AL	356.1815512							
RO	363.4701986							
RO	386.1415563							
DZ	403.2137756							
TW	436.4511183							
RO	441.1024387							
MM	473.7636394							
TW	500.9452291							
TW	500.9452291							
AL	533.6832673							
AL	534.0514751							
MM	547.2648426							
MA	571.4245401							
MA	597.1577894							
RO	614.0049559							
MM	674.6247087							
DZ	675.5276778							
TW	675.5694253							
AL	689.06418							
AL	696.1644392							
RO	715.5073213							
TW	727.6761085							
JM	735.0548358							
TW	742.8968856							
MM	747.8272987							
RO	755.3465514							
AL	758.2096621							
RO	762.0624812							
RO	769.6247192							
MA	785.949641							
ES	789.1184382							
UZ	795.4069776							
TR	812.3364212							
TR	812.556081							
DZ	836.1063593							
DZ	842.8210224							
CN	862.017003							
MK	895.5039262							
IL	908.2118209							
MA	910.6798904							
EG	913.6529883							
CN	926.1160733							
MM	949.9405853							
RO	998.8122284							
RO	998.8122284							
DZ	1019.790423							
TW	1028.687596							
AL	1048.608974							
TR	1073.614424							
UK	1078.899335							
EG	1083.590057							
RO	1095.196971							
ES	1102.377141							
IQ	1118.228817							
TR	1136.697359							
AL	1174.900751							
HR	1198.182161							
MM	1219.103971							
PK	1259.048553							
TW	1269.537108							
TW	1269.537108							
TW	1269.537108							
MM	1281.603336							
UZ	1283.349279							
RO	1284.53688							
TW	1288.557507							
DZ	1289.695013							
MM	1298.881297							
MM	1298.881297							
MA	1307.577663							
AL	1341.154189							
IN	1344.730935							
CN	1347.671125							
PK	1355.665114							
IR	1382.450162							
RO	1385.755338							
SN	1388.360949							
PK	1428.298555							
ES	1452.960141							
TW	1454.666075							
EG	1462.182959							
TR	1473.133439							
PK	1482.01068							
MA	1487.118489							
MA	1487.118489							
IQ	1488.540937							
PK	1552.558884							
PK	1553.66297							
RO	1577.498488							
MM	1639.732853							
CN	1645.535508							
IL	1663.174682							
CN	1667.896648							
UZ	1669.160863							
MA	1684.72906							
IT	1701.13071							
MM	1710.641098							
MM	1710.641098							
IT	1719.802742							
MM	1722.573577							
EG	1726.150713							
MA	1731.095235							
EG	1745.547818							
ES	1763.872683							
TW	1793.073765							
CN	1797.640042							
UZ	1805.401513							
AF	1854.20952							
UZ	1863.978761							
EG	1865.702137							
DZ	1868.593048							
CN	1894.691906							
XK	1901.749221							
UZ	1913.841522							
DZ	1944.890491							
AL	1955.746468							
RU	1963.920941							
TR	1975.229037							
AL	1990.38205							
UZ	1991.230313							
RO	2028.823298							
RO	2043.564231							
LB	2049.969135							
UZ	2071.225338							
MA	2090.876675							
AL	2097.830249							
TR	2100.169288							
JM	2112.844765							
CN	2120.705842							
TR	2129.670895							
CN	2141.463767							
IN	2160.398353							
UZ	2161.418275							
SN	2165.747158							
DZ	2176.309563							
DZ	2199.226497							
ES	2214.227927							
CN	2223.91313							
EG	2231.991682							
AL	2242.857521							
AL	2249.307309							
PK	2254.899578							
PK	2267.053993							
TR	2268.380562							
UK	2280.423037							
SN	2293.037915							
SN	2341.457139							
CI	2342.435101							
DZ	2356.540071							
EG	2399.077357							
RS	2409.006272							
TR	2436.542657							
TW	2441.008134							
DZ	2445.559985							
ES	2455.813664							
PL	2471.764527							
UZ	2512.787545							
ML	2561.247695							
SN	2562.690572							
JM	2577.703569							
IL	2579.784005							
TH	2587.16563							
CN	2599.181932							
TH	2604.190464							
TW	2615.985409							
JM	2623.752184							
ML	2624.217106							
EG	2685.338284							
EG	2687.092004							
PK	2716.918519							
PK	2721.013171							
CN	2745.55165							
ES	2756.575019							
TW	2792.079456							
CV	2804.397464							
TW	2810.513011							
DZ	2819.228608							
TR	2829.881026							
PK	2831.719745							
AL	2839.222368							
DZ	2895.972943							
MA	2909.830175							
RU	2911.201555							
SN	2924.589837							
IN	2952.343172							
JM	2952.629703							
UZ	3002.782934							
DZ	3007.785194							
SN	3021.004434							
TH	3037.188028							
TH	3037.188028							
CV	3085.262893							
JM	3121.948653							
JM	3159.096317							
JM	3163.953637							
UZ	3175.833995							
CN	3221.623745							
ML	3246.319753							
JM	3262.528415							
JM	3268.134071							
CN	3287.321027							
SN	3310.932671							
TH	3315.189852							
CN	3334.755311							
DZ	3359.645222							
MA	3366.194943							
SN	3387.187595							
AL	3414.131234							
PK	3461.274702							
CN	3468.171984							
IQ	3479.840287							
JM	3484.806559							
RU	3503.855937							
ET	3506.423525							
AL	3509.798979							
MA	3511.122572							
RU	3511.268235							
UZ	3527.098135							
BG	3527.743817							
PK	3559.843142							
PK	3607.236298							
SD	3627.48735							
MM	3636.545306							
RO	3659.715205							
JM	3683.243121							
AL	3688.538538							
DZ	3723.055387							
CD	3723.065487							
UZ	3730.252163							
HR	3756.197328							
TW	3760.747354							
IN	3823.908026							
ID	3844.977963							
DZ	3854.742225							
SN	3864.929223							
MK	3921.079963							
MT	3932.607832							
SN	3962.153673							
CN	3993.223739							
TR	3997.836032							
ID	4000.273873							
FI	4040.360534							
CN	4080.559688							
AL	4086.55847							
CN	4162.983474							
BG	4170.491276							
TW	4202.577256							
CN	4222.991773							
NG	4233.774789							
UZ	4241.569599							
JM	4285.453371							
TH	4347.796968							
MM	4364.105498							
BA	4371.376196							
AM	4373.341335							
CN	4397.407558							
RO	4434.422852							
IN	4443.243004							
GN	4494.505077							
SN	4494.898234							
MM	4521.535633							
JM	4607.618293							
ML	4620.144464							
CN	4630.232141							
ID	4631.90075							
TH	4637.360252							
TR	4645.433842							
UZ	4670.672386							
ET	4722.89493							
CN	4741.202572							
CN	4773.847159							
PL	4783.349961							
TH	4850.60576							
TH	4866.187109							
SN	4889.736839							
ML	4905.609875							
ID	4938.148831							
TH	4988.628282							
TH	5032.333383							
HR	5044.795494							
MA	5091.478599							
TW	5106.176433							
EG	5114.59209							
DZ	5127.938456							
CN	5140.742534							
TH	5168.753748							
TH	5189.793134							
ML	5195.345004							
CN	5213.359647							
JM	5245.219395							
JM	5274.860486							
ID	5276.513628							
CM	5296.764612							
DZ	5387.208658							
JM	5443.568123							
ID	5453.937166							
ID	5552.705261							
PK	5569.684802							
UZ	5594.774498							
ID	5671.803818							
CN	5681.004933							
ML	5697.981408							
EG	5728.69611							
ID	5735.330765							
PK	5748.296868							
TR	5750.29454							
TH	5762.033469							
TH	5795.591658							
MM	5813.214804							
NE	5815.111259							
ID	5831.227866							
PK	5860.716336							
CN	5888.716495							
CN	5910.430504							
FR	5963.969284							
RO	6020.888601							
TH	6036.511545							
BG	6057.659315							
CN	6059.655344							
CN	6116.612485							
ML	6118.447424							
JM	6135.408571							
JM	6169.497132							
FI	6245.931914							
TH	6275.479664							
MM	6281.351975							
CN	6282.182439							
SN	6316.453648							
TH	6323.202597							
ML	6376.094946							
TH	6430.799894							
ML	6445.658141							
CN	6482.73441							
CN	6498.3262							
MA	6638.830774							
MM	6739.709775							
TH	6746.347942							
EG	6764.281888							
TR	6797.446491							
ID	6800.791683							
ID	6849.832032							
TH	6862.258846							
TH	6949.589003							
CN	6983.692714							
EG	7130.018934							
MM	7299.576719							
DZ	7302.432708							
CN	7320.178976							
TH	7329.769539							
EG	7343.974371							
MM	7365.455395							
MA	7379.474624							
CN	7404.352803							
UK	7433.148125							
PK	7470.642266							
AL	7479.170651							
IN	7726.509305							
CN	7734.557221							
CU	7766.651477							
JM	7773.41933							
ID	7934.670827							
UK	7959.602777							
PK	7969.273038							
TH	7979.940203							
TH	8067.424488							
CU	8069.627121							
IS	8138.219093							
JM	8253.9586							
JM	8265.739525							
TN	8348.939212							
MM	8351.324783							
PK	8401.216993							
PR	8447.227095							
CN	8473.427321							
ID	8531.412982							
ID	8587.228334							
SN	8587.970268							
IN	8662.07242							
PK	8778.22697							
ZA	8827.502476							
MM	8887.572208							
ID	8985.223457							
TH	9083.172361							
CU	9270.459972							
ID	9280.164302							
ID	9319.08568							
ID	9330.967509							
ID	9382.652949							
PK	9421.477344							
US	9486.062293							
ID	9621.937035							
ZA	9671.086518							
BR	9683.386585							
ID	9701.801062							
GN	9952.638694							
ID	10135.66001							
BR	10232.23668							
ID	10426.97511							
BR	10801.23777							
MM	10831.69347							
TH	11195.86301							
MX	12442.47696							
BR	12530.82865							
AR	13172.99766							
PE	14361.80013							
MX	14458.05754							
ID	14533.88745							
MX	15232.2933							
BR	15282.30358							
CO	15633.22361							
MX	15750.83386							
TV	17034.43942							
BR	17327.23964							
NZ	19570.45388							
19570.4538771 0.0 4098.2808295								
