4161.66984088 , 4916.31146977
4115.8566181 , 4922.90789283
4274.57592295 , 4951.6855724
4307.52737781 , 5002.54644559
4207.52038939 , 4895.97168286
4426.53035112 , 4975.78209812
4160.26505093 , 4932.45573402
4399.26339324 , 4949.99580386
4192.03612899 , 4933.60112789
4232.22591293 , 4953.81105488
4207.7574478 , 4878.28152289
4253.73616214 , 4911.25674908
4128.02311956 , 4936.294425
4282.47512215 , 4891.82895871
4310.30954737 , 4922.67481323
4175.08967144 , 4934.3723042
4026.54172305 , 4858.56182388
4094.17975294 , 4898.72444636
4163.34150624 , 4884.47350802
4059.545133 , 4872.73448982
4161.67248869 , 4930.78675075
4410.10461985 , 4970.71572874
4128.86867025 , 4882.32156403
4291.70323399 , 4943.83700685
4326.44738417 , 4960.33598214
4214.04930086 , 4911.23964185
4125.61385589 , 4870.48897126
4166.15570428 , 4922.98559125
4125.95151169 , 4894.70896979
4161.19803944 , 4956.23433716
4203.74542036 , 4917.26852968
4239.55696579 , 4939.27613754
4139.18953131 , 4882.57833694
4157.20824431 , 4911.48568955
4143.93977361 , 4943.30021224
4160.19298248 , 4940.61373633
4294.90514807 , 5001.12834237
4222.03632225 , 4905.71141754
4239.37185674 , 4942.16347255
4169.26970487 , 4941.38874637
4248.16580118 , 4924.68180556
4490.32643651 , 4998.11568534
4321.32359539 , 4984.28955297
4231.21870141 , 4955.06326928
4337.30995906 , 4947.62238645
4222.92788608 , 4933.66278804
4223.25100608 , 4859.66164134
4190.92552805 , 4914.41214368
4207.09729858 , 4924.76934988
4291.35799123 , 4923.67057664
4276.69438663 , 4960.60703113
4128.01129816 , 4830.85725034
4236.35899934 , 4943.47656266
4245.01541237 , 4923.04646259
4198.82614216 , 4955.78285679
4158.80227685 , 4947.15538274
4290.73891304 , 4928.55402784
4187.4411421 , 4915.8737392
4260.79397891 , 4915.96452602
4270.81983325 , 4925.72724176
4208.78463415 , 4902.26139703
4236.80890679 , 4935.92864109
4266.52459209 , 4892.51489383
4178.80878723 , 4925.89304924
4234.52822263 , 4864.07643569
4250.66374067 , 4934.22232355
4281.89772745 , 4942.97688895
4141.67713318 , 4880.07437102
4112.66430877 , 4906.08195525
4302.65143596 , 4896.94779861
4299.2420176 , 4954.87152846
4295.32018622 , 4962.66454831
4327.04941861 , 4958.74148737
4227.0707034 , 4895.56993517
4111.12031955 , 4856.22588974
4220.10883578 , 4952.79322721
4077.1853148 , 4862.87380735
4192.48073279 , 4939.94191438
4214.87915102 , 4953.27974873
4293.28705114 , 4962.07260731
4160.04872525 , 4912.62433141
4310.92055692 , 4963.65093176
4077.30002565 , 4890.0967878
4145.68210173 , 4889.1302323
4108.35880833 , 4872.82788892
4350.80841608 , 4927.36010335
4167.05865304 , 4969.18053193
4302.65311341 , 4910.62152879
4196.62138506 , 4887.12089649
4162.31229095 , 4873.65141994
4049.41009677 , 4794.74853628
4231.6848569 , 4866.19321257
4186.64267358 , 4906.77754933
4138.19036524 , 4883.74460038
4178.19882217 , 4898.83638706
4200.70836446 , 4929.40336617
4210.44996432 , 4979.9225037
4156.5775678 , 4949.98940968
4163.93568048 , 4906.23034346
4201.98426857 , 4968.12667687
4149.1819979 , 4863.91562746
4118.2770766 , 4973.57545506
4327.21359933 , 4945.46949943
4227.45811375 , 4959.1750136
4135.21929033 , 5001.11589658
4168.65534888 , 4908.9886385
4235.00956537 , 4901.79790266
4254.11342988 , 4965.77689616
4224.48464073 , 4935.97555502
4297.11734814 , 4967.87950299
4141.5103245 , 4881.05361536
4271.93983021 , 4946.13822511
4273.95364653 , 4990.45344133
4364.10934978 , 4935.39158146
4158.7349038 , 4884.2264254
4377.06996645 , 4973.05604056
4111.79556519 , 4900.53862104
4130.20441994 , 4960.8731974
4208.51519871 , 4952.88109944
4141.61774834 , 4907.1667021
4224.51862072 , 4950.34708924
4130.1727709 , 4900.78123023
4418.16929872 , 4989.93785642
4368.5288856 , 4994.39024049
4241.65876457 , 4895.81117612
4145.18934679 , 4872.12784353
4211.31275502 , 4956.63477503
4269.1589035 , 4967.52709886
4126.40462039 , 4869.74454557
4239.96190566 , 4946.51335032
4205.5704019 , 4854.88308811
4309.51010829 , 4980.64615482
4295.38292332 , 5035.39118253
4051.90421647 , 4904.68929328
4080.37511352 , 4846.15698229
4279.53463826 , 4915.56652333
4174.06062277 , 4958.48355557
4170.03052536 , 4889.55801438
4269.4011936 , 4980.51353191
4282.02657212 , 4977.40559975
4227.20145032 , 4912.78867352
4261.69416103 , 4970.56860354
4111.54600843 , 4842.19638685
4083.85573688 , 4902.69403428
4349.16383294 , 4934.03112694
4184.3243286 , 4912.29982802
4251.3256923 , 4881.72548267
4203.79888904 , 4944.90813074
4204.59877505 , 4943.71100741
4378.74406633 , 4949.77940087
4184.06606273 , 4924.85303815
4213.61720981 , 4903.6459249
4253.2801173 , 4926.58665685
4024.40352751 , 4920.3178819
4181.41168872 , 4835.38023121
4253.43880095 , 4905.32497392
4285.09445449 , 4954.16156925
4059.10946052 , 4903.00665944
4239.10042039 , 4898.80806821
4270.36742014 , 4964.8868113
4351.13018057 , 4961.42948649
4091.11016671 , 4860.35061762
4192.38537358 , 4875.79852969
4207.22355685 , 4983.74905709
4112.20691893 , 4847.81378792
4179.08429941 , 4843.00650519
4212.27372094 , 4922.75590216
4320.01655605 , 4945.03522417
4191.10238753 , 4910.1565381
4161.07506533 , 4854.23149281
4273.97382274 , 4961.67724097
4191.6987632 , 4907.66138688
4117.84703838 , 4868.29221714
4244.72098769 , 4959.166926
4228.13619412 , 4949.16080139
4279.4962964 , 4973.4843292
4177.21636982 , 4932.53170494
4243.34607481 , 4960.61564506
4391.40198686 , 4911.83403563
4303.07624663 , 4923.50049435
4292.81364289 , 4953.75482922
4257.62626897 , 4921.86619893
4093.32419012 , 4968.56439193
4074.19296859 , 4834.04519646
4184.81031678 , 4906.02351147
4291.86944636 , 4986.73380555
4335.13628257 , 4982.9376679
4159.54715422 , 4908.20344387
4098.65385866 , 4829.85711645
4117.38872033 , 4963.46395389
4179.62532484 , 4931.80965349
4197.27276514 , 4877.16631375
4122.30851347 , 4904.04348453
4181.88467201 , 4930.46522736
4173.21688848 , 4911.98419677
4241.95567295 , 4986.07493301
4060.05161728 , 4854.75829272
4237.77111651 , 4926.9984694
4254.31767904 , 4893.45543582
4357.82546781 , 4968.50089903
4228.06505588 , 4916.46687348
4334.07013912 , 4980.32178601
4309.08102936 , 4927.87995738
4298.90929199 , 4946.96300228
4194.27245419 , 4965.58160032
4186.92158837 , 4904.73223126
4253.11812968 , 4952.81669681
4214.39296456 , 4968.41545467
4034.17264152 , 4826.14753973
4279.7343974 , 4939.35463677
4281.69014592 , 4987.82163438
4220.70174527 , 4913.58219598
4156.73734388 , 4861.14164752
4230.26121811 , 4914.93345888
4176.00938213 , 4950.64913751
4208.51699537 , 4914.60124308
4299.68966249 , 4901.1065866
4294.22321912 , 4981.18268184
4273.26700608 , 4960.5232085
4165.52433853 , 4991.36203132
4256.23470892 , 5012.8843209
4313.92946123 , 4890.76924676
4219.69589043 , 5001.28878577
4371.44064556 , 4963.87381698
4211.67302118 , 4901.76546307
4130.94850945 , 4897.57614161
4032.17122854 , 4865.61495511
4252.9115178 , 4926.49653517
4219.48891737 , 4970.47772526
4282.43561658 , 4941.2128046
4158.9832918 , 4936.46555957
4223.82616174 , 4905.11629846
4201.52121182 , 4917.61855689
4353.701614 , 4942.60295539
4247.58380942 , 4922.79086965
4258.11637692 , 4975.44161291
4156.70308503 , 4909.20917285
4299.18577131 , 4901.96634911
4279.05079869 , 4903.67944901
4109.65534871 , 4829.92245809
4067.48236336 , 4863.21183361
4175.0172799 , 4905.25148103
4216.01008558 , 4936.53760105
4130.65137737 , 4926.09356206
4314.96019647 , 4975.70933574
4178.23988845 , 4883.14541474
4401.20720226 , 4942.40482344
4223.00220051 , 5017.4242462
4285.02905122 , 4933.4012455
4228.78754218 , 4924.42290545
4194.95375722 , 4935.3564393
4177.45822871 , 4897.3265632
4338.60355997 , 4905.55633494
4152.89591266 , 4880.68476147
4254.36592676 , 4919.78726025
4158.19155931 , 4890.9022716
4137.32124424 , 4901.48104233
4119.77027447 , 4926.09993952
4247.37144926 , 4940.3914234
4324.14055979 , 4971.54829854
4192.18465367 , 4873.2248256
4206.6920813 , 4878.4267845
4350.9402006 , 4950.48918224
4316.42885904 , 4951.23345349
4254.16624896 , 4968.10850043
4265.69728203 , 4948.73075583
4190.45597289 , 4968.4622342
4161.45057108 , 4854.04041492
4266.0396668 , 4952.63870612
4253.24858924 , 4922.97254049
4295.26125734 , 4906.69801853
4166.4318493 , 4901.37572718
4025.23119066 , 4833.30367998
4330.7828091 , 4956.41353784
4242.10731114 , 4967.63020621
4106.40058576 , 4868.35128044
4295.47715415 , 4932.83422264
4232.2306092 , 4897.22186515
4323.08150518 , 4953.15132824
4295.16920705 , 4907.88855216
4191.36874846 , 4873.8283029
4202.86401938 , 4912.10482993
4283.62705497 , 4943.40102207
4149.82913103 , 4956.93116768
4288.77436289 , 4993.62214466
4210.36880147 , 4956.74305467
4138.85226917 , 4966.35555004
4228.36209193 , 4882.42537564
4277.9760227 , 4957.84697518
4196.81448959 , 4924.77896626
4319.77159196 , 4992.5871366
4236.14131334 , 4911.6659505
4163.51531107 , 4867.8192536
4299.15464015 , 4914.04039467
4266.58443331 , 4912.00420535
4132.13583361 , 4951.04209155
4234.31079085 , 4964.21338258
4192.90254171 , 4869.50061108
4292.93458326 , 4912.98076537
4371.26709731 , 4967.72546883
4189.01099446 , 4835.30634759
4203.83525762 , 4950.51199606
4116.02325005 , 4912.00489291
4205.66515343 , 4952.90636323
4255.80039693 , 4940.59260499
4286.09595348 , 4987.08111651
4335.99253527 , 4922.90136549
4213.41442949 , 4900.86623423
4272.114493 , 4882.49033259
4155.12049663 , 4885.87491942
4214.79894495 , 4918.98313496
4339.21642303 , 4962.61872823
4302.14276794 , 4979.22549239
4268.56477241 , 4939.26617392
4293.34693097 , 4979.0951072
4204.22183304 , 4930.6642334
4075.13002347 , 4846.19760382
4338.79997745 , 4954.24170672
4212.81895779 , 4919.14045517
4360.76380959 , 5023.70763295
4097.16349802 , 4907.79352828
4114.9698186 , 4838.67496788
4276.28567607 , 4927.27629878
4141.75578874 , 4895.3617283
4207.32252555 , 4949.9235837
4234.42930981 , 4932.66542998
4151.11144279 , 4947.66836939
4246.01524946 , 4966.40193408
3950.45038997 , 4813.24800995
4114.59226467 , 4954.73102765
4175.81662475 , 4916.20409283
4144.29599267 , 4859.66349559
4210.69071907 , 4894.76526278
4238.2754929 , 4943.42150413
4098.42299209 , 4893.45072701
4183.3054025 , 4885.31685806
4216.17757827 , 4924.77876484
4235.36514432 , 4940.58875412
4190.31870169 , 4955.60757523
4240.21457727 , 4969.90786057
4182.76860117 , 4861.06154303
4244.90218742 , 4926.63057327
4233.30685947 , 4946.53096238
4167.20954732 , 4908.78197483
4145.99119979 , 4900.32748717
4139.64294799 , 4936.85998189
4222.43504629 , 4907.85418369
4264.39973746 , 4907.22134998
4222.74438033 , 4914.6107956
4245.81211147 , 4917.57197646
4410.33696151 , 4969.08431859
4182.39263325 , 4961.69819596
4168.34434026 , 4863.06492953
4204.3349081 , 4948.76883146
4277.75695919 , 4974.03073078
4195.47380842 , 4937.90925269
4226.21378803 , 4953.71661412
4139.28178287 , 4830.89238803
4111.21116501 , 4908.22756155
4221.1669227 , 4947.80219781
4143.20669648 , 4891.07866107
4222.08172607 , 4867.97776679
4307.98695595 , 4964.0623881
4392.42602965 , 4991.91713754
4232.13213469 , 4911.23672861
4264.38947136 , 4996.78068539
4234.71532683 , 4875.14996108
4350.05233387 , 5018.56073474
4302.18402821 , 4935.58412332
4326.94409836 , 4978.90364647
4110.71524987 , 4813.98181099
4207.2244531 , 4930.01325437
4164.93484531 , 4873.11713588
4272.86039926 , 4916.15711514
4320.85445115 , 4910.62180767
4097.70848869 , 4889.05584514
4277.90625583 , 4905.47219124
4126.55133772 , 4893.67900159
4162.34042329 , 4888.82637461
4383.79797183 , 4984.92296744
4115.5001054 , 4912.77918579
4215.17861183 , 4947.22655553
4316.55724355 , 4969.90406626
4220.95424993 , 4906.46855721
4258.80509919 , 4956.46043409
4234.83995827 , 4911.29107324
4306.50241156 , 4875.49757759
4227.48016637 , 4916.04922836
4281.44780292 , 4889.64049559
4237.62187325 , 4926.18840412
4228.14162055 , 4861.12726603
4347.43364717 , 4974.45176742
4108.8296667 , 4958.74584955
4140.27985882 , 4893.64757289
4216.32527963 , 4901.44710858
4235.98613204 , 4906.23760021
4288.18903046 , 4922.03841495
4174.39335814 , 4860.41217386
4142.27327317 , 4900.50297543
4276.06463732 , 4971.5870668
4376.59084189 , 5033.71058868
4309.57588123 , 4925.24483543
4212.4749786 , 4896.41191486
4274.5101358 , 4936.68869238
4366.82033225 , 5007.81867064
4222.14425067 , 4901.8454885
4241.49648705 , 4990.82840108
4295.82367328 , 4966.21503211
4255.43501481 , 4992.3160335
4293.31225458 , 4934.0073561
4212.15948549 , 4918.89569421
4292.30717111 , 4918.25486687
4191.4999977 , 4925.54382332
4179.18826114 , 4919.88568453
4369.33858611 , 5045.608335
4066.17423261 , 4934.10425007
4380.69195813 , 4996.05022921
4258.31411038 , 4907.945464
4228.25822413 , 4927.17418515
4381.75142808 , 4945.20781635
4332.63810091 , 4986.21245385
4195.28775213 , 4902.07309017
4156.09224111 , 4878.61717183
4256.87231018 , 4945.5792033
4273.10359189 , 4889.03984178
4324.57089423 , 4919.53125675
4198.70831154 , 4926.74195873
4291.77176264 , 4949.19050614
4394.59505365 , 4999.97541591
4244.76820674 , 4962.74970977
4277.69739282 , 4958.92791497
4354.24303296 , 5003.77638565
4204.67075899 , 5004.40700138
4157.68175482 , 4879.94529155
4216.50513882 , 4932.11055646
4218.37991044 , 4884.65879443
4226.22399795 , 4939.67823507
4220.19575331 , 4963.26880496
4234.60835838 , 4879.397754
4303.73834201 , 4948.03431626
4134.13868185 , 4920.99997791
4220.00681102 , 4902.22938884
4210.72673241 , 5001.80056432
4201.52013528 , 4971.51634266
4189.442715 , 4926.47547683
4199.18917634 , 4928.67768709
4292.04427886 , 4952.47384933
4284.65912944 , 4907.24483675
4335.21977495 , 4981.46063749
4235.6230263 , 4898.22616458
4232.19996004 , 4924.84946145
4152.6605477 , 4922.19776072
4203.89967081 , 4920.00023047
4353.08704255 , 5002.10920106
4221.23191986 , 4930.29530318
4187.8018781 , 4904.45156556
4129.10960918 , 4896.68556568
4205.15780266 , 4917.18860382
4146.13324504 , 4934.97175571
4213.84951549 , 4904.14021671
4172.24490877 , 4795.92357429
4089.18217706 , 4930.99823537
4304.46518782 , 4939.53266062
4117.65508285 , 4919.5784654
4260.10843879 , 4937.69741315
4351.51523462 , 4935.52551994
4249.87404886 , 4948.87970535
4188.39817517 , 4941.31535654
4161.63342685 , 4909.30147477
4221.96188615 , 4902.09112694
4223.04809132 , 4906.63222032
4236.2954154 , 4942.14507655
4195.50869881 , 5017.8215748
4077.69038543 , 4808.46347854
4236.98476047 , 4871.88919325
4207.27762363 , 4969.27999242
4213.93373295 , 4949.69129995
4247.66730019 , 4956.12208449
4264.69332752 , 4982.67408232
4245.56699753 , 4925.62815817
4270.54954207 , 4969.33117435
4301.65550985 , 4914.5894887
4138.38884141 , 4943.85438676
4287.29873015 , 4897.88277655
4056.17491755 , 4882.5174612
4124.94633293 , 4921.21312383
4217.39343595 , 4924.37854285
4278.79712666 , 4956.10895454
4254.42685353 , 4908.88339272
4192.58554087 , 4977.95674634
4158.20838231 , 4914.30794097
4218.1346734 , 4930.2081458
4340.43558523 , 4976.76134909
4187.52225967 , 4954.83325556
4104.90641917 , 4962.2029021
4280.99368348 , 4938.75166731
4267.31786158 , 4927.17805359
4207.4989424 , 4887.62427179
4262.51091882 , 4975.49569357
4221.19778189 , 4975.74891965
4260.96867457 , 4920.94088656
4233.02370277 , 4915.4543996
4207.54336585 , 4977.96984201
4294.17326459 , 4928.78791366
4244.51364548 , 4920.54443898
4055.45841738 , 4953.40970011
4289.56062669 , 4901.46351295
4257.65607378 , 4989.29776888
4303.55454887 , 4901.95821445
4368.10199163 , 4963.40765759
4236.84077467 , 4906.88153271
4142.30939263 , 4868.59054164
4298.93593496 , 4993.78240985
4271.02630073 , 4949.59381634
4199.88030608 , 5001.09633055
4244.65847281 , 4981.19215843
4138.0083272 , 4855.96067936
4285.99788633 , 4875.42833375
4276.34407963 , 4981.67821598
4278.17462991 , 4936.45821915
4260.68136211 , 4973.02640572
4415.41360855 , 5015.05767614
4183.72365041 , 4871.17993296
4192.58761563 , 4940.92424063
4211.27485856 , 4924.50819241
4139.98460195 , 4888.49189049
4265.23342359 , 4977.41378076
4277.91030583 , 4939.62905234
4159.25198042 , 4918.53841097
4187.05084432 , 4885.10055547
4337.50672509 , 5000.30084812
4175.14135386 , 4937.19904315
4220.45093579 , 4897.53026336
4243.59477851 , 4928.2680625
4135.42656601 , 4913.66309921
4229.19948016 , 5006.31225447
4229.22423406 , 4868.5200333
4120.97070531 , 4905.66564536
4354.79874413 , 4968.73303016
4222.82625608 , 4899.94046006
4317.63145707 , 4953.95494286
4296.5981991 , 4993.51244869
4146.02437698 , 4903.64347775
4178.14762493 , 4880.24317298
4298.81027153 , 4966.6533275
4364.17350928 , 4964.67093704
4264.83766708 , 4864.01928826
4374.37249981 , 4935.80413619
4368.35037414 , 4947.8147358
4256.07680227 , 4909.15219872
4238.99293762 , 4888.73727361
4173.71289399 , 4903.72760861
4270.88114251 , 4945.03558548
4252.37311198 , 4887.75012161
4235.24795925 , 4924.34527371
4216.8054442 , 4967.4243338
4282.52414326 , 4899.97575785
4255.91321873 , 4954.28748941
4083.34237239 , 4833.4404891
4259.73537105 , 4973.19734415
4340.01197588 , 4977.02273839
4094.79118234 , 4889.90217997
4315.25028101 , 4962.19343674
4279.51069307 , 4951.07341671
4179.70419253 , 4935.95082983
4242.43386983 , 4893.02278527
4110.5695354 , 4844.49865559
4041.9288225 , 4866.38146743
4276.63432274 , 4923.23488404
4300.70996405 , 4978.12604291
4177.78940437 , 4958.55201183
4220.69698381 , 4905.92344849
4215.05704204 , 4905.23565811
4167.6552009 , 4895.15873809
4300.05430701 , 4980.07460616
4273.48936953 , 4909.13139978
4191.53035007 , 4957.20114332
4148.81460705 , 4953.75131255
4151.24876185 , 4886.50704004
4308.2524434 , 4910.94213491
4359.88509729 , 4978.40777112
4237.3720634 , 4998.55334419
4310.47735708 , 4969.47222909
4167.17235185 , 4908.07193145
4214.10365104 , 4963.38251437
4115.83714162 , 4919.21812869
4234.49840716 , 4887.59111085
4164.99078242 , 4969.49311651
4133.35066938 , 4859.58951925
4308.7346229 , 4953.18129078
4290.74965783 , 4973.27660732
4268.50496585 , 4854.97377925
4217.41697611 , 4915.55731113
4273.02853212 , 4947.34370385
4232.67137959 , 4954.50433972
4254.9086835 , 4987.28143517
4312.68580346 , 4926.52379216
4225.32125704 , 4956.76857908
4005.3905252 , 4884.35247166
4316.86026299 , 4957.06442875
4095.32259383 , 4908.32817464
4186.81152521 , 4920.71188294
4018.27739762 , 4822.35015723
4140.68976844 , 4844.21492792
4116.25122021 , 4905.07628256
4187.70049011 , 4915.00825295
4238.20523195 , 4956.80276493
4265.60058803 , 4965.3095734
4193.43991353 , 4964.61964925
4121.63280475 , 4921.50728227
4224.56384887 , 4925.73045237
4280.03792578 , 4949.55050739
4266.58197817 , 4889.38072007
4201.90248043 , 4926.93762118
4237.95997084 , 4966.25905712
4294.31467082 , 4991.20625365
4249.90001588 , 4916.14876305
4281.89293808 , 4907.14566119
4263.5291835 , 4934.37596819
4132.59818711 , 4972.94154357
4238.51853929 , 5019.15893911
4125.23820085 , 4893.34290122
4165.86716718 , 4948.66804889
4221.19875523 , 4909.45759285
4268.32152577 , 4944.97532555
4271.34849092 , 4924.75704669
4202.51367192 , 4983.16324125
4191.36884113 , 4906.54079545
4156.93540037 , 4880.8354148
4134.48381511 , 4896.55788784
4192.2124807 , 4893.83336175
4256.21335615 , 4941.29890082
4208.28032213 , 4958.06485849
4199.87541877 , 4878.39728638
4316.38218915 , 4972.25962555
4171.65401346 , 4939.65405926
4414.20462073 , 5000.918245
4222.28745813 , 4964.59106255
4224.6777931 , 4887.87010072
4247.39137183 , 4932.46860425
4159.30019144 , 4876.40425941
4210.45126147 , 4892.39490504
4399.43062934 , 5023.59709886
4235.61680644 , 4897.97812815
4133.9208508 , 4935.79041275
4174.50541583 , 4939.28453343
4099.13909976 , 4837.31338799
4225.95353119 , 4981.98778881
4107.37283826 , 4885.95470993
4166.28730111 , 4919.87567468
4281.22421061 , 4945.35870312
4286.71929971 , 4917.67961052
4136.87011609 , 4925.95616996
4213.91060175 , 4878.302331
4212.60297749 , 4935.1831075
4233.56296402 , 4952.55001883
4281.80598363 , 4918.78748607
4138.57658726 , 4884.67210025
4258.2556116 , 4976.91822903
4348.15486017 , 4937.12982378
4194.92951951 , 4938.7870933
4110.0704129 , 4910.10990386
4194.11538063 , 4961.81782161
4125.28373301 , 4888.26223759
4202.53408823 , 4928.12206398
4318.31679373 , 4910.06479843
4233.49839545 , 4929.62040592
4265.09056339 , 4924.57814091
4264.55474208 , 4973.02748628
4203.07308296 , 4943.70998814
4150.54168735 , 4857.73885139
4233.931347 , 4962.10449419
4111.22143916 , 4930.00977971
4213.67801325 , 4973.45183174
4238.31966386 , 4894.62740323
4262.42109644 , 4984.59687485
4245.93275352 , 4995.88476987
4113.81283757 , 4905.81092961
4129.03355034 , 4810.02717598
4310.25278058 , 5000.22028125
4275.47111576 , 4933.73854494
4261.52214245 , 4931.40280632
4318.85382125 , 4969.76204606
4208.95520065 , 4899.67866964
4165.58315874 , 4856.34990564
4251.31755272 , 4992.57796408
4102.20106976 , 4889.79414751
4324.62488702 , 4934.92059934
4170.39254653 , 4916.80973409
4260.01270188 , 4860.11621561
4237.66462573 , 4939.8445637
4337.83889901 , 4977.75794017
4118.99282391 , 4941.40123759
4153.47053384 , 4898.28091006
4246.09963166 , 4962.80955597
4192.81043253 , 4972.01714449
4276.06763932 , 4979.27769476
4140.58662585 , 4897.76777393
4221.58416648 , 4934.48579002
4214.3829436 , 4919.15243131
4334.99436526 , 4966.69612304
4151.54990514 , 4833.82045182
4175.9989526 , 4927.58079414
4194.02996334 , 4915.98166998
4164.46522028 , 4914.33890156
4284.88410144 , 4960.14863964
4191.21111483 , 4970.67719592
4309.84557999 , 4973.46478279
4216.23768179 , 4899.54325649
4168.62391305 , 4940.24041164
4198.19035004 , 5005.93321174
4164.83509752 , 4917.99061249
4257.79826733 , 4903.78945005
4205.08706454 , 4937.24948442
4188.58225427 , 4915.86688627
4357.80883286 , 5026.69624544
4341.55047183 , 4938.82161957
4192.92536987 , 4967.10287185
4229.90370119 , 4886.97261003
4146.58864885 , 4890.33088356
4156.2452076 , 4905.71380889
4133.65716821 , 4868.64550395
4100.06877488 , 4929.89882641
4122.79349699 , 4898.78194968
4128.97446108 , 4891.96094147
4228.47293405 , 4902.58303774
4330.42014337 , 4992.27432718
4271.92245025 , 4885.56675138
4215.32591762 , 4933.50805274
4247.53802012 , 4945.27527089
4180.86418878 , 4931.01685377
4293.49662272 , 4951.45152946
4106.04761596 , 4836.87033339
4246.26912368 , 4905.7472985
4166.39682877 , 4879.20240889
4164.93010455 , 4841.39315418
4280.08580218 , 4915.44060765
4322.42557717 , 5012.26062221
4241.91338732 , 4886.54021968
4117.40737398 , 4880.99705322
4194.94692453 , 4923.31054112
4125.59043948 , 4971.19499636
4263.92929081 , 4918.03985468
4159.50565952 , 4906.58066391
4147.47694261 , 4949.40288743
4306.14643931 , 4998.46035717
4229.97433241 , 4904.4460628
4279.47010365 , 4947.70030419
4281.13796853 , 4974.7148175
4281.91738404 , 4994.81404333
4088.5004898 , 4885.88294698
4139.7563312 , 4901.52358267
4243.05006942 , 4940.98695141
4320.27200668 , 4915.98608158
4070.58016284 , 4820.61199068
4333.45390248 , 4988.44987734
4275.04320667 , 4979.53521802
4148.34511992 , 4939.35648649
4286.6294961 , 4951.4718608
4235.51434677 , 4958.77663953
4215.64782281 , 4932.32130871
4187.16750863 , 4917.14284724
4191.99938521 , 4925.46236696
4135.15997088 , 4923.01521982
4404.22966827 , 4977.86738426
4307.0323464 , 4986.47026457
4237.02736208 , 4924.66348681
4221.70404331 , 4902.15599792
4236.33938731 , 4916.06008474
4139.28511973 , 4894.39243788
4219.42292944 , 4910.58555992
4185.11580574 , 4933.81934018
4181.73150734 , 4964.07161738
4207.75006361 , 4979.86432663
4200.56811644 , 4886.27194119
4284.00855694 , 4937.25156775
4258.81843229 , 4949.18103622
4290.20153189 , 4979.15245237
4085.13779285 , 4859.98776042
4166.23396142 , 4930.91881368
4379.4497816 , 4979.7493128
4164.74898944 , 4893.98176032
4172.3703241 , 4932.10027735
4096.67233042 , 4869.05572517
4314.4315983 , 4870.45070984
4241.40072777 , 4932.86640689
4272.85588169 , 5009.85024947
4133.41203376 , 4960.60139076
4367.75462957 , 5071.73161058
4100.54677158 , 4880.085956
4206.3527328 , 4942.58648196
4217.89884009 , 4925.74516459
4167.8783166 , 4941.91911063
4075.37589557 , 4938.89368694
4185.65135327 , 4875.55436922
4295.84977006 , 4908.54250731
4255.34931473 , 4895.64137528
4219.51418228 , 4937.61024226
4158.50294679 , 4940.36394884
4297.03642085 , 4936.56868608
4215.08814352 , 4895.85270917
4235.62406672 , 4902.6029589
4193.0917099 , 4941.29588524
4292.68583215 , 4974.71950672
4289.53438375 , 4883.13548174
4120.62877136 , 4941.66405801
4103.49169302 , 4847.68483382
4003.95405919 , 4792.86970057
4230.79098638 , 4936.89030383
4240.31837299 , 4940.01714956
4261.93724745 , 4925.02501642
4354.42694278 , 4975.10356724
4184.60571637 , 4897.89579244
4290.58519153 , 4972.16734892
4348.19003884 , 5001.44864535
4139.70727749 , 4876.49917766
4377.51066453 , 4990.7725936
4329.24955073 , 4985.7955094
4189.30997275 , 4913.13705197
4258.61748329 , 4899.59145222
4267.26842061 , 4969.1319425
4259.70997472 , 4925.84666288
4331.49845531 , 4961.01121572
4178.66633101 , 4906.41398129
4349.50915323 , 4951.83413453
4361.6783613 , 4991.69564509
4178.24721583 , 4910.24737839
4213.97727187 , 4922.00653775
4182.35033705 , 4835.2861187
4204.35542754 , 4895.84880198
4201.34453867 , 4893.44151531
4282.06679979 , 4973.20086335
4268.53923708 , 4875.36208466
4335.50014165 , 4964.46494541
4141.02387613 , 4882.65972262
4371.74302818 , 4952.68183328
4100.52267068 , 4901.64939226
4084.45676695 , 4853.52583809
4134.88918286 , 4886.12358262
4319.387481 , 4954.16040821
4400.28349684 , 4959.57911128
4151.1854024 , 4932.73325198
4206.04182798 , 4918.32241038
4289.10086343 , 4987.08883031
4226.84433669 , 4914.87664023
4109.29802867 , 4823.75736325
4248.9374741 , 4988.3044476
4252.39283418 , 4948.75121645
4273.32783012 , 4966.7390635
4227.08321048 , 4912.77697654
4274.17961662 , 4928.52313722
4193.7327192 , 4926.93540673
4302.29166669 , 4982.7467171
4325.88213704 , 4984.53320517
4205.22955107 , 4914.02031803
4187.47706283 , 4928.60234242
4186.67514059 , 4877.24666622
4323.73483548 , 4945.7433738
4214.37640303 , 4919.45538887
4207.72960437 , 4965.02286459
4238.19060809 , 4941.37137645
4118.67133428 , 4851.07324736
4401.2981448 , 4967.31971855
4130.09707289 , 4927.17276585
4259.28128908 , 4931.93684467
4222.61924702 , 4940.02057076
4273.18355492 , 4963.68284127
4143.94165382 , 4900.01720497
4344.56659132 , 5015.68640147
4257.50450915 , 4977.38778949
4265.13861097 , 4936.86740396
4222.86080971 , 4939.2058516
4286.40467231 , 5007.59880829
4311.7644081 , 4884.46884581
4252.30561789 , 4925.72485646
4145.20054128 , 4956.32885692
4201.46661969 , 4928.9433855
4159.01640176 , 4831.43132319
4274.50629084 , 4871.93047565
4076.30411238 , 4860.06389525
4405.00357314 , 4943.39547724
4296.4966789 , 4957.35860863
4390.46685295 , 5006.15412802
4194.03350553 , 4964.0325577
4270.96431245 , 4872.53909435
4149.97846623 , 4911.51701196
4201.82745239 , 4887.44002665
4354.0458239 , 4958.33529767
4361.24724425 , 5009.52413425
4163.92081633 , 4904.88909231
4315.27294974 , 4935.47432746
4314.78455546 , 4915.13132361
4293.40099318 , 4966.65793161
4254.32524155 , 4961.70962231
4237.56656883 , 4924.63981519
4220.82870282 , 4888.85643422
4341.15746845 , 4951.46331335
4372.85218838 , 4992.45284971
4334.4459659 , 4936.88356579
4220.0882076 , 4941.46175267
4264.54744128 , 4909.075126
4147.12819016 , 4854.84197756
4211.30373397 , 4924.6703053
4135.22639812 , 4873.3885429
4249.45024866 , 4965.62746519
4187.06800805 , 4938.54845743
4314.39031563 , 4982.00264733
4238.35477655 , 4913.87512084
4239.90791569 , 4943.65676364
4228.06845925 , 4926.84152245
4307.77006945 , 4911.51980909
4126.04418869 , 4923.78822827
4166.36951358 , 4922.37282244
4353.19408672 , 4970.00971602
4139.38194763 , 4952.8332543
4058.16065849 , 4896.42678259
4245.02928697 , 4886.41586185
4253.46550367 , 4935.31980469
4340.55161178 , 4927.93697786
4196.35294839 , 4939.23977966
4178.57957824 , 4894.08413027
4155.13159323 , 4894.99955895
4320.40085074 , 4935.4683305
4336.93277458 , 4971.90577876
4448.55702155 , 4982.30588838
4129.9112335 , 4907.59586384
4320.54713769 , 4910.80810506
4182.10599888 , 4947.78344637
4333.93013187 , 4971.17885624
4175.88255217 , 4971.00668888
4244.26061636 , 4818.74978596
4309.35045541 , 5019.12143192
4121.72848985 , 4893.42838202
4256.60224357 , 4922.68536929
4065.13694752 , 4867.41641535
4174.05973874 , 4901.17499117
4250.02783778 , 4947.42845198
4132.67011545 , 4896.81470527
4338.41388503 , 4951.70555658
4344.79829907 , 4990.98116001
4289.26958214 , 4913.6227804
4421.07498489 , 5015.96780212
4195.32325265 , 4869.44779613
4304.0887828 , 4937.37202791
4273.9803974 , 4945.86298248
4233.64779776 , 4949.21413705
4261.892529 , 4935.37556558
4141.59750847 , 4924.14749048
4294.59003199 , 4968.92562519
4262.89687533 , 4919.87086228
4262.88455724 , 4907.00617561
4192.27585047 , 4959.9611923
4181.16879035 , 4929.76567818
4205.97177035 , 4896.09641227
4074.6874951 , 4825.78367331
4252.59014622 , 4928.3264365
4268.63061716 , 4925.14803004
4244.98617912 , 4945.86891855
4173.55347705 , 4896.01578295
4102.94011762 , 4910.20025874
4245.85284675 , 4914.53993473
4290.77141236 , 5000.88395096
4240.94755427 , 4931.5526283
4251.86419003 , 5010.3395126
4300.339606 , 4984.69771753
4214.59906959 , 4879.44213399
4231.89471494 , 4956.74803695
4270.31118149 , 4882.71328784
4220.64278118 , 4971.44965551
4279.18218631 , 4896.37042555
4158.62601569 , 4960.16112576
4095.7847304 , 4889.91464332
4123.52253062 , 4886.32324651
4346.04094443 , 4947.48228804
4198.64404427 , 4873.76319204
4228.95401244 , 4966.72526089
4057.33600771 , 4889.64168834
4297.3423686 , 4967.65145649
4398.52608639 , 5047.35283698
4273.11106514 , 5013.21444361
4195.25587276 , 4865.91970892
4173.31570431 , 4902.70204463
4244.0743931 , 4912.11712151
4308.6934117 , 4896.52579321
4328.65670043 , 4993.40167476
4290.48615481 , 4903.62684449
4250.03679924 , 4978.36961161
4306.49688659 , 4959.98348878
4187.73096416 , 4935.50316218
4288.77788265 , 4978.6731275
4022.14300318 , 4905.71870115
4256.02378481 , 5007.4769183
4141.77925349 , 4910.17431027
4292.44158062 , 4934.44006727
4248.85759419 , 5009.70126404
4316.91704842 , 4968.8903831
4250.62026712 , 4940.85724789
4296.59303979 , 4952.75917342
4135.47472265 , 4911.44342802
4418.97912579 , 4967.7029586
