4634.59811384 , 5434.68458139 , 3341.29168044 , 3779.84280541
4616.84108535 , 5467.66203417 , 3476.86892245 , 3797.74377156
4969.11427583 , 5659.02623778 , 3688.06108453 , 3889.92200139
4995.10673207 , 5653.29470641 , 3698.03022008 , 3851.62841134
4908.05116705 , 5616.24613788 , 3579.22426572 , 3877.72130374
4736.5234011 , 5466.27145751 , 3507.34846659 , 3834.98138353
4694.99585658 , 5543.57521122 , 3534.02499212 , 3818.31579259
4966.60736187 , 5750.05198865 , 3616.3613201 , 3960.55373019
5011.37589417 , 5587.08045863 , 3488.56511863 , 3830.25089388
4738.99415726 , 5580.47990491 , 3583.3201964 , 3888.45388236
4712.16543903 , 5516.43742832 , 3594.54338424 , 3831.50361783
4913.1184544 , 5618.99521198 , 3589.72537473 , 3904.15179026
4903.82685722 , 5565.40768834 , 3585.81574583 , 3844.35345356
4675.47707994 , 5418.18463058 , 3611.80798352 , 3824.44025665
4758.02771169 , 5481.35624732 , 3583.3201964 , 3812.51523522
4751.60178189 , 5527.3806152 , 3584.75606003 , 3875.12553127
4796.4766157 , 5516.15304059 , 3603.02638594 , 3864.51976747
4935.50166241 , 5464.22934632 , 3506.13494763 , 3814.01894649
4791.93540545 , 5558.65654213 , 3517.00739041 , 3866.86644274
4855.13783574 , 5568.41401037 , 3417.41798927 , 3825.30614316
4783.41517834 , 5523.18657759 , 3641.8214705 , 3917.56058935
4897.73674051 , 5600.34270851 , 3574.96687727 , 3856.61166158
4963.68537684 , 5535.87542106 , 3612.15432453 , 3841.64358355
4482.57509401 , 5384.62176773 , 3409.40345636 , 3758.06912947
4579.58096763 , 5441.76692911 , 3417.41798927 , 3741.2409118
4455.63251167 , 5383.62183364 , 3313.59880896 , 3707.12276213
4883.24932281 , 5530.33262351 , 3420.69308149 , 3860.44389279
5031.90512991 , 5775.8815252 , 3731.76202887 , 4048.04956698
4729.23244514 , 5527.25669415 , 3580.66012935 , 3905.10834204
4571.55310081 , 5404.23152321 , 3466.53228799 , 3786.48438096
4629.30324773 , 5442.18727817 , 3374.53313641 , 3765.60130262
4672.23143505 , 5421.24147403 , 3370.3527261 , 3738.1046768
4756.75853551 , 5573.26670429 , 3581.39493541 , 3841.42669399
4730.62392746 , 5525.86655789 , 3471.11291051 , 3901.86910387
4954.67929216 , 5483.60464938 , 3601.82398175 , 3786.33450892
4674.5981689 , 5427.77306619 , 3579.22426572 , 3854.5414907
5036.33636212 , 5683.49623943 , 3718.60393654 , 3940.96732475
4851.73783442 , 5561.20020464 , 3685.53226258 , 3895.26324133
4804.42671053 , 5570.13361292 , 3490.38040531 , 3836.46550168
4874.10432907 , 5584.82135815 , 3658.81262366 , 3928.58913455
4947.11426057 , 5647.556669 , 3703.98709956 , 3915.03959418
4829.34476605 , 5519.95791501 , 3671.46551815 , 3933.51928786
4812.12421093 , 5499.79984306 , 3630.83470374 , 3862.11326409
4626.64217507 , 5532.54393064 , 3507.34846659 , 3777.8227415
4748.38113452 , 5506.29464142 , 3543.59567535 , 3820.04265935
4783.13882431 , 5523.24140896 , 3601.82398175 , 3815.35703426
4969.37196689 , 5585.28760405 , 3584.4859992 , 3890.22657918
4801.88691504 , 5535.45763872 , 3466.53228799 , 3866.19774242
4836.48101814 , 5536.14817709 , 3459.62854463 , 3825.42807388
4978.91077057 , 5582.9530689 , 3471.11291051 , 3854.29217642
4680.3397557 , 5524.16145791 , 3508.35767979 , 3827.32937403
4796.24377479 , 5560.74871027 , 3619.64253129 , 3854.94353709
4859.27732131 , 5513.63918528 , 3658.33684419 , 3882.42238681
4876.78604487 , 5571.93645788 , 3579.22426572 , 3854.87615823
4902.10133414 , 5523.78932598 , 3601.82398175 , 3851.51950268
4710.81258872 , 5471.1834923 , 3451.47690487 , 3753.4165502
4785.10829245 , 5478.08604805 , 3601.82398175 , 3806.06322845
4798.67636975 , 5550.04746362 , 3594.54338424 , 3865.74899366
4758.29540296 , 5547.7897571 , 3583.3201964 , 3918.05010315
4873.61950174 , 5524.4254447 , 3574.48917706 , 3864.57517313
5117.13199733 , 5652.46897931 , 3652.2682896 , 3903.70533545
4907.34879319 , 5614.57685968 , 3624.6292674 , 3938.72186648
4839.46939421 , 5556.48363657 , 3609.98493113 , 3841.4365765
4772.84514202 , 5503.17398499 , 3619.97254216 , 3848.98776253
4665.41294256 , 5447.68975714 , 3587.25160945 , 3813.20369603
4813.08674996 , 5572.81926933 , 3469.9140241 , 3838.86491699
5048.18928442 , 5707.09214482 , 3605.0103716 , 3960.14379201
4814.83980468 , 5630.79502081 , 3555.54085472 , 3878.87897403
4792.81534586 , 5453.21959201 , 3448.92978464 , 3747.32851094
4726.39426793 , 5514.4939225 , 3433.73252271 , 3813.9312758
4771.59321411 , 5515.33895418 , 3513.38250688 , 3782.91594489
4920.66769845 , 5615.20847804 , 3657.35502726 , 3921.83418982
4759.08673511 , 5502.70013573 , 3538.01533089 , 3782.018553
4853.56843199 , 5615.79054126 , 3601.82398175 , 3856.21469696
4718.31359675 , 5516.59215025 , 3443.69240434 , 3841.95265334
4804.06997366 , 5575.79417757 , 3543.59567535 , 3849.61458061
4781.30323561 , 5495.94636682 , 3398.85793365 , 3800.87501756
4834.6230784 , 5531.78696338 , 3593.25882579 , 3852.79802415
4804.23962829 , 5547.29012557 , 3507.34846659 , 3858.3170332
4607.99199874 , 5447.19822081 , 3570.87094659 , 3785.31589808
4702.96294278 , 5532.05101554 , 3496.69017822 , 3845.20587515
4774.05629288 , 5453.53535278 , 3420.69308149 , 3758.31464529
4695.79882543 , 5607.15911455 , 3503.61829944 , 3905.10094217
4728.85948495 , 5414.30743716 , 3545.68264256 , 3760.52428822
4809.61656604 , 5497.40968225 , 3584.4859992 , 3877.69217713
4694.33187878 , 5477.92521964 , 3405.87649766 , 3815.67931601
4764.05186126 , 5459.28482583 , 3360.58612213 , 3767.89329096
4790.44190956 , 5510.36290079 , 3556.14810035 , 3798.50305135
4855.47252256 , 5593.17331708 , 3508.46612736 , 3853.35010988
4569.24192386 , 5426.05648361 , 3453.46931993 , 3783.23238617
4727.0744747 , 5431.65490603 , 3494.68052536 , 3845.30430161
4814.17238314 , 5533.01321809 , 3583.3201964 , 3805.77705665
4840.15709073 , 5629.93230343 , 3536.17447839 , 3827.03551213
4863.14857735 , 5529.41248545 , 3583.3201964 , 3793.52753001
4903.65012661 , 5602.76790516 , 3710.73693775 , 3956.74679994
4729.77361196 , 5527.13246538 , 3383.23902642 , 3842.16517897
4727.63905855 , 5552.00554744 , 3526.0598268 , 3901.45362919
4896.14692114 , 5593.93345764 , 3422.47807102 , 3825.3351086
4821.93707814 , 5542.39472645 , 3603.02638594 , 3910.29132962
4679.24619049 , 5436.89145833 , 3492.53363932 , 3831.71340822
