lltorc
[-1, -1]
[-2, 0]
[-3, 1]
[-86, -181]
[-86, 179]
[57, -181]
[57, 179]
rctoll
[0, 0]
[-1, 1]
[-2, 2]
[0, 359]
[-142, 0]
[-142, 359]
[-85, 180]
getting data
BG,2705.35917157,1362.26499142
AF,1837.79557509,1143.31601215
BR,11842.5429926,12994.0079789
BR,11169.4404402,10545.2952469
BR,7410.72813796,11190.6131345
BR,8901.711718,14212.0193677
CU,8558.97860594,10927.0826628
CU,12457.0929762,13712.9935647
CV,973.688337642,2540.4356503
ML,5420.57022693,5593.10124652
TR,172.592144694,2130.46223994
DZ,107.402705124,4837.92804368
EG,912.236765189,3660.52776715
ES,1839.44822696,697.324163986
ES,2738.78793219,2580.56990998
ES,2932.88481289,1456.36787043
ET,5209.15937774,4787.43808264
FI,4486.64580589,5639.18797632
GN,1995.11041807,6334.52617217
HR,1181.7950152,4694.02520387
IL,1716.96551591,1202.21898724
IN,10399.4144447,8030.40763741
IQ,4567.98784752,2686.0569728
IR,2991.76701489,3056.32048825
MA,2938.30496711,3017.98991517
ML,1821.7106433,3593.60703976
ML,1662.56250115,2439.15877541
ML,1331.35351017,1618.99451424
MX,15305.7438136,15962.0480108
MX,11740.0118803,14611.3858985
NG,3211.0044425,2927.76459553
PE,9389.14429131,12956.9141194
PL,1985.43037289,4530.68206022
PL,2091.14180476,3019.93466885
RU,9182.38686932,8650.61844048
RU,3715.05873142,2938.12882723
SN,606.255841253,2220.8515976
SN,2134.45852798,3354.71565226
TR,2565.14415009,4010.61894685
TR,3508.42324928,3509.32776381
TV,19533.0346427,18029.0348931
UK,2936.48378284,3072.14733004
UK,4949.44541211,6281.48566177
UZ,1935.86755181,2243.85922914
AR,7415.76414301,9668.4248729
BR,10876.0772804,10892.6630788
TR,0.0,nan
UZ,1416.39190726,1561.9085671
DZ,1967.83762112,336.721792933
UZ,4559.66068722,4138.32836927
DZ,2184.84140795,762.199811311
UZ,3422.97244848,3358.33505381
ES,2449.27004067,3262.50699993
UZ,1155.19642477,1589.47953566
ES,4101.02815991,1559.08091033
UZ,5244.8177239,4288.4834181
GN,2498.4025103,4284.76363568
UZ,5154.52813386,1374.38051878
IS,5564.82185628,6977.07858082
UZ,11972.1360673,7063.32699741
IT,846.419433979,3255.53791916
UZ,4371.44518037,4152.21888418
ML,0.0,nan
UZ,3793.97752396,2448.9378859
MX,9979.50285788,13857.1910766
UZ,3184.59055574,3100.70092723
RU,3610.77446796,2954.30148429
UZ,2682.49671482,3455.1443332
SN,478.900613031,2335.36048071
UZ,3727.66205206,2346.13607361
TR,2097.03514039,2210.0541182
UZ,3588.32656321,3966.8593186
IN,2761.48024252,1747.41674594
UZ,3409.54675538,3081.50019829
ZA,8361.95648114,8125.144308
UZ,3049.15695767,1971.58036314
UZ,7153.98732817,5189.57300136
DZ,3504.30090803,5000.19389356
LB,3429.69058447,499.051409131
PK,6821.68159411,4757.33983936
UK,3390.9319896,5551.01340729
UZ,8619.37921695,2914.36054297
RO,3154.49402131,3181.52955866
LT,0.0,nan
RO,2522.82005332,3488.95943373
LT,0.0,nan
RO,2100.81261574,3295.01997284
LT,0.0,nan
RO,2107.1182078,2040.70925273
UK,0.0,nan
RO,2678.55491747,1530.22963256
UK,0.0,nan
RO,1584.45341109,1284.2681975
MA,1183.52486331,4501.14344187
RO,1264.68750699,517.414045329
LT,3746.12802095,2429.19829158
RO,6273.02516823,6604.35207369
UK,0.0,nan
RO,3508.26009841,4785.73318552
UK,0.0,nan
RO,549.594031748,531.442203263
MA,4144.95052994,3820.09263959
RO,6032.94648235,6317.55987123
UK,894.380757403,1723.01034389
RO,3470.99705722,4102.19716695
MA,7369.48784301,8378.96519153
RO,2560.7164844,2623.2690857
UK,0.0,nan
RO,2299.50620548,4401.60973335
MA,2106.82416433,5626.91892691
RO,788.772999328,nan
UK,0.0,nan
RO,1472.93860641,3089.68575803
UK,0.0,nan
DZ,4573.74119585,2586.91243692
MA,4217.4685226,3855.24733881
DZ,1895.92734311,445.121389706
MA,2958.38816839,6091.97690855
DZ,3676.9702959,3136.55398409
MA,6154.07495498,7570.64542255
DZ,1302.195009,1460.74345441
MA,5443.02966998,7410.2906779
DZ,3432.69027448,3003.59215507
ET,4276.30153591,4660.72554138
DZ,1787.11052718,2601.96517771
ET,2616.13745414,2995.79723134
DZ,2804.54030166,2334.15323824
ET,3872.67182213,3629.02226188
DZ,2567.4411844,4942.724955
ET,6183.47498566,6213.82051564
DZ,1019.83745544,5355.13642962
UK,0.0,nan
DZ,4886.04947004,4525.19967452
ET,3636.46800918,4846.49116865
DZ,3257.31332969,2866.4464267
ET,2338.71282843,2822.70733811
DZ,4909.50367944,6785.41109476
ET,6243.64647397,5976.33855031
DZ,4917.98785579,1178.21371325
UK,0.0,nan
TR,1147.67206911,3891.76759747
ET,2924.76060778,3403.46235518
TR,2121.31130488,2191.53921806
ET,2902.89031292,3261.70833466
TR,5674.64016424,775.462128428
UK,0.0,nan
TR,1648.2353749,1284.01026245
ET,4261.6436184,3708.49860161
TR,1824.16734026,2638.29539538
UK,317.745906064,548.437865282
TR,690.581391635,2034.15280348
ET,4885.51526653,3581.15690592
TR,1498.25155777,1162.39030121
ET,2965.0470253,3816.99826648
TR,7029.40541142,763.7063259
ET,3335.96826908,2910.36050615
TR,212.396659933,2117.1785755
UK,0.0,nan
TR,2549.73165618,2387.96068755
ET,3444.38284574,3270.84614016
MM,7149.26505147,6602.10715526
MM,3543.39616789,2254.856355
MM,1648.95077058,715.402129668
MM,1216.59781149,451.975791539
MM,0.0,nan
MM,1216.59781149,451.975791539
MM,0.0,nan
MM,13814.9090716,9061.66418336
MM,389.37644385,695.307981948
MM,4741.91980618,2757.37745002
MM,2811.01194359,1603.22772626
MM,3542.22160089,2772.24252792
MM,3096.07454764,1605.91045979
MM,2901.63896843,1424.9196694
MM,0.0,nan
MM,2546.66039545,1589.13207147
TH,7611.66069825,6683.18291434
TH,7976.47222976,7805.71486927
TH,3980.98494276,3115.4211439
TH,4141.69653882,3129.26349411
TH,6486.6738024,4460.83930738
TH,10054.6710197,5895.02361734
TH,5520.00464822,4552.44886404
TH,9546.71869306,4785.05381999
TH,3206.20423176,2246.63048517
TH,5923.34043033,5108.35032892
TH,7357.05684942,5748.66554092
TH,3564.36896606,2821.89959474
TH,6045.23711022,4040.00165888
TH,8952.67478755,8746.24490191
TH,3818.05324196,2834.59970416
TH,681.542544724,1252.27405162
TH,7033.50795151,3390.19104084
TH,9708.37255133,9096.4557174
TH,4433.27440978,3140.21303545
TH,3520.08675434,2291.09000178
TH,6278.04121394,3896.25178673
TH,8558.74434648,6647.16241806
TH,3815.23833398,2568.06291799
TH,5478.49839168,3344.59077365
TH,4237.31580434,2981.86203793
TH,1366.47871553,1808.43108494
TH,1798.69524268,1740.12814608
CN,4625.09130611,3910.12681343
CN,7344.05751231,7276.08452186
CN,3460.23663465,3291.02273276
CN,4729.7554974,4901.17906464
CN,4493.67437855,3800.70631698
CN,3867.58226066,3808.21052195
CN,4304.16920076,3673.00324944
CN,9900.49754768,7094.75638277
CN,4209.47087768,4034.34029935
CN,4603.75566435,3906.17820226
CN,3166.50591454,3153.19074836
CN,2759.55039036,2877.83676919
CN,6901.22419373,5744.2961268
CN,6121.99807144,5409.90081226
CN,6436.81884816,4340.42305893
CN,5723.1265321,5243.0830241
CN,10778.5511679,7344.44461796
CN,6734.81510885,4745.32230034
CN,5979.07496883,4891.757017
CN,8476.75143326,4728.31746997
CN,4560.60437571,3895.93709988
CN,6059.69170245,5062.23018211
CN,4594.59988499,3885.66756663
CN,6514.94079281,5138.66196724
CN,8463.872452,6277.48295631
CN,5901.30351239,6407.80927855
CN,6651.9920895,5948.67274673
CN,7827.88414527,6357.67791069
CN,8259.18528454,8183.67410952
CN,4277.83320485,3616.64571486
CN,8266.05303462,4757.14104426
CN,7889.49944424,4461.51617519
CN,7296.49128975,6265.08872418
CN,9247.6820608,7875.19720436
CN,7419.71168649,4296.13873242
CN,6586.62912371,6979.23219348
CN,6111.70255943,4445.94353166
CN,7183.67180865,5832.75560512
CN,7196.09421283,6626.05061452
TW,6737.3322832,6453.05540299
TW,5728.03858724,4603.40169367
TW,1352.42006909,2546.2759265
TW,3599.99795939,3505.68444671
TW,0.0,nan
TW,1352.42006909,2546.2759265
TW,0.0,nan
TW,0.0,nan
TW,0.0,nan
TW,0.0,nan
TW,0.0,nan
TW,0.0,nan
TW,0.0,nan
TW,0.0,nan
TW,0.0,nan
TW,0.0,nan
TW,0.0,nan
TW,0.0,nan
TW,0.0,nan
TW,0.0,nan
TW,0.0,nan
TW,0.0,nan
TW,0.0,nan
TW,7963.30938695,5374.51885574
TW,3847.05610379,3592.95708745
ID,3944.2761782,4431.34907662
ID,9193.89396042,7379.19288822
ID,9676.19432076,6430.87240601
ID,10487.4488176,6746.59732526
ID,8773.78346588,8899.1424067
ID,8586.84960752,8940.65907869
ID,8203.0307112,8355.04258373
ID,4723.19141075,4049.07246146
ID,7156.19060219,5737.42024756
ID,7653.38265127,7584.81244486
ID,10439.6873607,6363.86293702
ID,10689.3059434,10681.8795757
ID,7762.94747263,6929.10431161
ID,9929.32251677,10499.0782976
ID,11196.0393945,9437.28807607
ID,10238.2850271,9892.71053237
ID,10144.7988755,10364.3874667
ID,9177.30763688,6095.14767637
ID,10306.0233506,7496.70831247
ID,4463.42784172,4146.12871726
ID,9906.94688765,8337.18284469
ID,10828.2358299,9895.21586601
ID,4461.58696234,5126.3613609
ID,11234.288265,9956.74607659
ID,6888.07232399,5436.48697073
JM,1957.04111198,1440.09187216
JM,985.837234783,178.310692091
JM,8363.94230216,11249.6965354
JM,0.000100299715996,nan
JM,2086.99434354,1077.88703031
JM,2912.362659,1764.78017652
JM,2962.1084767,7388.15537087
JM,0.000100299715996,nan
JM,7140.98814779,8656.69441269
JM,1379.24680208,1070.27524143
JM,1372.12663504,880.80001043
JM,1225.88135858,434.892536737
JM,1379.24680208,1070.27524143
JM,10078.2136784,12739.6764964
JM,1379.24680208,1070.27524143
JM,1662.87590676,5823.1702327
JM,9029.43265734,8865.85279033
JM,8590.03003846,9813.78036791
JM,2912.362659,1764.78017652
JM,1893.5318262,1615.68365902
JM,3442.33666906,4983.99695516
JM,4084.54175427,5579.32289767
PK,1184.4155402,633.897630194
PK,1237.67572592,473.457580081
PK,2846.23574259,346.19400916
PK,4773.61102576,4729.89714005
PK,3150.41388547,3569.38379219
PK,6231.27104289,4733.43416192
PK,5115.38202671,4718.10191133
MA,1433.40593761,3276.34537153
MA,1680.77596213,6475.72616049
MA,2892.9787023,2028.75188025
MA,1973.44022796,2158.49715268
MA,1492.85182386,1974.9416558
MA,1825.78764437,1154.45144682
MA,1340.20519177,771.188463703
MA,1680.77596213,6475.72616049
MA,0.0,nan
MA,1333.93457781,921.295615378
MA,1327.58640192,1962.80017002
MA,1955.7978601,2513.54701058
MA,2724.54030161,3312.37908662
MA,0.0,nan
MA,1433.40593761,3276.34537153
MA,2986.81329637,2967.77389214
MA,1680.77596213,6475.72616049
UK,0.0,nan
UK,0.0,nan
UK,0.0,nan
UK,0.0,nan
UK,0.0,nan
MA,3258.17196493,6936.07547157
MA,1925.9271823,544.185906162
MA,6429.98145475,7473.46254062
ET,2278.02281861,2907.59595862
ET,2993.46168846,3045.29964942
ET,4708.93508606,4447.86667041
ET,6466.74755196,4721.61894525
ET,4646.61921384,3427.40315626
ET,1194.50079739,2429.91353255
ET,5969.05021582,4070.40835612
ET,4367.38709325,4722.13391564
ET,2001.77628289,2506.91897723
ET,2289.77204043,4730.76906135
ET,4378.0490516,4172.90479817
ET,7239.99434802,4733.67075823
ET,3168.2923367,3318.83052362
ET,3697.21110933,2334.80294465
EG,1110.4988187,654.723654167
EG,530.584567726,676.049373533
EG,2812.83249197,3916.23878035
EG,2180.02127621,295.626869741
IR,2879.67394939,2905.62260229
MA,5771.92768229,6577.39658788
PK,200.598358573,589.274664721
PK,2496.49216138,450.173669828
PK,1840.29659142,1615.12547692
SN,2334.66279153,2906.73357165
TR,985.417886171,331.373679572
PK,7815.45724343,5437.06588996
PK,2469.2093894,2427.37988798
PK,824.226055181,810.121600849
PK,3018.46643074,992.070810186
PK,4249.52272095,243.607189159
PK,2652.75374159,3162.17244656
PK,2320.09920005,176.556737249
PK,2143.93582117,2375.51867002
PK,7599.73938253,6167.93940012
PK,2489.01313727,273.665580831
PK,3334.68701543,3450.59908932
PK,4962.52891613,768.968590076
PK,2934.66774846,251.517272138
PK,3409.78408726,2225.55340006
PK,4508.78931751,4206.26317513
PK,3612.76523101,371.673558332
PK,2997.86228859,1863.79616545
PK,1902.52302717,344.40012211
PK,3078.24003121,737.34475213
TR,172.253959922,220.642808161
TR,0.0,nan
TR,0.0,nan
TR,1047.24124088,470.761029954
TR,0.0,nan
TR,157.581183044,224.695996114
TR,0.0,nan
TR,0.0,nan
TR,233.962834778,262.773137091
TR,0.0,nan
TR,0.0,nan
TR,0.0,nan
TR,0.0,nan
TR,172.253959922,220.642808161
TR,157.581183044,224.695996114
TR,1292.88550849,893.052020901
TR,361.386300631,424.895022238
TR,732.260445792,1103.85352962
TR,84.7203545151,99.4007890567
TR,0.0,nan
TR,0.0,nan
TR,1189.97087711,891.451633492
TR,0.0,nan
TR,0.0,nan
TR,3437.15743902,4425.41338575
TR,2945.74409606,850.788802474
TR,2262.89197129,3938.13784335
TR,859.649329296,475.22783712
TR,5625.23458172,1255.92732064
TR,11546.1006175,6990.8498284
TR,2538.69421389,3946.78792571
TR,2307.46689469,1701.33534993
TR,4910.60590933,2393.2920078
TR,953.016921198,533.288488577
TR,134.789282904,2309.07183072
TR,0.0,nan
TR,172.253959922,220.642808161
TR,746.137456672,251.948069049
TR,172.253959922,220.642808161
TR,172.253959922,220.642808161
TR,2183.37378996,3846.37562928
TR,172.253959922,220.642808161
TR,971.886877416,1020.88698094
EG,3880.1801701,2672.67384719
EG,1050.50311709,2492.25832192
EG,2778.0147196,2596.56259951
EG,5220.71245006,1692.69466298
EG,1214.21839166,1337.46225559
EG,3715.85398075,224.311374473
EG,6234.51068038,2371.26861159
EG,3346.79936761,4476.34688579
EG,782.147219852,2581.21639124
EG,3348.5873186,4560.7296033
EG,2196.67582991,4066.20503538
EG,7890.00407219,4115.00841977
DZ,7069.87205959,7928.72214064
DZ,1938.46353106,4509.84367779
DZ,2196.88727797,1940.87745677
DZ,3677.03528039,6607.27441311
DZ,536.414115296,1562.53616677
DZ,2346.0607105,2332.27937304
DZ,2365.65453462,2389.20948265
DZ,2023.81169912,2615.84385447
DZ,3455.03434225,6712.32400817
DZ,2512.3024279,1179.02488298
DZ,3604.46659453,3136.03844959
DZ,5131.20149151,5906.10681785
GM,7769.5851957,8547.95948297
GM,5486.35456875,5590.13588485
GM,4197.31233502,7452.74904258
GM,815.901844097,1497.65778558
SN,3850.08247546,7219.02608516
SN,7176.68626892,9497.56630842
SN,9526.52451508,10175.0460113
SN,1267.70178062,2063.11330281
SN,1592.91956401,2695.41136579
SN,5322.99470554,9502.21157605
SN,3341.75990306,2412.2186551
SN,8556.0134627,9803.69336612
SN,7555.57574945,9439.40445633
SN,6070.65690433,5883.98291604
SN,9767.72081708,10792.1913229
SN,4520.27504112,4498.48093659
SN,5673.87767582,5636.26119753
SN,1993.3927606,3847.75165701
SN,3602.65132245,4436.22324725
SN,4975.79948753,4788.65142406
SN,2593.80679131,8365.33823223
SN,2570.80967629,1468.1146012
IN,2041.38046083,1582.49103642
IN,0.0,nan
IN,0.0,nan
IN,5800.66823024,5856.64439903
IN,0.0,nan
IN,8498.7428461,6678.62272484
IN,0.0,nan
IN,5004.35837292,4033.8538905
IN,2466.83570258,782.778780736
IN,6806.90407126,3260.79901426
IN,6537.5754441,3038.28666277
IN,4688.99408812,4713.43126831
IN,2278.59660105,947.959090675
IN,9029.2950587,6659.58804002
IN,1620.05088214,75.1981436124
IN,0.0,nan
IN,143.640102044,107.963544651
ML,7126.43023147,7803.24021668
ML,0.0,nan
ML,0.0,nan
ML,2453.20667739,5971.90267989
ML,647.627778671,784.718522279
ML,1710.21921085,2598.10173809
ML,497.285570003,296.217998482
ML,219.4777148,541.631407689
ML,6471.62040584,8586.48939959
ML,219.4777148,541.631407689
ML,219.4777148,541.631407689
ML,1433.71330132,2928.04236452
ML,0.0,nan
GN,9632.75830923,10522.2563446
GN,4312.97330584,7780.20281708
GN,4123.53388983,5355.62224962
GN,6834.77223145,7828.44329643
GN,8055.14528657,9997.41447064
ML,2800.89936972,4435.04249026
ML,9898.13470523,10729.7437668
ML,6625.85662867,7607.09133138
ML,763.204267592,3073.48934303
ML,6740.52814184,6579.92843965
ML,5224.67014786,7291.51389091
ML,6880.85844361,8932.5389365
KG,2818.53692946,1501.7100091
KG,1548.60603517,1656.92531319
KG,2777.01645206,1523.24981613
KG,1372.84015241,2513.51488141
KG,4513.06398282,4185.65713254
KG,2200.274265,2436.53366499
KG,2746.30863831,772.80315075
KG,2842.70586473,1634.70712013
KG,3885.06035114,3822.21515007
KG,5416.2610119,4999.22930829
KG,0.0,nan
KG,5056.62237448,3543.04148462
KG,770.732959057,1154.24982064
KG,3473.63514375,1604.35709161
KG,1610.36345546,1775.66397815
KG,2323.91203846,2716.01207632
KG,0.0,nan
KG,770.732959057,1154.24982064
KG,2025.35085191,1920.70151262
KG,870.179174751,1340.8943808
KG,0.0,nan
KG,2839.88918353,3659.3648436
KG,770.732959057,1154.24982064
KG,0.0,nan
KG,1610.36345546,1775.66397815
KE,4999.97535102,6080.78237172
KE,6110.39546219,5237.69676867
KE,6539.73431883,5489.05170785
KE,5133.80939805,4479.4421886
KE,2426.1471313,3487.17068103
KE,2737.46999881,3635.95380672
KE,3812.58144894,5544.08813565
KE,7458.40197313,5261.13766724
KE,4420.01532246,3887.50318162
KE,3258.9938008,3604.68842916
KE,2222.59551008,4144.27804631
KE,4673.82687159,5710.75893855
IR,1748.77726784,2649.18329792
IR,1477.10168696,842.350571387
IR,1337.63588465,1930.53800862
IR,8108.01073794,6391.52805623
IR,1744.46149119,816.528648649
IR,2331.2421533,2400.44722432
IR,1199.24919776,1187.82195702
IR,1382.22492127,1454.10290286
IR,1074.23153722,1574.58598945
IR,1362.91828531,1948.14109629
IR,2577.61206419,1528.01670154
IR,3286.40292128,719.592863801
IR,2285.92344153,2325.17679115
IR,3189.27995328,2776.71928518
IR,325.167922455,887.133129181
IR,2601.99813283,3091.73942278
IR,927.226458589,1226.44726181
IR,2560.19056595,2510.42136188
IR,2617.34505325,755.051202332
IR,2059.28622111,2149.49970116
IR,2061.43497883,750.623624289
IT,3239.02211893,5575.82155043
IN,2165.71559957,1518.51341274
IN,3817.37772349,1562.98141062
IT,4918.39608205,6316.24741581
IN,6562.91083235,5786.42783092
BZ,722.023272396,846.483507624
IT,328.543192885,883.77838277
IN,4353.00139357,4658.71238411
IN,5695.93701073,4946.57955576
IT,1169.85732847,5103.1915761
IN,4303.47436467,2354.60351324
IT,3516.54695964,5651.20778671
IN,6603.07604162,2016.97307614
IT,2242.89841567,5441.07601854
IN,7113.66418913,5527.71856474
IT,3321.58829099,5807.29195862
IN,1542.25316523,752.894073833
IT,4099.47163299,5830.41132948
IN,4357.84416405,4682.39394717
IT,1727.3561822,1023.71972098
IT,1354.90045168,2093.76195103
IN,3554.95746806,1465.40811187
IT,8592.02180034,7368.07633159
IT,3258.58930718,1811.74954749
IN,859.649329296,797.442644376
IT,2652.39172307,5423.82843097
IT,4038.76298062,5516.43196754
IN,6498.17576478,5431.07937671
IT,3516.54695964,5651.20778671
IT,2060.34312064,5219.88261588
IN,2712.33322208,2897.50590662
IT,4264.44293934,5871.19558339
IN,2074.64020766,1685.33511898
IT,1570.40164227,1293.83294853
IT,971.157329991,1093.79391373
IN,2494.21589045,2266.76645602
IT,3243.60895039,5440.4520951
IN,4829.36305058,896.037767334
IT,3467.56177725,1343.47885451
IT,3902.11135388,4184.79600015
IN,1370.75325244,708.29204493
IT,3178.05483681,2890.96738653
IT,1784.55450932,1563.51094786
IT,4785.05677794,5680.81781483
IN,1440.38996948,246.641997997
IT,3908.58262977,4004.00815872
IN,0.0,nan
IT,1853.39877775,3330.79548081
IT,1847.0792775,5209.07533532
PK,1393.55799,1078.14879056
IT,689.937713927,595.769515844
PK,6334.2852667,1396.39583731
IT,3596.84631768,5777.24617997
PK,3032.93951245,1281.97545494
IT,886.663728667,961.566612792
IT,1728.38440438,1317.47098511
IN,3287.0714193,946.368273945
IT,2015.62716617,2211.66498215
IT,2175.16941061,2051.3725448
IT,731.851094869,661.303103339
IN,1720.6744117,1008.4883668
IT,1817.56949852,nan
IT,2480.30732792,5272.56688348
IN,5717.6981511,2141.81018178
IT,653.224135926,906.839636221
IT,3376.75478722,1592.73041248
IN,2569.92870363,1650.96427346
IN,5477.91949414,5371.44684989
IN,768.817849333,1109.42022038
IN,1525.76420057,86.7821595316
IN,1924.73094935,1115.82679954
IN,4296.32920464,571.557775487
IN,1004.77215775,643.391581537
IN,2292.82463702,113.676850513
IN,1661.75453035,89.7634354538
IN,3825.08128263,3797.19192822
IN,3784.47257528,697.726536208
IN,5821.65437028,2145.43061053
IN,1628.91283452,250.345062809
IN,11144.2845581,8155.92295495
IN,8133.17792272,5782.60748274
IN,6242.65996739,2869.71372893
IN,4752.89749515,3971.54544983
IN,605.562679373,967.027575603
IN,0.0,nan
IN,859.649329296,797.442644376
IN,0.0,nan
IN,1766.82452289,1073.37852965
IN,605.562679373,967.027575603
ML,5394.54028546,8202.99501536
ML,5967.44795057,7469.45232136
ML,460.392438903,2237.74103993
ML,5107.14666391,5480.60532834
ML,3447.37408376,3966.98213787
ML,8524.70463458,9182.8791197
ML,7850.75662901,8618.99074553
ML,7019.23469793,8958.35507581
ML,3195.99681907,4669.1626134
ML,7528.68729109,8862.33084926
ML,5329.18209969,6501.84427816
ML,5732.80268216,6898.89121251
ML,2366.87151368,3826.29910143
ML,219.4777148,541.631407689
ML,1463.97771486,3484.43862277
ML,3042.25686969,3438.9121989
ML,1463.97771486,3484.43862277
ML,0.0,nan
ML,1353.58293129,3338.11315499
ML,5277.07476609,8453.98912068
ML,219.4777148,541.631407689
ML,219.4777148,541.631407689
ML,4906.1493657,6835.89455109
ML,0.0,nan
ML,848.855459475,2060.63357048
ML,602.269132187,799.394650843
ML,645.964432674,987.638145586
ML,1463.97771486,3484.43862277
ML,0.0,nan
ML,4506.96721285,4909.18060673
ML,1393.70244435,1378.0126365
ML,355.772880996,361.427214519
ML,4137.35076287,5112.0491448
ML,4835.89021858,6741.19946247
ML,4099.36873697,7018.56483592
ML,0.0,nan
KG,2708.9296663,1158.69186584
KZ,7649.61613992,5439.29470788
KZ,5303.80215587,4402.21140487
KZ,4829.75025066,2495.53337813
KZ,5543.90630736,3418.17008418
TJ,8446.31709289,nan
TJ,5151.48837183,2140.82665867
TJ,4119.32486131,4098.69127679
TM,5046.06727097,4790.68070616
TM,5893.93193717,2926.97895139
TM,3062.39621183,2504.95506101
UZ,523.146071091,1126.3947578
UZ,8631.94440989,6734.22241812
UZ,4162.36463094,4115.35604466
UZ,4206.80611688,889.063564306
UZ,5075.47056042,1838.4824286
UZ,5495.08766709,2658.21384106
KE,2682.54775741,4046.64968737
KE,0.0,nan
KE,0.0,nan
KE,0.0,nan
KE,0.0,nan
KE,2032.27244903,2864.31278953
KE,0.0,nan
KE,0.0,nan
KE,0.0,nan
KE,0.0,nan
KE,2698.6553314,3047.62949475
KE,5191.63682771,5685.36400874
KE,0.0,nan
KE,3950.9457547,3237.7406178
KE,1309.22221539,2648.21536762
KE,0.0,nan
KE,0.0,nan
KE,2203.99759563,3791.84258451
KE,4663.9332821,3861.51218918
KE,5182.92340459,5474.24874011
IT,2296.06572444,783.561105059
IT,1807.89360128,1238.75196119
IT,2078.33947499,1115.56949608
IT,1945.85359789,1748.68235668
IT,1812.3614488,5252.19583475
IT,4150.69721001,5882.23392562
IT,2136.65588174,1416.11161506
IT,1345.41339983,507.13560816
IT,562.528491933,892.542593211
IT,2037.12203318,2470.64498755
GR,327.069807286,394.982503318
GR,214.300460504,330.427193158
GR,3197.06266646,3723.78588208
GR,387.350776282,455.589688329
GR,393.181012271,739.851154722
GR,1243.23696067,783.874909135
GR,2658.35073387,2393.78762762
GR,525.147011594,292.265855727
GR,153.231054965,4038.58504864
GR,690.14925694,658.11580194
GR,690.14925694,658.11580194
GR,656.804047147,645.878226388
GR,3387.52431233,4619.33481561
GR,916.050442519,347.52191176
GR,517.555361328,558.746787205
GR,1178.8345487,2409.92218069
GR,1018.76782288,2618.72124308
GR,2644.80956055,4760.6519717
GR,836.95964522,636.727661343
GR,877.059813792,473.207995269
GR,3652.77913026,4953.90380751
GR,111.660284692,934.139993742
GR,344.847855534,443.062793397
GR,916.050442519,347.52191176
GR,163.262227538,320.797137015
GR,344.847855534,443.062793397
GR,2329.38738068,1521.70857724
GR,2223.95185711,2626.67806374
GR,2530.82129983,1464.76526232
GR,3008.81217331,2188.04835614
GR,236.707067075,337.368097856
GR,803.427257803,925.873579612
GR,1725.4597481,1222.02807776
GR,517.555361328,558.746787205
GR,886.967611941,4361.46380634
GR,2358.40584923,2549.08730491
GR,1735.91716832,613.852789317
GR,1062.15327215,1321.48357464
GR,3539.0606081,1345.86504476
GR,1304.65216956,4355.529264
GR,627.956944473,347.613195019
GR,472.165367674,172.183522272
GR,1258.17362353,613.431834632
GR,248.836703544,252.855882978
GR,703.551243299,345.186755982
GR,1057.96702037,508.570675719
BR,10777.8592393,10749.2497689
BR,9462.0538927,12520.144877
BR,6209.90166648,10714.0564328
BR,6240.32639406,13389.4037678
BR,3811.61456769,5714.06869409
BR,4086.42686585,4144.65980099
BR,6289.92652543,8706.26133633
BR,11379.2617708,14492.8958967
BR,2448.7980485,13845.2941697
BR,10139.6787956,10022.3951143
BR,8912.61302918,9551.07725235
BR,3138.8894758,5924.92834385
BR,10777.8592393,10749.2497689
BR,7192.59244587,8765.94749628
BR,5158.7155914,6906.37330157
BR,8038.60478614,9035.78291388
BR,7899.84680306,11965.5616947
BR,8809.55030214,10287.2097561
BR,11048.4788549,14130.2309886
BR,7717.43140973,9471.2681122
BR,11547.7457448,14290.9251644
BR,9074.41457721,12202.2543852
BR,8942.70140062,12176.3722969
BR,17395.3271786,16704.1134315
BR,14118.9910671,15107.9739447
BR,11950.6850234,14204.1109231
BR,11368.8782761,14392.3059864
BR,11728.6814832,14304.7522368
BR,13023.5361746,14849.6777465
BR,10467.4204786,10880.9035824
CV,2577.66942363,4312.09369177
CV,7093.18816351,7488.92943113
CV,5173.2577762,8228.93436872
CV,7322.06849646,7601.1912736
CV,4371.9693477,5243.50203481
CV,4605.26678033,4863.494938
CV,4337.70260435,7636.8437241
CV,6944.79549428,6966.42148206
CV,6302.28177116,10232.37251
CV,4717.82530545,5142.59414754
CV,3973.65883228,4652.29952899
CV,5420.89869948,5330.27304088
CV,8636.15503226,10677.0178322
CV,5481.02651621,8483.3458413
CV,3587.42204186,4679.68205542
CV,4886.46630798,5211.08983397
CV,7643.41425382,10167.6405441
CV,5182.1940587,5489.03413295
CV,7128.8891399,10155.6506693
CV,1952.48620422,4103.02930411
CV,5584.08388539,5530.82174903
CV,9137.61036505,10749.5740396
CV,7987.14061761,8622.98193363
UZ,3593.51409469,927.795627532
CV,7248.06182754,9012.25437298
CV,6757.64477041,6810.84421098
CV,5701.84172085,5380.66893674
CV,2183.04806375,3869.48224027
CV,4063.10873537,7454.74344538
CV,5667.2818854,8924.66459035
CV,9107.89377819,10432.8569955
CV,13897.894515,12342.5312601
CV,5156.69345145,5238.91627638
UZ,3762.9626122,3041.81133769
UZ,2969.11595669,3447.94798547
UZ,935.798557098,1359.63824889
UZ,719.855324062,911.94926566
UZ,2362.28779323,1497.68803931
UZ,2438.65764346,3066.19604943
UZ,1126.39535634,1140.71743698
UZ,2598.64055948,1034.71438946
UZ,2458.57662885,1325.59228352
UZ,2362.28779323,1497.68803931
UZ,3297.12229408,3782.28688225
AU,16334.8393722,12161.8386242
AU,10457.0937141,11244.7456931
AU,6423.12178601,9191.91579955
AU,14561.9646996,18711.0619833
AU,4263.85839581,9857.89837587
AU,12266.7801207,10988.9010195
AU,13906.2789239,11869.0917139
AU,20087.6075151,18516.2093117
AU,14854.317191,12025.4728014
AU,13820.887792,11829.0364546
AU,11253.3404512,11183.6867946
AU,15543.6018267,15129.487793
AU,4404.30658169,10618.5343114
AU,9468.60267214,10270.7722554
JP,5020.65424904,4624.33663142
JP,14045.6507818,11844.0000283
JP,7437.23484139,6306.03575131
JP,5862.62216279,5558.98739684
JP,8016.73175593,8234.69502853
JP,7199.81664151,6173.48112511
JP,12267.183685,12304.3424996
JP,8406.1236409,7799.26614972
JP,11682.9139386,11035.8309405
JP,12143.9307587,10641.3633497
JP,8436.64491335,9306.88485946
JP,6772.87755274,6573.3035072
JP,10692.7295625,9996.0467531
JP,15628.584983,15726.815628
JP,7524.47232544,7237.49651429
JP,6899.80103267,7047.7381967
JP,9396.59517888,8446.92872969
JP,11576.1876504,11294.3293027
JP,8482.89880856,6604.19485443
BZ,5631.78297281,9274.4957829
BZ,6295.64172228,13511.1529658
BZ,6007.10871325,7668.64095903
BZ,12209.6909657,14688.946731
BZ,722.023272396,846.483507624
BZ,3749.58074077,6007.02988283
BZ,12629.8807211,15077.1730546
BZ,3567.46623727,13646.4351673
BZ,2111.22377554,2413.00653403
BZ,12651.7271286,14746.6356987
BZ,3868.63673369,7714.36765241
TZ,3973.77203099,3712.89563594
TZ,3764.17489979,4759.3126885
TZ,1127.35131462,2015.75401583
TZ,4703.81345092,4547.96754478
TZ,5087.81436369,4707.92429797
TZ,2606.3283658,4191.39464647
TZ,1482.32980919,3793.72654893
TZ,1242.62910997,2761.33184522
TZ,2125.00269028,3691.59506237
TZ,7990.16142172,6591.14887036
TZ,1014.86925883,2004.44265593
TZ,3932.87238877,4704.31833482
DZ,2279.22854652,2703.74811833
LB,7702.99944175,2234.29134363
MA,8162.94298694,8730.3332798
MA,2933.7805843,7166.75250996
MA,4464.46787973,7812.34193659
UK,1279.36322613,1534.65965283
UK,2937.69483859,2835.21024862
UK,1370.88747048,4485.17973179
UK,2637.52597161,2651.93769788
UK,723.32304129,766.541799359
UK,3981.36435217,3675.95035732
UK,4185.82099493,2454.53092782
UK,570.940308015,667.301625299
UK,988.840261195,1432.10156633
UK,3153.5407471,2535.70798693
UK,2138.76878023,2692.87842971
GE,1624.69856807,2847.91949523
GE,0.0,nan
GE,2060.25733965,3438.3292938
GE,793.783953107,1011.00691691
GE,424.844308815,600.304352385
GE,868.888765333,2646.25924292
GE,0.0,nan
GE,0.0,nan
GE,1481.2217919,3058.6619767
GE,0.0,nan
GE,1370.75325244,1777.40917254
GE,1370.75325244,1777.40917254
GE,1370.75325244,1777.40917254
GE,118.067369228,466.986339878
GE,1120.6872014,1294.70532834
GE,1852.59764404,2427.96086357
GE,0.0,nan
GE,1352.42006909,3018.73350858
GE,0.0,nan
GE,0.0,nan
GE,3836.26635504,2181.94286725
GE,1083.04355506,1246.38390739
GE,2870.56303861,2338.34491678
GE,369.952727747,1881.38980823
GE,1846.7555412,3215.75658073
GE,2238.69948542,1880.38760381
GE,510.21366972,17.2368234537
GE,554.425704907,1043.06676683
TZ,6232.15873646,6542.96708662
GE,1352.42006909,3018.73350858
TZ,2688.74371522,5793.31317753
TZ,5119.61209674,5455.11860868
TZ,4528.53808919,5136.19700662
TZ,6339.32965151,5582.15753659
TZ,3325.41084051,4701.04025284
TZ,4345.78686398,4593.8511518
TZ,3492.69176115,4284.57882896
KH,4092.09857609,2853.07274047
KH,113.883892279,124.027005915
KH,0.0,nan
KH,1611.40228851,2166.84342442
KH,3788.29728828,3567.4336861
KH,1488.30492707,2167.07676558
KH,2067.227056,2239.55443031
KH,1640.764845,2249.97298511
KH,1956.94700778,2240.26756783
KH,113.883892279,124.027005915
KH,6951.67989582,4525.84752908
KH,6601.79233055,4124.29968717
KH,11568.933312,5747.8237718
KH,6518.4989148,5544.73706457
AM,1792.00580604,2725.55677436
BR,10640.7819164,14593.0874822
CD,4024.1078027,4832.2795389
CI,4957.72151876,8815.10917451
CV,2963.43420125,6933.1343579
DZ,4630.62588422,3816.51266156
DZ,4280.1735274,5503.2176366
DZ,1522.19364197,746.960175822
FI,1363.6669627,4240.95402624
IN,5414.83923321,5376.14258533
IQ,2806.57794264,2370.61203465
IT,2439.71578334,1293.15010361
ML,8861.71648444,9375.85140466
ML,3854.28801768,3978.46879149
ML,4913.28644796,8677.7787897
PK,4679.1370047,4702.70915378
PK,4044.66762303,301.705603591
RO,6053.37373566,2803.53419246
RU,6375.49058375,3796.44624411
SD,4830.26443939,3091.4726017
SN,6793.45085175,7497.25103915
TN,6739.92203276,7413.41354238
TR,721.48292446,344.927742835
CN,7736.36984141,7528.26693793
CO,2898.45500161,13997.9553351
DZ,2610.241312,2270.01195988
DZ,2291.13653257,671.566072849
ES,4566.50853476,1736.2568074
ES,2866.80204326,2839.06623391
ET,1638.19856268,2397.90446155
FR,2549.85245437,2213.48636063
IL,5651.43625502,3886.03721755
IN,1377.26500316,1029.99027285
IN,4577.12881553,921.769520744
IQ,5342.7276422,3207.0007733
ML,6620.23300563,6898.69116197
ML,4110.329022,4311.66657403
MX,10239.1125583,nan
NE,1679.41816277,6470.11682816
NZ,18975.7603502,19461.5405393
SN,3195.17759866,4578.03750764
TR,5784.46921885,3857.40853624
UK,3769.35908551,3637.29850852
US,10644.5866116,10450.6088226
ZA,12676.5400642,10794.2453653
CM,2722.2029856,3662.34387486
CU,5885.29894565,7321.49625208
EG,2996.24215852,2191.32355011
IL,1506.34509459,375.384161228
IN,5065.65811412,4171.61979262
IN,2169.11796977,387.505850882
MT,5021.31769813,5795.70543952
PR,7777.76236111,13175.5033799
AL,1204.9109354,3872.66469515
BA,1206.53823421,4673.13858921
BG,639.657991294,375.247362507
BG,1493.13447266,2628.0104333
HR,2155.8044001,1355.49549846
HR,2463.01663578,1542.96632752
MK,1431.72740661,4645.15655178
MK,6926.98464819,6986.23227453
RO,2368.23677386,3596.25558362
RO,2416.98982818,2280.0245522
RS,3095.90991077,1727.59603381
TR,409.926909504,660.664879551
XK,1307.67231634,1687.71450679
AL,7582.15936993,7229.46313932
AL,1051.65251696,472.566278639
AL,562.796100232,736.923263258
AL,956.943683506,790.376104019
AL,2387.49290052,4646.80003388
AL,2100.73791301,534.828711649
AL,3078.59943193,5050.76323598
AL,909.923870315,1000.62672034
AL,259.883403121,131.505008574
AL,2515.13245985,3670.62518957
AL,4554.96632679,5681.60157092
AL,316.346394534,243.642988845
AL,6069.73233963,4948.95617722
AL,1749.11168076,1090.34878011
AL,3368.05142201,4638.39524935
AL,1787.83901823,849.814110842
AL,1918.84233697,1297.64924576
AL,852.693904118,995.153257797
AL,920.267818876,435.739037939
AL,1172.66558327,nan
EG,2179.29935781,1637.07555887
EG,4050.39629425,1794.56116747
EG,4624.56013212,3039.17292846
EG,5778.52866363,3853.64396003
EG,4480.02227731,1995.39287027
EG,477.002590283,454.398863142
EG,5350.06639146,5795.73548033
EG,2636.96490163,4370.78879828
EG,2089.45406837,4162.28285182
EG,1399.52843238,1422.32219386
EG,2345.88354688,3271.41640025
EG,3408.04182199,3903.10165914
EG,4885.752435,5809.05021934
MM,0.0,nan
MM,0.0,nan
MM,300.438547206,536.959389613
MM,3847.89061942,2335.76680154
MM,3455.39969515,2299.36611763
MM,1216.59781149,451.975791539
MM,4360.66370218,2494.3211934
MM,644.825784353,79.1549657898
MM,0.0,nan
PK,1508.53461226,1034.44810673
PK,6260.91889443,2932.62318036
PK,4685.50663058,4704.21714443
PK,1585.67044689,527.292403807
PK,3558.69341222,4225.75520117
PK,2949.85462921,3376.86672267
PK,2968.95638066,3439.50398655
PK,4717.43436564,673.864006647
PK,4141.63848887,214.116072287
PK,9378.4425487,6478.97884382
PK,614.761002069,1347.42889758
PK,1735.18364799,1120.88989558
LT,0.0,nan
LT,0.0,nan
LT,1181.69294966,4496.00796016
LT,2055.69108589,4100.07773431
LT,0.0,nan
LT,0.0,nan
LT,3726.71745187,2604.71520958
LT,424.844308815,606.764117704
LT,0.0,nan
LT,0.0,nan
LT,535.717661855,4298.50222172
LT,1289.49973964,1256.31244267
LT,1532.12255288,1623.9417036
LT,0.0,nan
LT,0.0,nan
LT,3224.69234954,4974.14297976
LT,0.0,nan
LT,1665.45363978,2618.32726327
LT,0.0,nan
LT,0.0,nan
LT,0.0,nan
LT,2199.64200117,2119.5661797
LT,0.0,nan
LT,3965.54530205,nan
LT,0.0,nan
LT,0.0,nan
LT,1672.91488344,4625.51990407
LT,0.0,nan
TR,6267.20255628,4419.32955458
TR,756.671102692,664.511682577
20087.6075151 0.0 3692.54034163
