lltorc
[-1, -1]
[-2, 0]
[-3, 1]
[-86, -181]
[-86, 179]
[57, -181]
[57, 179]
rctoll
[0, 0]
[-1, 1]
[-2, 2]
[0, 359]
[-142, 0]
[-142, 359]
[-85, 180]
getting data
BG,2679.75394709,1400.56723478
AF,1708.93369296,1149.05218315
BR,11839.1969553,12976.4195072
BR,11040.6783524,10517.6294218
BR,7373.6669331,11003.3888631
BR,9050.13489751,14059.9639105
CU,8453.21036977,10807.381329
CU,12068.7630862,13633.5135162
CV,1235.90478622,2757.53178947
ML,5242.83058467,5577.84037751
TR,154.863515634,1639.21079303
DZ,158.990855849,4722.18801708
EG,892.643012235,3623.25116197
ES,1789.43029218,648.299242065
ES,2577.9585047,2583.18371762
ES,2907.714689,1444.36039838
ET,5010.7143623,4780.30654098
FI,5241.68868731,6009.17393507
GN,1840.55998971,6170.61453543
HR,1131.97039044,4809.44840215
IL,1607.55060508,1235.18546276
IN,10772.4626342,8464.09765042
IQ,4493.42198447,2561.85939241
IR,3072.88260037,3146.95907036
MA,2937.15935001,3059.85721641
ML,1779.34670082,3521.667535
ML,1684.0947016,2360.79572422
ML,1468.95234117,1503.41112952
MX,15229.0682374,15472.4287158
MX,11757.2930093,14469.6640273
NG,2970.60027218,2762.2453593
PE,9442.94150854,13325.9816284
PL,1492.39870886,4762.18558736
PL,1834.10578434,3325.33465737
RU,10181.4246687,9625.03946706
RU,4767.24990207,3028.31393497
SN,587.657713452,2286.69685123
SN,2131.2099275,3216.82161231
TR,2893.50022776,4054.21732422
TR,3365.04910152,3487.02114816
TV,19526.5892787,17951.6571592
UK,3148.19443486,3331.43500729
UK,5285.25214108,6555.43585061
UZ,1771.21546346,1756.14915142
AR,7655.19844317,10078.7062545
BR,10903.7129224,11230.6480886
TR,0.0,0.0
UZ,1456.3016344,1563.03006664
DZ,1929.96141165,366.947103804
UZ,4414.52170098,3971.04565076
DZ,1947.68615361,669.829973183
UZ,3217.46743132,2863.72326716
ES,2661.18841593,3885.41306421
UZ,1024.45735681,1584.75225574
ES,3852.69972738,1440.45372176
UZ,5195.64872261,4192.03349763
GN,2583.14990373,4307.16583551
UZ,5133.32563344,1298.50351666
IS,5482.97371119,6938.91574485
UZ,11955.1128659,6893.37189198
IT,1051.0293254,3388.17124483
UZ,4272.49566015,4023.70964168
ML,0.000100299715996,0.000100299715996
UZ,3702.45187318,2331.15658275
MX,10006.2706591,13829.5367658
UZ,3062.11602505,3007.49314622
RU,4425.3148053,2655.93928828
UZ,2621.66514143,3367.59707186
SN,514.879481191,2578.33421186
UZ,3616.15527708,2192.72746384
TR,1871.85921854,1924.30926203
UZ,3509.53394302,3899.88138358
IN,3870.01490807,2126.91360743
UZ,3203.70346903,2856.14809949
ZA,7856.98539887,7502.80728004
UZ,2502.58807494,1650.55286655
UZ,6875.57857881,4882.43529296
DZ,3299.87693175,4625.98776481
LB,3233.89278131,842.432254745
PK,6835.94925898,4724.49392761
UK,4184.47300104,6049.9766486
UZ,8340.66508916,2369.54619382
RO,3514.08501041,3326.96524538
LT,0.0,0.0
RO,2537.39471793,3701.67445813
LT,0.0,0.0
RO,2299.8023862,3440.12189502
LT,0.0,0.0
RO,2410.2746816,2316.01151662
UK,0.000100299715996,0.000100299715996
RO,2747.96259289,1607.6703609
UK,0.000100299715996,0.000100299715996
RO,1865.20376201,1811.23017806
MA,1750.37722558,4963.65676636
RO,1435.61011496,704.12527206
LT,3706.13960868,2442.16970131
RO,6290.51324124,6643.12334547
UK,0.000100299715996,0.000100299715996
RO,3645.11674343,4897.87404282
UK,0.000100299715996,0.000100299715996
RO,665.151874722,653.644262422
MA,4273.40514655,4347.67622378
RO,6066.64426478,6379.7449478
UK,936.889931938,1868.15560625
RO,3792.00878646,4729.92413509
MA,7337.6921605,8331.76751712
RO,2755.68943851,3123.85935306
UK,0.000100299715996,0.000100299715996
RO,2589.70653626,4615.47024438
MA,2154.9675895,5594.65507035
RO,1028.28541914,1028.28541914
UK,0.000100299715996,0.000100299715996
RO,1512.68487447,3270.76693708
UK,0.000100299715996,0.000100299715996
DZ,4462.03130961,2876.2232511
MA,4331.53516799,4473.0480051
DZ,1775.04083995,352.839872565
MA,2990.5399101,5957.21325064
DZ,3561.85695383,3072.94506918
MA,6170.76474747,7710.43135587
DZ,1390.35749594,2442.10041749
MA,5642.00175944,7296.80507875
DZ,3562.25952061,3595.16858152
ET,4324.41577474,4650.72849731
DZ,1799.39075441,3233.82184203
ET,2405.78348808,2782.17014332
DZ,2776.54875673,2342.76583833
ET,3715.21039268,3641.45684806
DZ,2297.49502275,5288.83648515
ET,6034.64566534,6097.28419638
DZ,1165.01759531,5397.30472512
UK,0.000100299715996,0.000100299715996
DZ,4811.18550207,4410.12481525
ET,3609.4854179,4875.16367444
DZ,3194.10441901,2812.71327828
ET,2046.89698563,2930.53456518
DZ,4924.11877692,6718.73680399
ET,6262.68884773,5975.54767986
DZ,4979.48652435,1770.38975231
UK,0.000100299715996,0.000100299715996
TR,1333.83327814,3929.82301424
ET,2814.29001325,3351.52960283
TR,2179.23608916,2503.54058228
ET,2710.17660184,3232.32144961
TR,5610.94502173,704.540515405
UK,0.000100299715996,0.000100299715996
TR,1673.52567789,1306.90872101
ET,4253.96987812,3721.96611019
TR,1335.40391188,2817.51489536
UK,316.31033123,615.693385675
TR,780.103175628,1995.28835068
ET,4824.64030158,3551.37687659
TR,1542.08770992,1191.02385578
ET,2898.18205046,3712.8658392
TR,6969.55229308,707.798286768
ET,3210.80710015,2903.94444644
TR,244.970603629,2218.47249927
UK,0.000100299715996,0.000100299715996
TR,2684.32953757,2343.13845495
ET,3436.7340748,3262.36936965
MM,7045.95584224,6292.22661817
MM,3431.27322996,2251.53277033
MM,1582.70145072,594.689610929
MM,1214.06953597,465.539171323
MM,0.000100299715996,0.0
MM,1214.06953597,465.539171323
MM,0.000100299715996,0.0
MM,13768.207911,8493.0913268
MM,473.113110798,658.316271775
MM,4591.42335382,2685.43226804
MM,2814.13257566,1621.17182522
MM,3314.75146503,2722.54404895
MM,2959.69766565,1546.41792537
MM,2954.11401988,1440.20837388
MM,0.000100299715996,0.0
MM,2548.29024582,1543.2819533
TH,7589.36872083,6196.02123282
TH,7906.86148989,7255.44808659
TH,3610.45171304,3106.73480226
TH,4157.16239085,3155.85700192
TH,6381.17535491,4233.95160778
TH,10108.2653248,5964.24668056
TH,5188.23099703,4012.5663095
TH,9502.25157968,4764.85748615
TH,2892.65123385,2293.18833024
TH,5777.83660407,5030.81785766
TH,7418.76262491,5971.85669136
TH,3618.76950311,2840.42975136
TH,5823.56726799,4023.37623433
TH,8945.77980722,8745.15538457
TH,3655.68560489,2750.97577711
TH,494.243678665,907.927735279
TH,7090.25768374,3467.6971802
TH,9672.29342668,9202.29394634
TH,4391.04479681,3153.1709379
TH,3370.77091913,2242.44695048
TH,6180.59658478,3862.97745705
TH,8489.57846969,5535.09973856
TH,3829.40859394,2589.45794975
TH,5347.7322488,3261.98145089
TH,4118.92923238,2948.15228182
TH,1382.53496315,1805.27743463
TH,1640.63007594,1725.50332084
CN,4510.67648157,3598.2948711
CN,7461.43938788,7145.49755783
CN,3440.68203922,2848.68992029
CN,4797.27157567,4559.55405834
CN,4540.23360245,3563.54618394
CN,4032.80141856,3513.14591979
CN,4157.82858854,3384.15886847
CN,10108.4634062,7044.96626111
CN,4406.37625805,3995.21682049
CN,4485.5823624,3592.83851156
CN,3184.55969465,2744.1870132
CN,2970.89686453,2505.40787681
CN,7130.2837596,5624.29606242
CN,6160.6402739,5183.19697013
CN,6827.49727146,4251.45746358
CN,5663.64191314,5017.48132299
CN,10688.5648983,7157.72898989
CN,6533.40290968,4237.86520379
CN,5984.0359702,4676.19827429
CN,8430.59677236,4455.82101853
CN,4541.06818888,3580.64642397
CN,6059.00789894,4865.34082232
CN,4809.71076839,3746.92307423
CN,6800.85301061,5204.74425458
CN,8355.62417679,6103.94719372
CN,6094.7434239,6608.29320631
CN,6702.41445177,5881.65986488
CN,7892.78814559,6252.9583683
CN,8642.16373496,8475.73615914
CN,4241.41834506,3288.3403705
CN,8507.45806703,4674.83483815
CN,8248.03873635,4491.5833685
CN,7447.54743172,6157.82038755
CN,9302.7834546,7470.42615455
CN,7676.42139755,4192.62823947
CN,6731.01682613,6721.33681447
CN,6051.53546928,4257.19570815
CN,6873.4102252,5631.6690478
CN,7364.30079649,6881.1657972
TW,6467.53128346,5832.5372004
TW,5713.21144196,4625.18323049
TW,1360.0459433,2552.87977664
TW,3482.21514673,3469.70547971
TW,0.0,0.0
TW,1360.0459433,2552.87977664
TW,0.0,0.0
TW,0.0,0.0
TW,0.0,0.0
TW,0.0,0.0
TW,0.0,0.0
TW,0.0,0.0
TW,0.0,0.0
TW,0.0,0.0
TW,0.0,0.0
TW,0.0,0.0
TW,0.0,0.0
TW,0.0,0.0
TW,0.0,0.0
TW,0.0,0.0
TW,0.0,0.0
TW,0.0,0.0
TW,0.0,0.0
TW,7930.29733009,5401.2150597
TW,3825.44897958,3577.55774606
ID,4018.12358632,4521.43650893
ID,9350.73054509,7599.44461715
ID,9594.30011012,6382.59544638
ID,10657.2958317,6766.50742846
ID,8998.08409309,9209.57716763
ID,8855.66821558,9227.46749469
ID,8281.55892207,8137.31054178
ID,4609.81508049,4020.00165699
ID,7314.89196607,5820.17914329
ID,7680.94119819,7350.2515522
ID,10250.7596355,6365.79191766
ID,10955.381408,10912.1474895
ID,7985.17115649,7135.64320125
ID,10101.0770153,10654.2501114
ID,11286.0349344,8609.17666888
ID,10337.9609347,9359.95741852
ID,10279.1730556,10509.9751909
ID,9285.10027378,6202.08357414
ID,10503.3379719,7734.46608495
ID,4473.94139162,4214.63118863
ID,9852.35720484,7798.75816256
ID,10901.389998,9404.09112957
ID,4061.97507939,5184.88600396
ID,11356.2162717,9499.00549311
ID,7135.14335998,5573.12433011
JM,2050.53345958,1504.38545302
JM,1043.27339557,112.677261557
JM,8398.51877609,11321.3332871
[[18.116550548276201, -77.187396969885]]
