getting data
24521.16
BG,2343.30795609,2018.04928024
AF,1793.08343433,1083.51940322
BR,12563.0560787,14697.0853269
BR,9756.45113694,9926.60098843
BR,7039.85120097,10325.1810969
BR,13186.8769089,14514.2684446
CU,7434.57735279,9183.07662935
CU,10100.5022474,13288.4770216
CV,4194.22768796,7579.80819224
ML,4274.82501181,4985.89476362
TR,430.919396454,426.211859478
DZ,933.305279926,5699.87600864
EG,2450.54889478,1807.51587386
ES,2966.46194248,916.81597856
ES,2810.0606492,2624.9620503
ES,1950.03394275,68.6980555376
ET,6154.9059464,3864.43839327
FI,4925.10415901,5582.95690717
GN,1915.68677662,2338.36647815
HR,1499.90570727,4173.10709991
IL,3383.2656746,1386.10515186
IN,5375.20726699,2818.32992027
IQ,3299.91321231,2076.33258528
IR,849.763818005,936.71127966
MA,1680.09248665,5256.06255854
ML,293.366415741,2398.738649
ML,1244.29852244,2423.62077226
ML,6139.0836094,8872.87094122
MX,14364.5065245,13636.1461297
MX,12035.0438797,14431.8443162
NG,3050.62620815,2914.93155262
PE,7878.41051014,10597.3228382
PL,2146.73810781,4623.0581151
PL,3366.86641027,5338.02233151
RU,7303.21512619,4742.94459764
RU,2773.53547515,2695.94632503
SN,1519.33905687,3365.97209782
SN,2370.04443193,5850.1744632
TR,3019.8219657,1634.51684358
TR,2526.00741139,3489.4392805
TV,18597.9070845,17463.1891761
UK,4139.00641902,6166.54519903
UK,6791.96974023,7148.92672213
UZ,4991.86154468,4451.89443756
AR,9983.28704763,13969.0420509
BR,9139.91091409,10862.0523946
TR,614.44540511,832.068474217
UZ,2604.01766843,1167.59064711
DZ,1436.22543315,3802.14278209
UZ,3482.36106389,1260.07206083
DZ,1002.2279035,1548.86341554
UZ,1742.59375838,1592.04633235
ES,1925.8993289,4691.75882067
UZ,2107.31861792,1617.24368185
ES,3681.70570379,2717.72905083
UZ,4457.34543644,4028.08828199
GN,3480.95040683,4451.7600349
UZ,3795.27955752,746.214452627
IS,6886.89455251,7961.00111574
UZ,5644.50291111,2354.58092977
IT,3036.69867076,1423.89383584
UZ,3792.7130303,654.789646926
ML,1464.56163943,3363.83535565
UZ,4343.88871336,4018.40884132
MX,11164.807011,14204.0239762
UZ,3220.59466153,1203.67854435
RU,6956.85651973,4418.78885493
UZ,2926.16602353,3476.35856749
SN,840.259915134,2241.18279484
UZ,1593.81520506,1306.91433474
TR,2386.01654624,870.364717217
UZ,3750.52956805,3056.39983198
IN,2720.87700055,1202.85744868
UZ,2050.94085364,1129.26047209
ZA,8312.67988038,7593.36949906
UZ,3425.66558123,616.471592123
UZ,3159.90185994,1735.6516206
DZ,5097.69642201,6912.73538883
LB,749.747488585,3310.93978917
PK,6624.36459276,3868.66000023
UK,5099.31642343,6856.79985381
UZ,5119.92750973,661.979393061
RO,1894.22976053,3284.85661402
LT,1286.2444894,2090.91833158
RO,2233.94246265,3258.20432361
LT,521.51090594,861.900700877
RO,3570.6605025,4342.796386
LT,855.113311552,2545.68961237
RO,1222.84158923,883.850347532
UK,0.0,0.0
RO,1978.3393764,4578.65568683
UK,0.0,0.0
RO,1748.48080353,1640.4170909
MA,4939.61936067,5341.27921782
RO,1169.65150565,2276.62293378
LT,2178.0467611,3765.24215984
RO,7027.79071951,6599.02998555
UK,441.549419946,1069.43145743
RO,1976.21499223,2693.88858011
UK,0.0,0.0
RO,2295.5882498,3408.26392341
MA,2806.62950529,6881.49962481
RO,2715.95006144,4439.74107923
UK,242.820465345,903.335855152
RO,3635.209243,4212.16282609
MA,7139.48728514,8253.6731281
RO,3594.60623489,2153.25143195
UK,830.889889073,5608.92787091
RO,1255.59923792,3228.14656382
MA,487.738875859,3967.05475381
RO,1028.28541914,1028.28541914
UK,837.367525725,5585.87020924
RO,3335.33622475,4286.20035008
UK,1741.6721029,5913.67764811
DZ,2743.27773503,5344.85003895
MA,6875.7737888,7869.35752418
DZ,1172.25629309,3062.5054892
MA,1446.93762524,4602.55203083
DZ,4872.6488797,6179.2154512
MA,5857.74929139,7693.42035893
DZ,1105.15142139,4209.89016674
MA,4319.14976528,5907.28603345
DZ,2795.89159636,3179.44922991
ET,2530.55079006,3088.84440155
DZ,3859.68173496,5280.67286613
ET,2022.10379116,2661.56945642
DZ,2161.76866869,2092.95333119
ET,3196.92031275,3303.84502016
DZ,6308.38456633,6474.83583949
ET,4917.48364574,2785.2744985
DZ,4207.17111704,5022.15709159
UK,828.306860382,5275.44268408
DZ,1998.08275495,4598.63629042
ET,2468.47125601,3830.76919427
DZ,3749.21005033,6648.10345594
ET,3106.75993301,2732.87586702
DZ,1367.40305406,5668.59043026
ET,5516.38195954,6104.85872774
DZ,3168.4121433,6693.06003833
UK,0.0,0.0
TR,1783.9939844,4018.54073688
ET,3199.84221001,3079.28727121
TR,156.082795118,2263.16324346
ET,2958.24869562,3068.9547961
TR,220.026584752,3486.4904559
UK,242.820465345,903.335855152
TR,882.522645812,3067.90307743
ET,4191.75200093,3138.88784703
TR,1865.45878517,1921.05839425
UK,869.529003898,1282.74262949
TR,2701.42614548,1258.82085166
ET,914.48274148,3023.98922871
TR,1066.61310665,561.878466557
ET,2309.93090444,3261.87405552
TR,4255.22053419,2394.07327068
ET,3431.24352744,3127.4791705
TR,451.922456304,949.384143525
UK,0.0,0.0
TR,1541.33189111,840.90299651
ET,3526.03000394,2819.4373117
MM,9229.18377909,4986.32160011
MM,6569.49138652,4404.12909129
MM,4533.18825728,3280.6490983
MM,1817.92448281,1726.30652168
MM,1639.00769453,2125.75813114
MM,2454.1401737,1748.92324934
MM,1592.68651881,2144.62637652
MM,3773.0548054,2287.86830117
MM,4487.72151177,2918.44876789
MM,4280.50938224,2415.83545648
MM,1722.40967503,1626.79498872
MM,5691.57015482,2687.7808802
MM,3097.30194611,2034.08009646
MM,3943.79472848,2325.10954739
MM,651.572970387,478.523026535
MM,7880.94515971,3632.26258067
TH,7104.31587143,5414.52963053
TH,7598.1356908,8230.88362529
TH,2839.07483967,3054.45660034
TH,4895.91391536,3212.89646565
TH,3940.95099901,3144.03750097
TH,9632.96071566,5179.30133881
TH,7379.65459553,7054.91778657
TH,6330.49922248,3417.83798978
TH,4018.53385534,3100.31542869
TH,3075.93543304,2959.01198886
TH,8243.4076666,4240.81753119
TH,997.900217929,2816.11694334
TH,4371.11491154,3128.90517442
TH,9660.16208555,6218.81156861
TH,3947.21701851,2823.05421173
TH,286.14938074,810.299636021
TH,7243.97051414,3700.1489497
TH,9184.02499673,5857.2311367
TH,1590.92091337,2866.28581761
TH,2148.9014252,1746.32647951
TH,5365.97966651,3719.70638478
TH,5806.95127048,4049.8134745
TH,5664.39048201,3625.96043552
TH,1763.75420614,2943.23404621
TH,4352.02062441,3155.74289192
TH,1613.75684838,2109.28106057
TH,1759.06619501,1745.13104741
CN,5770.25571723,4037.50544209
CN,6222.98315751,6085.28118848
CN,4255.33834254,3644.29203968
CN,3906.92737047,3129.28274314
CN,5334.55867265,3836.61036204
CN,3048.52180086,3516.17949385
CN,6809.75012156,4005.19685203
CN,7126.34008455,6055.43600095
CN,6083.49538448,4005.86764953
CN,7703.93259047,5344.64980643
CN,3940.25124837,3568.58725143
CN,4833.41719123,3649.04591154
CN,2556.93811281,2898.00809535
CN,8320.89270691,7522.10771282
CN,4444.48080055,3369.87266355
CN,10915.0538168,7651.73349354
CN,8165.90021801,4242.88759454
CN,9092.33440163,7499.01324237
CN,5952.96480891,4120.06374856
CN,6492.78467009,3926.82421524
CN,4018.09971613,3678.26090456
CN,6668.74095122,5530.32897056
CN,5876.49580732,3960.47724182
CN,7122.24790119,3968.89709029
CN,3887.01982818,3137.97645619
CN,8263.43483784,8195.60645224
CN,9306.81560126,6500.89606097
CN,6726.04821077,4183.45235395
CN,5763.65941189,5237.48955005
CN,3822.76150412,3143.52412313
CN,7216.93700871,6960.95927063
CN,5442.87699619,3979.48086679
CN,6339.85449863,4313.23091306
CN,9565.11656396,7528.97336727
CN,5771.68491117,5101.90517872
CN,5633.49443227,4081.47006093
CN,8116.15274742,4107.34444007
CN,6517.22269775,5414.59445407
CN,5841.70904872,4440.75651366
TW,6141.96427478,5508.74664423
TW,3097.11808786,3453.0464679
TW,2408.60142248,2660.62341923
TW,5480.88985394,4605.62840454
TW,1527.80852104,2564.51467639
TW,2408.60142248,2660.62341923
TW,825.652026389,3171.30073003
TW,2931.87506725,4380.38893288
TW,0.0,0.0
TW,721.288217337,2468.30726711
TW,1850.02517556,3884.13009591
TW,1527.80852104,2564.51467639
TW,721.288217337,2468.30726711
TW,12659.7067101,10824.1120132
TW,0.0,0.0
TW,1652.5936483,3137.38360264
TW,1753.60460466,3325.09531477
TW,825.652026389,3171.30073003
TW,721.288217337,2468.30726711
TW,1662.88251528,4403.18122523
TW,1139.18282471,4824.85274167
TW,833.899940402,3321.39141664
TW,1355.45893457,4413.70168332
TW,4467.38965726,3721.09889375
TW,3397.65484482,3271.51548986
ID,4131.84866648,5263.26577884
ID,7652.30424572,6433.33813279
ID,10706.1390666,6782.16507329
ID,9451.90519997,6539.79355061
ID,9729.41463285,6254.30734139
ID,7195.90418867,6085.40544895
ID,7751.97582801,5970.60263208
ID,7480.46259042,5874.95812079
ID,7910.81148414,5981.93342933
ID,4809.83679442,4155.80217192
ID,11965.1097282,8003.30562441
ID,10786.4686018,6670.5559308
ID,10794.3566212,10820.6836053
ID,10217.9553528,9105.92681158
ID,9271.17269658,6132.06011817
ID,10498.4430401,9505.91733774
ID,10535.8874747,7086.6901194
ID,6714.10962137,6096.90326414
ID,9423.51164104,5947.42993972
ID,4185.84566774,4188.61772526
ID,9661.63194909,6209.6522035
ID,7317.1795373,5872.34912399
ID,3275.36160555,4042.07360773
ID,9755.88995661,6116.08132601
ID,5770.64357456,5446.02775802
JM,2950.24932249,6260.56545804
JM,810.449275757,6494.54505218
JM,3087.99508941,1946.90204216
JM,1976.67404482,1980.509565
JM,5549.35098904,6586.17916357
JM,1520.15210281,1278.31646779
JM,4950.7317572,6282.30196761
JM,1491.74019598,1201.78890081
JM,1499.11460147,1223.09297593
JM,3904.43119968,6456.81412579
JM,3620.16603377,6349.84334012
JM,2810.51096995,1825.5918798
JM,1341.7051694,1205.47114174
JM,11358.7669563,13487.5287162
JM,771.986800857,1249.87812173
JM,5614.55049234,6769.09387546
JM,10572.4816759,10019.1401369
JM,7099.10160397,9180.94308828
JM,2825.4288304,6614.45315925
JM,4660.80113508,6369.92809086
JM,9648.65949845,13589.698196
JM,5297.85134684,6193.13981266
PK,333.523914614,641.323840777
PK,3372.62928197,1332.39259006
PK,2422.36566777,1740.79519314
PK,3461.12670055,3213.29344901
PK,3365.15443618,1672.85401505
PK,3275.99791033,65.2207442757
PK,3968.23559534,218.355331991
MA,4215.48563282,4353.68094815
MA,1997.03141944,2201.28884789
MA,1871.4086975,1374.5626077
MA,1320.26543376,3693.12607736
MA,619.889152118,2205.37631244
MA,1031.99371184,666.805443275
MA,3397.76159172,4669.3676475
MA,1015.33938564,3823.7405974
MA,2674.56815186,2658.22559983
MA,1687.48066268,1738.58288514
MA,1320.12156777,3960.81321507
MA,3241.42215935,7288.32017659
MA,3648.99127942,4167.34135525
MA,1751.66141523,1714.66610087
MA,1314.19204176,2130.86903963
MA,837.668294845,6129.8012118
MA,1173.68986977,1685.70430242
UK,0.0,0.0
UK,348.788067253,1272.80266232
UK,459.512504832,1066.63415236
UK,0.0,0.0
UK,0.0,0.0
MA,3579.6366995,7447.42972975
MA,2669.25386956,6482.62940424
MA,7613.95884179,8652.57969993
ET,4128.58304285,2472.72892422
ET,389.527955872,1881.17182157
ET,3528.24326431,3354.22927842
ET,7671.26187943,7056.31802611
ET,1302.36244957,3620.03625995
ET,2927.61856383,3437.26303824
ET,967.446526016,2202.62339592
ET,2099.91727467,2901.59499656
ET,3606.09869231,2344.00210847
ET,3440.25003943,4712.29435922
ET,2686.31935688,2931.92600813
ET,8770.36977368,4336.50381138
ET,3746.07686003,3415.38668501
ET,3583.16897633,2216.02042107
EG,2529.28152093,2746.89799049
EG,942.787377538,4040.75798025
EG,4003.7089881,4671.75944271
EG,959.785897741,3522.29075378
IR,3473.63403687,3073.49036484
MA,2820.69687307,4252.76590798
PK,538.655133307,709.191157178
PK,1467.61091416,719.039112787
PK,2151.17562856,1254.8046542
SN,8817.9478569,9513.19040361
TR,1533.85800092,1074.56315808
PK,4111.49512548,2329.03321512
PK,3093.87705541,260.867937793
PK,327.936751993,826.222402633
PK,3260.25700808,233.446463575
PK,1550.80186386,610.393994414
PK,1970.8669525,392.632809498
PK,185.665177468,647.01137509
PK,2487.75791569,2442.26253294
PK,9638.31438138,7296.24683225
PK,7055.54173416,3201.74685891
PK,9137.18207421,7302.51868635
PK,4917.4105096,750.077157542
PK,4724.57864812,593.416434232
PK,3103.12994795,1813.41140292
PK,3783.7513062,3353.58734719
PK,2984.89358337,227.588919761
PK,1505.64613063,583.295206804
PK,533.680997184,678.593375747
PK,2122.08539641,305.538199013
TR,409.876459977,373.228979159
TR,0.0,0.0
TR,527.079853886,538.314870496
TR,823.848939458,3775.79061629
TR,1149.49371849,779.421397402
TR,113.946619907,136.159232145
TR,204.7004094,271.446672699
TR,113.946619907,136.159232145
TR,307.252670433,365.548124452
TR,0.0,0.0
TR,766.363070206,599.19345363
TR,228.123327412,274.142013621
TR,0.0,0.0
TR,102.267141247,142.893421538
TR,454.357911514,1020.13676245
TR,1497.99845797,1134.65737288
TR,1202.01603597,1420.11680707
TR,2661.19535737,1159.28745537
TR,3025.50327913,977.789155156
TR,102.267141247,142.893421538
TR,910.813301109,685.412125188
TR,1982.3984127,1893.03837092
TR,2494.57133547,1447.69557371
TR,4581.60489113,2229.96375897
TR,705.305743839,2510.27754116
TR,1660.85080135,3873.29562327
TR,917.434706453,3822.03385274
TR,2555.30245374,3802.66830713
TR,1126.22981577,3858.83177267
TR,8663.7924735,3948.52873704
TR,2462.96757457,4297.85382378
TR,1229.36676052,3251.15205788
TR,1974.82352371,4064.02884276
TR,620.466972441,3745.68445232
TR,750.11847006,2390.10750829
TR,2447.64843335,2026.75257566
TR,2737.73372334,2008.0063643
TR,993.763008195,3248.80789494
TR,474.728892884,2553.1750109
TR,336.42658659,2582.56547055
TR,2548.92331689,3379.31247645
TR,170.50988485,568.688076051
TR,2216.07344288,1289.23179506
EG,2139.81264924,3826.2248217
EG,785.1138835,3157.27341587
EG,2150.4918534,2092.40308876
EG,1367.65461938,3351.42690087
EG,1219.70640135,625.338368764
EG,5554.66133546,3826.3381468
EG,3155.23279012,4348.18615292
EG,2921.69490965,2837.64881933
EG,1328.38639135,4381.94953879
EG,1460.07901103,3837.91628203
EG,3684.87682503,4472.42390428
EG,3228.99320076,928.018632039
DZ,2985.14291217,6429.0995879
DZ,1613.96702069,4894.8403668
DZ,4078.1775611,3694.84648221
DZ,1081.79355932,1733.72086176
DZ,4031.64751599,6703.8926131
DZ,2272.70179969,3448.32617615
DZ,5163.88378618,6919.6104611
DZ,2648.53197433,6120.91292906
DZ,3191.21518114,874.03076837
DZ,800.148370714,4119.48870557
DZ,2267.79052437,2471.50660869
DZ,5775.88818106,7067.31171211
GM,6412.99545911,7807.04287543
GM,5131.08269696,5889.18467827
GM,4676.89967803,7614.6704426
GM,3982.11579213,8480.00720451
SN,3396.06533225,4742.87386991
SN,6513.920086,9280.63294169
SN,10016.8544514,10132.7189313
SN,3476.49247415,8348.08817642
SN,2309.55844041,6180.56566669
SN,5760.76415241,7493.08986838
SN,7055.62850994,9658.6161579
SN,6450.36599262,8149.01291798
SN,10436.5743745,10202.3193231
SN,3798.63389232,4320.28609102
SN,1842.91203971,3983.48567595
SN,2497.70030527,4179.4417672
SN,3107.01126968,4835.43638263
SN,2469.05461337,6280.58106026
SN,889.835165417,1563.22641584
SN,742.025308659,2113.94844124
SN,1995.55519406,3392.06928994
SN,2032.77987793,1729.89170868
IN,1224.38220401,688.579070071
IN,410.492642014,66.2565502287
IN,646.325060503,811.869288839
IN,5042.68802033,1304.26292344
IN,748.922335314,614.686439362
IN,7051.04318248,3592.90301659
IN,268.093180493,1114.57800237
IN,4681.64924088,2732.76426343
IN,1877.63104601,1446.04540335
IN,7310.08215461,3635.83569005
IN,5870.6204017,1888.66578312
IN,1365.97955671,799.90468967
IN,9020.65905201,7051.1894007
IN,568.205512618,786.384084186
IN,144.94181235,142.04903659
IN,555.179912501,119.5782505
ML,7541.89468601,7935.34435042
ML,520.499170231,2658.55825261
ML,513.214615471,499.019845171
ML,3225.21770187,5007.35269242
ML,429.769445194,504.415313005
ML,2770.849472,3922.45441255
ML,4416.34310503,7084.29360841
ML,1166.93714989,4280.34919428
ML,3971.80686263,8004.41145151
ML,1145.45662188,2131.34064124
ML,961.849202107,2379.64761856
ML,2545.82530822,6233.97632175
ML,1004.33966539,1956.86799518
GN,5482.29719158,8877.99816371
GN,5941.31678515,9411.29084616
GN,4391.65022755,6003.14637994
GN,5332.74156479,7802.92300189
GN,6204.24564392,7841.07330994
ML,4342.75296765,6810.81423754
ML,8168.38257268,9164.04424982
ML,3149.91972478,7413.13022883
ML,2490.19372909,8446.84357657
ML,4038.14854629,4360.15603581
ML,7229.00987294,8755.31684452
ML,3458.38760085,6891.11936892
KG,3249.9743605,1174.1706964
KG,2158.95577058,2212.7279831
KG,1927.11960409,1193.79459165
KG,1556.38763885,2629.07838957
KG,4106.18666484,2413.36349889
KG,2728.06804917,1660.26287901
KG,3892.87584368,636.212514716
KG,4254.93470621,2537.62669029
KG,2701.40858093,1925.73564847
KG,4564.00982186,1589.16096363
KG,841.397652109,1132.90272752
KG,3792.42753675,1178.7492885
KG,2173.96840997,1142.08020477
KG,2656.01179592,1362.89412914
KG,2202.18107887,2025.29777343
KG,3134.52218124,2149.89216807
KG,632.366054865,1366.01057873
KG,436.114651278,1142.39741237
KG,2391.58240706,1032.86588237
KG,1033.23569362,844.161349873
KG,1367.68206043,1459.7257063
KG,4292.26214009,3724.83608997
KG,822.918639081,1020.86449272
KG,632.366054865,1366.01057873
KG,2201.3564333,1147.6140145
KE,4903.89631649,5725.81043792
KE,4162.7870218,5664.62210992
KE,6416.8597109,5193.04339328
KE,4616.59624866,4246.28119122
KE,3988.26978815,5571.25984439
KE,4460.44041197,4246.63422371
KE,4406.60157227,5255.18768441
KE,4938.31492516,5413.71693521
KE,3470.20779243,5231.51605942
KE,3181.75894949,3191.26188474
KE,2896.1648331,5014.47822162
KE,5214.99376333,5827.92845025
IR,2102.2530897,2601.74488798
IR,1933.92739684,840.728272656
IR,511.245966868,1289.45307343
IR,5711.66849878,914.153293101
IR,3038.96671008,749.152762882
IR,3262.6435692,2933.30156351
IR,2728.6751873,3501.91889164
IR,2689.60665481,1661.54597992
IR,2779.93769275,1416.35862437
IR,2359.66355872,849.203326962
IR,651.181668931,2078.89316039
IR,2640.83314515,1484.9247535
IR,2267.69311766,972.235510121
IR,4119.59910303,2519.8104569
IR,2984.7636771,2461.7491165
IR,2222.98628924,3097.24745936
IR,1429.40982844,2734.84073759
IR,2402.08165677,3441.0591452
IR,2511.28087186,1770.90126769
IR,559.642953245,2258.14668337
IR,408.228350193,261.280411163
IT,2070.44540396,3811.12815043
IN,4867.56460135,3083.01502237
IN,3092.1622726,1411.03601394
IT,3244.13553202,5527.51112402
IN,10876.4949579,9037.30580967
BZ,2211.01216915,7783.30488722
IT,2774.12016112,5837.30788807
IN,5520.33592962,1625.51604268
IN,5156.60720747,1509.00123635
IT,1435.9234184,734.730751429
IN,5497.19265398,1657.63833609
IT,1288.21455124,4752.97290808
IN,5929.04597387,1915.25276425
IT,3393.6834943,3560.85300967
IN,6435.99374645,2050.11780188
IT,1718.54276774,1240.60350923
IN,5243.17130815,1679.95641649
IT,2490.57906095,5373.2409328
IN,6167.73596035,2153.26255538
IT,4768.399403,1996.59582811
AL,6378.5965928,7009.6476389
IT,1162.32515595,2268.85893362
IN,1034.97744954,783.771472891
IT,2238.14267313,4061.2953627
AL,2729.19288831,1326.63012242
IT,1206.95646561,2390.0777417
IN,2050.25802154,1022.38824468
IT,1400.21383711,5266.53750242
AL,740.759615323,4396.83075586
IT,4834.26218521,6188.01253375
IN,4795.66055434,2939.78262983
IT,6139.21933599,7187.31918735
AL,2217.8298205,5092.02400405
IT,1180.77896981,4951.79990155
IN,2782.81457105,1848.0991511
AL,877.149475333,4540.0286418
IT,3248.47486128,5676.38376868
IN,1421.14785243,787.713055227
IT,1614.22893375,2344.73644965
AL,3026.59653649,3340.14753086
IT,2210.03253929,5629.36714377
IN,3206.14839309,1891.57829844
IT,3305.32240241,5533.77621874
IN,6526.82520208,2694.6297307
IT,2031.59336734,4465.20929443
AL,3533.59009834,5077.96863723
IT,3465.92996854,5742.16210261
IN,1808.58516771,916.107020626
IT,2519.06095453,1402.57799885
AL,1551.94643493,4659.20169651
IT,2246.4577281,5596.78430053
AL,2225.58302262,3089.86537338
IT,5223.37622997,5941.3204128
IN,648.544672648,728.202510583
IT,2232.0931114,3741.27806811
IN,647.67795738,391.759868379
IT,6711.35468712,7480.81401701
AL,1123.78019397,3357.75430136
IT,1094.94713632,5117.13893606
PK,1101.05623648,374.295176939
IT,1351.57180467,2467.60876046
PK,5449.83570975,2176.13566866
IT,5472.47008924,6262.17663242
PK,5974.6100952,1227.62075104
IT,924.346692064,4048.18338134
BR,5639.31146121,8005.81190173
IT,1044.57394259,4426.76092791
IN,6475.24284126,2091.54544189
IT,1162.35429776,4798.68202485
AL,4418.43319874,5425.29384509
IT,2406.10569799,2516.29331323
AL,1713.272898,4585.67785915
IT,517.628028582,947.864458688
IN,2019.99100835,990.831158273
IT,1590.80121576,1674.13473463
IT,1364.5210015,5272.85436061
IN,4659.55305163,1413.86017047
IT,2242.37390911,2475.68737947
IT,3687.92107827,5140.23068863
IN,3816.76092993,3721.2838911
IN,6696.98074203,6300.38279786
IN,2071.29429724,1019.40847784
IN,4104.55925951,2514.94702605
IN,4970.61008789,3104.98645847
IN,6615.17556441,2398.32680061
IN,3301.92826619,1645.81315463
IN,2862.60271019,1657.65527718
IN,3145.17189922,1058.80240849
IN,7945.89467532,5370.70934261
IN,3255.14236,1189.2508996
IN,6373.87543629,2054.6588936
IN,563.226103257,1337.54189923
IN,4100.00270766,1341.7159574
IN,7684.8408589,4103.4251326
IN,5651.89533566,4837.90757376
IN,7209.20503597,3768.58277297
IN,3177.46163974,2199.16412958
IN,3012.63179874,969.924086721
IN,3504.46520002,3320.44063043
IN,729.876023991,687.750612664
IN,1769.2971502,936.041849522
IN,1307.93409666,834.545348671
ML,5649.91472371,8235.45929751
ML,4440.86135661,4405.75721267
ML,1602.49865593,3870.51302792
ML,3002.79972825,7725.48707743
ML,2569.5046331,4251.17299956
ML,15418.6347303,9750.12613636
ML,6303.87680506,8560.35032724
ML,6538.73007511,8710.46916349
ML,2950.35842437,6075.85811464
ML,7414.48099843,8774.42930524
ML,4134.98751226,5122.34518895
ML,1243.61235703,2800.21426436
ML,1986.99013861,2830.07511023
ML,1527.79929303,7277.35553494
ML,2674.98503603,3757.26529455
ML,2297.2529305,5778.53831952
ML,1153.96320959,2089.48789848
ML,1078.0888257,2079.00364267
ML,5073.52216273,8400.17902154
ML,3861.01679109,7776.47467977
ML,930.932650283,3085.77204373
ML,1203.15329482,2355.37546383
ML,3458.30116983,6670.33388622
ML,758.720609317,1969.7947982
ML,619.039295388,2129.8545878
ML,1349.1613646,2456.70899487
ML,1610.22160132,2055.44145073
ML,2174.55172751,5763.51396743
ML,2138.97601629,2190.75774154
ML,7361.79772302,8924.39425012
ML,1945.17432225,5792.86078273
ML,890.967923326,1918.64800981
ML,1817.99586695,3624.96138621
ML,2731.73629784,5247.56631302
ML,5115.47562889,7100.09593562
ML,748.101261259,2093.51560154
KG,2886.41939754,803.843385837
KZ,6702.64537526,3457.74059828
KZ,5134.62096486,4505.59985558
KZ,1682.37528257,2075.07673688
KZ,2310.7154966,1301.6352515
TJ,8777.96032841,6335.96498517
TJ,2975.09316868,945.120156924
TJ,2122.36571694,1345.05538804
TM,2127.4987917,1316.68475434
TM,5053.57215408,2063.50862388
TM,1972.1285429,1326.60114476
UZ,1267.66978007,1126.81904451
UZ,3256.33654282,927.870723473
UZ,2995.52577489,2589.74015999
UZ,275.250021065,973.757980928
UZ,3808.40777278,532.099605873
UZ,1285.52723783,1447.48124193
KE,1233.79142346,2970.5482385
KE,0.0,0.0
KE,491.953259983,1408.04746211
KE,491.953259983,1408.04746211
KE,0.0,0.0
KE,446.161001727,1529.656727
KE,0.0,0.0
KE,491.953259983,1408.04746211
KE,504.274314057,1535.26179088
KE,0.0,0.0
KE,1613.84377362,2948.42078493
KE,4658.60282968,3841.68742489
KE,3652.21713232,3178.18053039
KE,4873.69048818,4200.5109725
KE,3749.82078259,4313.48331998
KE,2623.70029121,5446.86630727
KE,3623.69846399,5774.86289208
KE,3296.47925765,4356.96929173
KE,4500.92788183,3428.61028506
KE,4815.85238425,5595.14853381
IT,2909.0382136,1627.95919532
IT,1754.4538629,2341.04843627
IT,2467.80855234,3743.08611789
IT,1551.9231668,2309.88917966
IT,1571.16498963,5378.30246036
IT,3671.7664981,4974.51704515
IT,2363.6789072,4156.63799784
IT,884.498973265,2282.00852968
IT,2349.07780105,2507.54410912
IT,1595.91847508,3620.04227766
GR,820.133433264,780.43227985
GR,304.598987326,343.481213707
GR,1815.66576645,2955.13329195
GR,538.835921294,562.48597187
GR,2190.24600116,1957.83840211
GR,2633.13780078,970.788263443
GR,1303.06370452,734.267866466
GR,1477.64019596,877.419654689
GR,1375.72637834,1426.68862492
GR,717.70016511,653.601982312
GR,905.142312748,3514.40767932
GR,342.767581813,92.9740570865
GR,4146.23846073,1928.38407572
GR,1153.6710325,4185.41039452
GR,138.14609469,356.27146745
GR,67.7477764699,322.406598219
GR,288.595640778,3978.2308572
GR,5589.25411114,5619.67391303
GR,1601.08113128,4858.61499539
GR,1092.43853063,565.356319353
GR,3520.7510773,5208.71512409
GR,902.150120723,2824.68542163
GR,1092.45267524,517.367937657
GR,642.412193901,279.378601078
GR,225.01054111,441.542885194
GR,1047.98059794,2555.01864189
GR,2409.92977066,2200.89108559
GR,1419.20647812,2375.01018878
GR,1448.87430737,2626.0143124
GR,1112.89009778,553.138146435
GR,204.7004094,336.747195984
GR,533.810510269,395.110497105
GR,528.631291248,549.766206715
GR,180.067174888,313.032464037
GR,814.711812757,482.554704064
GR,2890.63395408,4800.8087246
GR,288.48167129,825.205250621
GR,560.71162337,4396.5169775
GR,1825.06984573,2835.50068892
GR,600.673221717,4386.86610398
GR,193.620901383,1052.46328698
GR,1507.70829818,3667.42853385
GR,1762.24809739,639.581573226
GR,297.087878209,659.36896453
GR,3172.90102112,4069.92185822
GR,1608.43995925,730.122892561
BR,6352.75679465,8175.47994173
BR,7192.8758421,9174.59940818
BR,8802.28970111,9471.9972142
BR,6290.86421814,8883.77011602
BR,4655.08281712,4638.27692837
BR,7984.48891081,10317.4011106
BR,6713.36408609,9194.52647064
BR,7589.03966168,8844.2840075
BR,9367.57982463,9649.42285283
BR,7994.29158062,10997.3056855
BR,4955.08675845,7718.26818287
BR,9314.92844081,12800.0770916
BR,10295.7763899,10270.493256
BR,4825.95723794,6863.57637675
BR,12701.7875221,13890.5436891
BR,9488.3471405,13386.8376707
BR,9895.731096,12566.0929875
BR,7965.70488555,13325.2337691
BR,7231.8752197,13611.4378817
BR,10587.8716861,13934.7084267
BR,11333.579636,11596.9440847
BR,10603.2808956,14397.4231746
BR,17142.5843856,16553.7411844
BR,13784.2592171,14852.5817557
BR,13573.7623313,14798.6057277
BR,8670.58092897,14267.4385982
BR,9252.15689585,14269.288364
BR,9641.1550419,13072.4271335
BR,10657.620839,10241.4717269
CV,5845.91976156,8574.09576236
CV,4695.50294235,7053.40137279
CV,6448.2084293,8459.88988871
CV,7302.68461344,7495.2611605
CV,6014.71779579,7867.72980513
CV,5757.34937372,7106.38910945
CV,5029.26470368,8496.10750801
CV,6307.72940645,8241.39398271
CV,7809.46681618,10338.5309623
CV,5034.0299386,5220.56563913
CV,5149.48264242,5469.81944295
CV,5873.88649299,8568.40040722
CV,9242.09187999,10730.0001694
CV,8406.97863171,10531.344181
CV,7317.51048513,9188.26762215
CV,5052.22130075,9959.86835965
CV,8412.47215443,10629.1605771
CV,7004.89284026,10352.2370309
CV,6857.68623182,10032.9286653
CV,4746.29544742,9186.27529296
CV,5406.95075565,5491.7423073
CV,7842.45772655,8916.69173803
CV,7377.87940839,8974.12627631
UZ,1277.00548025,932.635640503
CV,5277.21975943,6624.73070376
CV,5884.98668595,7628.37384328
CV,5345.41181705,5330.90090232
CV,1921.79040706,2310.14155795
CV,6190.73477531,8554.68684807
CV,7817.08414955,10221.8452626
CV,5980.12975445,9940.58239219
CV,11044.3312336,11610.1092456
CV,6091.6746066,6837.15943648
UZ,3404.88620074,2327.23688889
UZ,2528.7192407,1279.38883688
UZ,1708.06413883,1282.22026047
UZ,1002.98193124,1866.84163437
UZ,1928.61146761,1279.67782969
UZ,3111.14105159,3589.98028453
UZ,1113.84316785,1273.88224464
UZ,2065.61059265,1034.69998044
UZ,1095.12029183,1114.20497812
UZ,986.163680191,1578.71471288
UZ,4544.6604662,874.568140472
AU,16875.4507455,12225.0661246
AU,14996.5882013,11293.145303
AU,8590.90282709,9773.02901751
AU,12433.4758792,11103.6890067
AU,6483.74824985,10332.2849713
AU,11142.3275809,10161.9388087
AU,11632.4192914,10578.0977821
AU,18620.7603917,17137.6222668
AU,12117.9965973,10747.5049728
AU,12919.0877578,11131.4830023
AU,17638.8398769,16390.8407469
AU,11505.1661366,10510.7843811
AU,6562.42525386,10108.1977777
AU,11529.6461857,10442.605909
JP,5974.43089652,5805.47818969
JP,8309.36053653,6072.28160093
JP,8160.44823048,6305.60555164
JP,7111.31985886,6385.25663746
JP,7972.6440438,6043.9285444
JP,6516.45481105,5876.1183104
JP,7161.06475616,5957.65487649
JP,9246.03764421,8241.74561507
JP,10988.151148,9652.05552272
JP,10073.8091703,9697.84968368
JP,6121.48378019,5543.28708289
JP,7406.49177665,6294.59181989
JP,5478.7423706,5199.44437724
JP,12640.5033991,6971.73148225
JP,6985.92447903,5915.84509585
JP,7073.12442812,6024.33315571
JP,8621.73905109,7767.98606573
JP,9438.08323528,6265.84388327
JP,9981.86436614,7697.04453082
BZ,4466.17202029,3297.01790586
BZ,5179.56319334,13267.0862682
BZ,6093.39372123,14119.9723759
BZ,9478.33181309,12980.2490444
BZ,4700.30987418,14120.1307955
BZ,6976.07318038,8472.64743782
BZ,7899.97079271,10018.3088833
BZ,9487.91948142,13516.9632216
BZ,2622.98437244,2412.92198734
BZ,10961.9374306,14587.0421157
TZ,6666.49441859,5968.50388999
TZ,4830.07753374,4477.43427005
TZ,3707.19644615,4049.70835661
TZ,4761.52603101,4099.27060898
TZ,4832.20847619,4288.88715776
TZ,1869.80739219,3073.30725245
TZ,6000.17782911,5216.02486753
TZ,5167.90860046,4418.64846549
TZ,6628.0138914,5810.71968946
TZ,7478.51816257,7308.29098375
TZ,4542.97082968,4326.31005605
TZ,5326.01557271,5261.33542379
DZ,1980.38814404,2969.46339146
LB,10583.6359449,4249.71599726
MA,6841.98035996,7982.16397314
MA,3970.28427845,7387.46838182
MA,4159.8848022,7579.28191872
UK,2308.67190986,6105.60115882
UK,4042.96731233,6287.56323017
UK,2246.18846881,4605.70579418
UK,2655.56214859,6254.42304659
UK,1541.81763928,4839.63831057
UK,5799.64731539,6221.16245083
UK,3990.74729824,2356.06966008
UK,4613.8333828,6471.2929845
UK,1150.10529302,2232.19195206
UK,1512.35098558,4823.44074131
UK,3795.85337553,5465.31518599
GE,1423.92331475,2922.96498992
GE,0.0,0.0
GE,1392.39411067,1719.17784509
GE,525.457981781,1996.14065178
GE,1165.44888345,3023.63926978
GE,1616.43762602,3186.87308584
GE,524.705337392,459.072265535
GE,1484.94654007,3005.20230998
GE,836.587062034,2947.33251985
GE,0.0,0.0
GE,229.346604904,235.132021729
GE,1373.78689213,2387.21821051
GE,1332.36264076,2351.95023483
GE,626.176926308,2808.75254666
GE,349.637216087,2105.10194085
GE,1281.64145079,2317.07583859
GE,2408.60142248,3695.19420318
GE,3340.86363661,4688.13630904
GE,721.288217337,2849.3609473
GE,2408.60142248,3695.19420318
GE,1847.25226398,3053.6206106
GE,1236.27767873,3009.772584
GE,1420.06916143,2767.64449893
GE,1681.68218146,3402.85603885
GE,4744.7279358,5365.43027959
GE,1902.40070103,1207.84872471
GE,1895.23483144,2652.55580756
GE,721.288217337,2849.3609473
TZ,5084.2336026,6052.44445743
GE,1130.77563661,3005.83798627
TZ,1632.87695588,5727.82519913
TZ,3390.12927301,5755.88549724
TZ,2895.3871069,5625.06691421
TZ,2202.46957467,4417.03006972
TZ,3103.22307093,4229.84335473
TZ,3482.04227135,4584.1363653
TZ,2517.14510191,3874.75193781
KH,4186.47229496,3531.98708148
KH,949.766792949,3272.18843391
KH,3026.158918,3474.36674377
KH,1783.14833724,3343.47450697
KH,3453.36468904,2546.10686682
KH,3920.98381729,3490.9681943
KH,1098.46690364,2184.26465032
KH,307.852916269,257.534807838
KH,1323.3732307,2113.03589399
KH,911.089142224,3367.71750178
KH,5585.22265283,3710.93173034
KH,6162.83112086,3819.21758209
KH,11349.4728668,5702.70228539
KH,8380.65701199,5556.66506256
AM,2824.91259929,1750.07241644
BR,7141.36644789,8663.71612252
CD,3240.21180136,3814.99881559
CI,4342.59239516,8216.77664132
CV,1256.10191957,1577.40124796
DZ,5358.52833341,6906.9639157
DZ,2022.68411167,1807.34728537
DZ,878.205776909,868.393005578
FI,3642.72433762,4248.67487805
IN,6514.93380211,6262.14293465
IQ,2230.05437979,1484.27643177
IT,1871.2774931,5201.93324246
ML,8583.17125085,9132.34017632
ML,3863.09002789,6634.24931976
ML,3773.19640029,8441.19251206
PK,4372.05139574,4368.48996576
PK,5984.77976,2381.38441435
RO,4748.76087946,1692.26828212
RU,6185.11815566,2294.03482021
SD,3835.79980333,5080.98388345
SN,4794.45144359,5875.28695571
TN,6251.10298012,7310.13218986
TR,294.577922903,3691.85429906
CN,6609.98603401,5777.0510032
CO,3788.76210846,2903.84428954
DZ,1631.34742995,2997.6729278
DZ,3046.37471876,6550.74913388
ES,4721.06017272,1727.18280245
ES,3222.88202518,2575.62372584
ET,2058.65356674,3078.02620351
FR,2278.66202082,2073.07460177
IL,7893.72748667,6418.01314049
IN,1731.99431851,749.07438238
IN,5002.2508197,1678.58714166
IQ,4109.91093566,1664.11779653
ML,4936.40947113,6104.87220919
ML,4349.50063709,5065.31581872
MX,11236.7560944,14057.2914498
NE,1304.01628161,4229.53787484
NZ,17665.6177823,20417.4092412
SN,2134.01692,6148.60145
TR,4910.6644448,2351.75202729
UK,5573.08368312,6641.91146621
US,11741.2548466,12534.1283982
ZA,9233.86799714,8718.91557964
CM,2936.45652387,6716.38401784
CU,8908.25727462,12416.8740936
EG,2824.74613424,3681.65462619
IL,851.596211543,3433.4741533
IN,6249.80485687,2678.96767848
IN,3991.044095,2779.06554955
MT,5605.77164527,6703.09123482
PR,9433.02716691,13181.0054703
AL,3774.13708413,5287.4225827
BA,1470.06858729,4650.45797565
BG,1232.82894855,2805.83945639
BG,4580.00434425,5588.54814048
HR,3687.08575146,5334.33315375
HR,2154.28253266,2198.12803067
MK,499.969146485,4482.11316287
MK,2334.11646291,1836.30436905
RO,1561.10759817,3473.99590369
RO,3986.51258369,4441.27818687
RS,1866.6275829,1438.54066836
TR,1097.92085258,928.602203382
XK,6014.68890575,8793.62726868
AL,803.112706513,4588.76617488
AL,3020.66724725,5310.68639889
AL,1731.46438041,3819.97661393
AL,1729.35617528,3725.60914484
AL,2021.45400874,3943.07853494
AL,1411.0466288,2822.92917973
AL,834.763314024,2055.79956769
AL,3109.17019924,1439.1123602
EG,1077.19502804,3638.94851529
EG,1764.9959484,1634.08744641
EG,905.074391566,3574.26756485
EG,534.916727937,4095.2295748
EG,1946.78296423,3980.46973805
EG,2477.51338151,4217.36033033
EG,3982.47547003,4927.74536158
EG,1822.60302394,3308.41679758
EG,1265.58253857,3843.44524384
EG,773.692272725,3461.60741421
EG,1813.25461437,3093.48074707
EG,1496.86193496,3017.83813623
EG,2906.53637855,4428.71084375
MM,651.572970387,478.523026535
MM,1407.03225923,697.505718319
MM,1226.16417743,2094.83552411
MM,4394.15349097,2578.96858767
MM,2535.71347539,2235.73863691
MM,651.572970387,478.523026535
MM,1767.81677445,2158.32196868
MM,356.552976235,205.084765874
MM,0.000100299715996,0.0
PK,1074.7737229,717.903583686
PK,2212.35908249,93.7048785355
PK,3239.77453266,319.942616704
PK,511.979331029,1580.56398938
PK,4946.04407577,616.754265743
PK,3416.10108847,3202.49741772
PK,2203.5890786,2053.61348238
PK,1728.27807626,480.375097569
PK,2550.80798442,429.962776934
PK,7574.67724815,3270.36001526
PK,5065.91128018,4879.6752
PK,1111.03765472,1709.36880733
LT,1296.86108444,1496.61392159
LT,3573.32852735,3361.40179998
LT,3105.1872088,3489.38257583
LT,2076.69161138,2346.33861974
LT,936.708932852,3346.55005477
LT,1780.0228629,4662.10286492
LT,3577.39478606,2631.14043875
LT,1118.62436428,2444.33395944
LT,1893.37747647,3087.00235518
LT,3039.21547018,5122.64075625
LT,3343.77952437,4961.42673996
LT,2885.32076326,2410.16778106
LT,2909.19863304,4690.58670485
LT,310.910622628,4306.21540148
LT,2429.21495873,4037.13162331
LT,2108.00727494,5041.43287043
LT,1189.63161516,2638.76688898
LT,3327.1282181,2627.81865528
LT,3627.35838574,5348.00167426
LT,1730.82217058,3165.2436984
LT,1680.4428208,2428.82751199
LT,2706.45394145,2419.42826313
LT,2785.72444639,4727.79578645
LT,3528.98003851,4548.65607988
LT,1216.48248427,2114.75132555
LT,1179.22847845,3709.18713514
LT,1075.72475547,4675.92954425
LT,1044.21667197,2304.33078694
TR,1380.46452726,2871.33600665
TR,753.261093822,2515.32871161
18620.7603917 0.0 3747.09931462 20417.4092412 0.0 4168.68311342
