BG,1905.4227872,940.671101827
AF,1950.87049721,2555.94353195
BR,12987.8701391,14499.7325349
BR,11140.7457228,10737.9383397
BR,5829.65643736,5829.65643736
BR,15418.3120077,15054.1501447
CU,7521.93999272,8237.77119964
CU,11582.4481786,11493.2003641
CV,4907.26324263,5278.76477503
ML,6073.88507,6071.04212617
TR,2067.87059729,2006.24126591
DZ,590.798602554,3764.11524083
EG,2352.16329069,1881.8864965
ES,2237.49932723,371.777639014
ES,3279.60493199,3513.77579521
ES,2504.14136896,1791.30116135
ET,4924.87365996,5090.48049569
FI,6362.24101225,6362.24101225
GN,5013.51872152,6095.64255859
HR,5683.77153079,6991.41036322
IL,771.905065825,1011.66328138
IN,6053.11670123,5819.62031181
IQ,3245.50333397,2080.83242835
IR,793.674844407,861.848136632
MA,3599.65628217,2975.6631266
ML,0.000100299715996,0.000100299715996
ML,1022.77028915,1095.55728433
ML,5788.64383624,7297.64982835
MX,14294.5191161,14209.7173431
MX,9449.97507457,13955.8679237
NG,2664.49853822,2769.69820344
PE,9940.02721585,9865.71049124
PL,3033.91628025,2161.44779679
PL,3816.5302828,4145.49758972
RU,7316.57008623,7316.57008623
RU,3794.98918741,3153.99646545
SN,762.279833793,714.030350906
SN,3950.25822489,6528.47497146
TR,4735.7748374,4625.13516789
TR,146.003208374,696.236875433
TV,17379.7950406,17234.7144746
UK,4742.93206168,6301.68779536
UK,2683.88691381,2951.64990091
UZ,4947.17852921,4406.98020026
AR,8823.19699011,8787.40377032
BR,12379.7649122,13002.4725217
TR,0.0,0.0
UZ,4659.47346554,2516.74849623
DZ,2203.74906058,2134.39502287
UZ,2891.52828525,2224.27155992
DZ,1462.70554802,640.812574987
UZ,2130.16614789,2131.05544914
ES,3361.41440982,3799.63782473
UZ,4643.30146947,3931.25279216
ES,4698.83371626,3339.08434512
UZ,5597.18763743,4453.59377926
GN,1581.44362578,1643.5676011
UZ,9327.35493488,7881.5708947
IS,10044.7251382,9842.07994599
UZ,956.460466583,1265.66825818
IT,1578.66331519,720.483622535
UZ,4156.97303938,3908.64191208
ML,1395.48943533,1845.30891036
UZ,4300.77878262,3880.34201639
MX,7484.33832557,9232.31198833
UZ,2615.47951115,3191.83269363
RU,7505.66579754,7768.21034021
UZ,1021.66626165,1118.64780289
SN,1142.80822954,1142.80822954
UZ,2442.7048083,1800.8476971
TR,3877.78604135,1999.8161959
UZ,4400.59871898,4507.07146644
IN,4789.90066367,2374.70014084
UZ,1022.13008241,1068.90004569
ZA,7867.74462511,7498.45824802
UZ,977.705800739,1283.12096666
UZ,2541.77800892,1841.22260239
DZ,5638.90353235,5821.33938733
LB,628.064874818,3412.85143835
PK,8922.20547018,6803.02042492
UK,6850.56825809,7753.61476777
UZ,8758.15752599,2360.08524976
RO,4479.4299708,5527.24277667
LT,0.0,0.0
RO,1716.44505695,1035.80983848
LT,0.0,0.0
RO,4340.95336871,5082.68144203
LT,0.0,0.0
RO,685.820466268,667.123082938
UK,0.0,0.0
RO,2905.76895706,4481.05121522
UK,0.0,0.0
RO,2514.42878458,2734.20332972
MA,4092.37983008,3732.97159688
RO,2514.42878458,2734.20332972
LT,2711.04477114,2152.16930843
RO,5482.21033411,6469.75512978
UK,0.0,0.0
RO,2299.82376644,1344.01105232
UK,0.0,0.0
RO,1557.21635913,858.790777097
MA,1065.50743783,2083.59459437
RO,2303.05273043,1410.21885734
UK,0.0,0.0
RO,4785.36141532,5374.09251233
MA,9761.15935266,10008.3153332
RO,4591.16007352,2196.0174125
UK,0.0,0.0
RO,1598.0379491,832.037383821
MA,1789.73567565,803.586066805
RO,1028.28541914,1028.28541914
UK,0.0,0.0
RO,4802.5124753,3946.83825563
UK,0.0,0.0
DZ,1720.32677608,3947.77399481
MA,5939.49615041,6600.02295274
DZ,1847.61254787,559.612893434
MA,2059.46229115,4883.90288015
DZ,3171.81194525,2551.41098885
MA,4515.3095943,3991.93857957
DZ,3970.73087005,3043.22533335
MA,4452.00673305,3825.93047741
DZ,4115.2136815,4187.6658997
ET,3535.44159648,3556.60242426
DZ,3866.07253261,4623.26789817
ET,2402.76366962,2663.91617819
DZ,3410.61520933,2804.67626171
ET,2872.56333444,3310.08085226
DZ,6500.9519103,6921.93738132
ET,6229.92522318,6242.13052129
DZ,7660.11384949,1673.12277483
UK,0.0,0.0
DZ,3970.73087005,3043.22533335
ET,5093.33295739,5720.47938779
DZ,3887.92365026,3575.66513815
ET,2751.49360719,2695.63179735
DZ,8602.23641185,8899.43404698
ET,6600.97307535,6600.97307535
DZ,4630.69993301,4754.70942072
UK,0.0,0.0
TR,2721.96216849,3514.58145422
ET,2972.9991995,3722.25323161
TR,2408.33006193,2533.33717462
ET,1056.98299883,2192.47827696
TR,2023.78740998,2134.32651569
UK,0.0,0.0
TR,322.764658726,196.886144312
ET,4331.10745388,4506.64513026
TR,2246.084436,1834.93132882
UK,0.0,0.0
TR,1507.4816103,1148.89899403
ET,1604.08944434,3001.8585753
TR,3071.86141989,2117.47346056
ET,1174.84451612,1655.90783165
TR,1806.05889253,3714.23321622
ET,3410.16867002,2942.03510339
TR,3331.43420171,2275.31263101
UK,0.0,0.0
TR,2183.88411065,2218.33100336
ET,4065.80527878,3194.39206792
MM,7384.25658293,7384.25658293
MM,2778.55039885,2205.70017845
MM,2959.64980422,2216.00660918
MM,2115.16438263,1273.65230646
MM,0.000100299715996,0.0
MM,2115.16438263,1273.65230646
MM,0.000100299715996,0.0
MM,5737.01733994,2777.24823012
MM,588.567402748,901.306998269
MM,3410.33817707,2304.49770479
MM,6084.57989116,3517.74546384
MM,2890.27611632,2161.29060822
MM,2115.16438263,1273.65230646
MM,2339.57447928,1315.9241207
MM,0.000100299715996,0.0
MM,4731.93405046,3687.06706292
TH,6054.47906186,4966.66001138
TH,7815.54658094,7873.54186134
TH,5663.2019648,3827.64914844
TH,1856.48092484,1428.18563618
TH,4769.91344577,3200.24881879
TH,9020.91990727,8789.55488752
TH,4226.88855083,3293.91166275
TH,3174.36046376,2168.24524133
TH,5126.10131663,4179.97347149
TH,5210.66855122,3866.74497582
TH,10629.9436739,5349.27081735
TH,485.134727856,485.134727856
TH,3851.79866945,2916.24414624
TH,7404.33003515,7568.31170215
TH,3224.44279742,2213.42464856
TH,0.0,0.0
TH,2745.8445439,1862.29787173
TH,9585.31342726,8924.26608221
TH,2291.41500381,1363.07340041
TH,2443.67489947,1761.69257821
TH,5336.3579642,4930.76517831
TH,7145.63400037,5063.1783541
TH,3463.89680347,2670.41052777
TH,3520.53684954,3036.72163951
TH,8293.27591134,5006.3380597
TH,161.680449406,129.657765423
TH,0.0,0.0
CN,1017.39548161,1508.123281
CN,7120.26235325,7512.32253567
CN,1932.86006362,1874.50400015
CN,2748.57416581,2702.12290756
CN,4009.05987329,3159.38073651
CN,2718.10055227,3128.66267195
CN,9091.45600195,5751.45314396
CN,8609.16388763,8473.02867597
CN,2866.47354463,2686.09779154
CN,2974.55412925,2364.30997045
CN,828.681166479,501.024108538
CN,4015.88975427,3845.52469703
CN,1635.02111113,1453.41302692
CN,7838.29603705,7337.94079721
CN,3565.78188804,2950.13717872
CN,11248.6400377,9637.29019172
CN,12488.5356241,10347.8371466
CN,10021.4233359,7245.14631853
CN,2622.73091936,2564.82271933
CN,5757.33595289,5058.54078257
CN,2622.73091936,2564.82271933
CN,2622.73091936,2564.82271933
CN,2943.05844163,2582.0301544
CN,5711.8315896,5800.14333385
CN,3121.70693775,3442.19288222
CN,7426.09807924,7426.09807924
CN,7031.07169728,6192.0335155
CN,8954.34272534,7540.00797465
CN,6648.35708796,6622.65369202
CN,4936.72598879,4624.08766663
CN,5396.20350225,5089.79475244
CN,7107.98315946,7291.8333903
CN,4927.02671775,4555.04011619
CN,9807.61567429,8983.2883089
CN,5614.00513753,5125.77805607
CN,7257.45130506,6975.7352049
CN,4715.29471328,3671.19664092
CN,4738.76129411,4103.15767317
CN,9595.38843802,9015.90940999
TW,4399.18373158,4399.18373158
TW,6102.31621425,4745.05456331
TW,0.0,0.0
TW,2251.28572026,2569.40542484
TW,0.0,0.0
TW,2408.60142248,2660.62341923
TW,0.0,0.0
TW,0.0,0.0
TW,0.0,0.0
TW,0.0,0.0
TW,0.0,0.0
TW,0.0,0.0
TW,0.0,0.0
TW,13338.0516023,11272.7098563
TW,0.0,0.0
TW,0.0,0.0
TW,0.0,0.0
TW,0.0,0.0
TW,0.0,0.0
TW,0.0,0.0
TW,0.0,0.0
TW,0.0,0.0
TW,0.0,0.0
TW,8259.83357771,8631.37637899
TW,0.0,0.0
ID,2210.41181227,2901.33804368
ID,9348.75046306,6967.41623302
ID,5677.00716848,5392.80249842
ID,8219.84008716,6292.10830048
ID,9588.98306451,9754.3442969
ID,6613.44463432,6042.84366583
ID,7007.05351707,6188.64983894
ID,5573.91552495,5477.37504203
ID,5289.07860864,4646.53703263
ID,8238.31732094,8811.102483
ID,9729.96098606,8899.31398148
ID,11201.9428979,10918.4230205
ID,11914.0673868,11714.3021696
ID,9105.13704615,9578.76437241
ID,9491.00317238,7917.46228517
ID,9721.53723234,8865.53292122
ID,7985.0931048,7310.48088162
ID,5702.79278346,4746.54126461
ID,8707.50206862,7410.47052364
ID,5803.70337741,4504.36320413
ID,11158.9572947,11384.0234582
ID,9895.81187708,9375.39287669
ID,2489.81572147,3165.50022844
ID,7760.41753105,7416.47170983
ID,7234.25185955,5543.44833524
JM,2384.21304655,1090.31583644
JM,3497.05639243,6221.69742398
JM,0.000100299715996,0.000100299715996
JM,4194.12785875,4130.00079318
JM,6741.87184893,8073.56536213
JM,5307.66736021,6850.11354538
JM,1792.42948262,1295.71022232
JM,0.000100299715996,0.000100299715996
JM,490.013350999,485.43630501
JM,0.000100299715996,0.000100299715996
JM,2452.07199921,1395.14029765
JM,2452.07199921,1395.14029765
JM,2507.56640547,1476.73964265
JM,10208.9094657,10121.2245136
JM,2507.56640547,1476.73964265
JM,2452.07199921,1395.14029765
JM,9282.8139688,9082.26186291
JM,3480.13385099,6193.42165892
JM,7051.00579017,8623.34796602
JM,2452.07199921,1395.14029765
JM,10369.1657266,10311.6624811
JM,3497.05639243,6221.69742398
PK,2173.43104602,142.606633546
PK,3749.30555402,4359.82370597
PK,2957.13142984,2834.2654266
PK,5013.11291238,4971.50259711
PK,2457.75635242,2384.63570825
PK,4023.37708375,3847.35736908
PK,4493.97736107,1282.3059996
MA,5653.41766375,6608.48956954
MA,1262.10847163,2019.70396056
MA,1608.12035517,1042.73801189
MA,2867.72384243,2987.33627601
MA,1262.10847163,2019.70396056
MA,4275.58734945,3750.31833919
MA,372.039258006,1095.39261619
MA,1262.10847163,2019.70396056
MA,1314.84719119,1535.99438928
MA,2328.74446846,502.539345886
MA,1806.29842387,3195.97213257
MA,3108.96035028,2947.00123348
MA,4831.50354276,4848.81080385
MA,2402.329219,2839.80065762
MA,1318.23295552,1800.03889336
MA,3395.70064708,7126.09766825
MA,2328.74446846,502.539345886
UK,0.0,0.0
UK,0.0,0.0
UK,0.0,0.0
UK,0.0,0.0
UK,0.0,0.0
MA,3006.39485912,3004.42074083
MA,2554.97205925,2759.59261821
MA,7278.67738864,8387.76393396
ET,1448.92701331,2575.81200656
ET,1604.08944434,3001.8585753
ET,3627.21770338,3932.36563002
ET,6708.97774646,5400.3986221
ET,395.243285539,305.418773732
ET,2319.87124862,3128.66941065
ET,1448.92701331,2575.81200656
ET,1604.08944434,3001.8585753
ET,1174.84451612,1655.90783165
ET,3652.62490533,4836.52470592
ET,2803.03778299,3323.33708563
ET,7510.44578046,4598.78641024
ET,4094.11469984,3928.01889081
ET,4593.37457452,3834.42270623
EG,1647.66442508,1686.18816615
EG,1525.54230521,386.662702571
EG,6581.18879997,6458.86476648
EG,2562.0128044,1778.63808141
IR,4486.08141649,3662.12649749
MA,8443.12186081,8459.54078676
PK,3801.91227662,2929.76022751
PK,1337.97140939,1483.42198217
PK,3258.3312418,3958.3578127
SN,2204.41975935,4836.62661088
TR,1714.66246105,929.963481236
PK,6235.7920349,3510.61169091
PK,574.291566515,1003.66025119
PK,1391.17759898,734.937154157
PK,6204.66914592,5282.25235034
PK,3124.39887189,322.497424441
PK,413.096408828,275.387474871
PK,1926.9897135,1188.67758706
PK,2915.19644617,3320.04411126
PK,9349.13713643,7079.12814313
PK,6786.9049552,4450.65195286
PK,7831.19182588,5676.1367985
PK,3254.1457553,3841.07046753
PK,1912.49844222,678.882190321
PK,5487.24280466,4772.11295765
PK,3442.45437204,3180.77065781
PK,2679.73497033,2614.74394585
PK,2174.55880391,1989.34558979
PK,2464.33055323,2748.60063682
PK,2846.98797057,1946.20203534
TR,0.0,0.0
TR,0.0,0.0
TR,0.0,0.0
TR,1977.14959343,2047.35671352
TR,0.0,0.0
TR,0.0,0.0
TR,0.0,0.0
TR,0.0,0.0
TR,0.0,0.0
TR,0.0,0.0
TR,1090.12414355,1280.78369563
TR,0.0,0.0
TR,0.0,0.0
TR,0.0,0.0
TR,0.0,0.0
TR,3019.65780844,2030.77975926
TR,1898.97876158,2015.9459157
TR,1898.97876158,2015.9459157
TR,1606.20481306,925.218959353
TR,0.0,0.0
TR,1262.10847163,1397.02450706
TR,3181.10991739,1070.61823394
TR,638.885140239,695.248832229
TR,3727.17779975,1805.01975347
TR,793.077464819,863.006844486
TR,6473.77516568,5204.61896971
TR,3762.91108416,4717.4459289
TR,5867.54324975,6192.35178344
TR,1591.91189613,3854.36444092
TR,12104.3929635,7021.84782405
TR,3308.73039365,4388.77149015
TR,1806.05889253,3714.23321622
TR,3540.44792256,1656.80624676
TR,5372.53807521,3690.19119722
TR,1977.14959343,2047.35671352
TR,3443.32500369,2500.14405191
TR,3540.44792256,1656.80624676
TR,2351.28418533,3166.19191455
TR,638.885140239,695.248832229
TR,0.0,0.0
TR,735.856553451,3498.8971021
TR,934.737821385,385.505452649
TR,2297.22385887,2210.88736438
EG,3202.76789261,4254.78611644
EG,649.120087128,2370.99529041
EG,1338.14266821,1663.44140829
EG,1057.57447512,2336.47593778
EG,1021.42965402,683.370745144
EG,4307.97240571,2641.54792925
EG,3490.51283033,4224.26235108
EG,7766.87655943,5578.74609176
EG,2780.25806483,3444.27658649
EG,3358.945749,4564.67091712
EG,6975.14459122,6811.76479983
EG,8078.16732445,4238.35132593
DZ,3019.51993297,1319.11322936
DZ,1572.80195914,1272.57438293
DZ,2827.86046636,2166.38910364
DZ,766.036110901,912.897977989
DZ,1906.84982605,1493.55230187
DZ,1789.63245656,1775.08762278
DZ,3755.72845568,4509.15264447
DZ,1094.77749386,277.756529624
DZ,5883.45705239,3477.7916237
DZ,908.774518182,1633.75362608
DZ,2142.25803004,2363.14847973
DZ,5527.57022285,6761.04197847
GM,7523.91262872,8427.09354296
GM,4673.60592582,5072.24441463
GM,1602.86701438,2376.88614799
GM,1379.104556,1340.10019437
SN,6346.51170041,5591.18491202
SN,9761.61815699,10124.4529378
SN,8934.6342058,10080.3346968
SN,2212.15291074,6170.05110016
SN,2138.41904931,2996.19881045
SN,8190.44382078,9219.28681235
SN,703.149984064,3086.13036414
SN,11430.1213636,10942.4375158
SN,9479.80042325,10109.655671
SN,5681.45745344,5917.95832369
SN,623.461401067,890.917398642
SN,4111.31355331,3792.95622144
SN,5720.61728499,5629.74212444
SN,2191.62211845,1961.798323
SN,3603.19594292,4405.2094242
SN,3603.19594292,4405.2094242
SN,265.845236148,2322.74013508
SN,5120.57505189,6276.42031972
IN,0.0,0.0
IN,0.0,0.0
IN,0.0,0.0
IN,4641.90599918,5395.02971604
IN,0.0,0.0
IN,6741.40350938,4742.25759948
IN,0.0,0.0
IN,5074.35467943,5270.89864511
IN,7037.81303507,3511.48899706
IN,5433.81354486,5447.40757893
IN,2578.1629676,1133.02941011
IN,3607.43276566,1685.62490043
IN,13467.8205655,14025.5226666
IN,0.0,0.0
IN,0.0,0.0
IN,436.117993153,423.869847885
ML,6077.1520807,5696.445509
ML,0.000100299715996,0.000100299715996
ML,0.000100299715996,0.000100299715996
ML,0.000100299715996,0.000100299715996
ML,0.000100299715996,0.000100299715996
ML,0.000100299715996,0.000100299715996
ML,0.000100299715996,0.000100299715996
ML,3417.51471978,3280.20536914
ML,11064.5915831,10938.6327499
ML,380.528395751,535.42744287
ML,380.528395751,535.42744287
ML,0.000100299715996,0.000100299715996
ML,2572.40582181,1706.30832123
GN,8392.40394901,9248.64746223
GN,4849.83545774,4777.83609782
GN,3350.10285193,3867.54540234
GN,3976.52716903,4757.98170869
GN,6033.52019498,7418.75059649
ML,1731.85736775,1420.6201369
ML,11160.5451695,10791.7426952
ML,4637.5422156,4548.65581296
ML,1013.02480127,2216.79082705
ML,5078.3821687,5078.3821687
ML,5644.20891649,6805.01486164
ML,7023.98096522,9026.3870239
KG,4888.001406,4978.48556106
KG,1117.74709973,1350.19226115
KG,3007.19790473,1837.277597
KG,2144.54484937,2735.06644821
KG,6457.34677831,4941.98736431
KG,4101.0071903,4101.0071903
KG,3467.3712107,775.761211042
KG,4324.70470535,4364.80861358
KG,5242.78705903,5242.78705903
KG,5274.93327498,4810.20068059
KG,0.0,0.0
KG,3953.18220533,2775.95753997
KG,0.0,0.0
KG,3024.01659281,2934.70009408
KG,1347.60942245,1593.84260972
KG,1117.74709973,1350.19226115
KG,0.0,0.0
KG,0.0,0.0
KG,2521.3484331,2438.05321408
KG,1469.16093679,1771.51973812
KG,0.0,0.0
KG,2611.10888353,3351.47316266
KG,0.0,0.0
KG,0.0,0.0
KG,0.0,0.0
KE,5160.16210764,6050.68337777
KE,2297.62620721,4081.80974712
KE,4547.63201482,5164.32905779
KE,4908.12366976,4732.96755479
KE,3696.92350628,4295.95298639
KE,5044.06574514,5961.78511908
KE,4612.35633282,4666.95168916
KE,7457.30298375,5925.81573691
KE,5567.16253866,5565.95380601
KE,2106.6919736,3442.18012856
KE,2178.52443961,4016.33082893
KE,4095.79699133,3815.03259863
IR,4061.90186989,3588.71647673
IR,679.776607239,633.034674948
IR,1970.26215976,2118.94319584
IR,6844.97508982,6711.20641171
IR,3552.57850816,3098.32798126
IR,3631.44468071,3662.98408677
IR,2728.96642911,3462.74865899
IR,2629.56609627,2575.33038458
IR,869.738082322,1294.97121035
IR,5146.79409381,4267.33902945
IR,5967.01558693,3908.3332229
IR,2357.36913345,1680.53131092
IR,951.884157183,1472.04576521
IR,579.395592154,586.647554872
IR,3093.07677868,3217.97967786
IR,3133.56328758,3504.01183103
IR,145.28907373,450.453350029
IR,3210.72968758,4005.21153516
IR,1444.65619063,781.242290403
IR,5628.37242227,3721.88178098
IR,472.783950218,796.143768314
IT,1995.44791245,1239.64763449
IN,4112.96942574,4625.53600714
IN,6796.55505781,2787.30106422
IT,5232.958034,6660.72556502
IN,10575.2011698,8756.01263886
BZ,824.329891457,919.344619298
IT,1578.51873778,388.067213818
IN,4994.36695914,4825.5323807
IN,5020.23756646,4650.95383345
IT,224.370445071,262.155087304
IN,2694.48582262,1868.56614286
IT,3033.14536645,5518.49047472
IN,7855.61805359,7277.42837921
IT,2318.46142091,1376.48449555
IN,6301.10168965,6044.76111846
IT,1705.98200646,1705.98200646
IN,5380.34645443,3613.11193506
IT,528.452198433,644.217033134
IN,4136.35927409,4581.01613287
IT,6986.83564828,6109.70782144
AL,8055.24822688,7722.55179771
IT,1128.31880891,495.589108794
IN,2732.32571016,1563.60218002
IT,2466.02152016,1463.87761962
AL,1077.00653427,83.1086664691
IT,3017.52108204,1454.36710971
IN,0.0,0.0
IT,3697.93527647,5728.94001507
AL,237.010392156,312.41111137
IT,2720.57307643,4565.29695314
IN,7576.11693257,7449.13349962
IT,5015.37270611,6412.75366352
AL,2973.95269864,1194.28789466
IT,567.300448112,541.087511849
IN,3401.7108648,3165.42178105
AL,7187.81803661,6668.86557161
IT,3054.28524341,5568.59095022
IN,2849.30579902,2537.46638967
IT,1539.85387537,1449.73272251
AL,1626.62143326,910.130103965
IT,1570.34104894,989.983167533
IN,1565.79421003,885.398989638
IT,6389.02828974,6180.77387308
IN,7578.1528084,4119.92067205
IT,4256.74516427,2552.72745044
AL,4136.06598808,4490.58464403
IT,5784.61076398,6095.20455001
IN,1392.39411067,390.854850964
IT,4653.48845925,4351.95639799
AL,0.0,0.0
IT,2556.59903957,1815.43981963
AL,1565.51330606,1369.37099615
IT,7308.95895223,7104.81414794
IN,0.0,0.0
IT,937.886684226,212.286922255
IN,0.0,0.0
IT,7177.91189356,7296.63411173
AL,1743.27183601,787.430800192
IT,2182.85887975,4095.73520037
PK,1001.83576719,626.22503511
IT,563.58241494,312.639602181
PK,4962.23322214,4874.10463889
IT,1829.92327677,2392.52888673
PK,4667.67240082,668.620189272
IT,1283.61871805,1229.76175213
BR,5376.60639248,7944.10126871
IT,1147.22511327,1100.86224295
IN,2471.14667124,1875.59552278
IT,4196.41042156,1904.86993521
AL,7837.45888509,7361.95287761
IT,4671.33529113,4577.02539912
AL,1294.79339485,718.250394591
IT,1276.9874327,513.764769847
IN,2171.62728615,1276.31307523
IT,1283.61871805,1229.76175213
IT,3582.42774067,5388.15681377
IN,4426.59646286,5090.50483968
IT,1922.50385829,1922.50385829
IT,4402.03620844,4620.29019678
IN,436.117993153,423.869847885
IN,6491.93909807,6276.78425686
IN,841.272426248,354.238752748
IN,5828.91896952,2852.73137534
IN,0.0,0.0
IN,6584.67303554,6188.77823163
IN,0.0,0.0
IN,841.272426248,354.238752748
IN,3264.59430299,1172.46174787
IN,4616.82767277,2912.55547999
IN,420.14474151,861.208619141
IN,5600.97006694,5496.41868487
IN,1752.77154317,876.802331474
IN,9451.35619783,7574.76388911
IN,5554.25314827,4827.85747483
IN,5654.02302805,5583.80415126
IN,5149.91243884,4057.74066193
IN,3401.7108648,3165.42178105
IN,0.0,0.0
IN,1645.72003425,706.61734
IN,841.272426248,354.238752748
IN,841.272426248,354.238752748
IN,841.272426248,354.238752748
ML,7745.53908979,9019.71154641
ML,5087.02128502,4794.82322657
ML,1783.76511624,2788.11384868
ML,4898.32461845,8466.93993831
ML,2757.31804172,3181.49152118
ML,1877.19984796,4423.84128546
ML,8132.85435313,8746.96870071
ML,6848.00031591,8744.0624261
ML,4523.46781433,4645.09313266
ML,4587.71794468,4716.90654776
ML,7034.27483458,7858.63551297
ML,1631.75570796,2214.38135304
ML,1730.59336775,1877.35569539
ML,325.777520547,2499.92878446
ML,2277.51435816,3691.07386805
ML,7370.4874111,8255.89775894
ML,1234.12061488,780.305552546
ML,380.528395751,535.42744287
ML,5712.73827785,6804.30168933
ML,375.252476573,2408.64753021
ML,899.676805073,906.875745912
ML,1885.65006204,1116.78454555
ML,2904.90815243,5535.41796308
ML,244.038862341,227.715406819
ML,2572.40582181,1706.30832123
ML,1022.77028915,1095.55728433
ML,1885.65006204,1116.78454555
ML,1730.59336775,1877.35569539
ML,3041.20019025,2216.92568511
ML,4673.42422165,5166.38682889
ML,296.843483903,5801.08911482
ML,1003.76082636,2492.63185687
ML,3536.85191173,3750.25032474
ML,3376.81666879,5038.29177309
ML,8080.10759387,9200.47686593
ML,2428.31468914,2076.01467328
KG,3467.3712107,775.761211042
KZ,9096.56956096,6734.24304545
KZ,6788.58847255,5865.62942457
KZ,2668.01067255,3532.33628226
KZ,472.052800707,1194.59627055
TJ,8257.78586397,8257.78586397
TJ,8492.11637881,5850.29553501
TJ,4860.4668591,4560.88756121
TM,1321.77096568,1502.29399141
TM,3038.38261765,3106.99827151
TM,1508.379054,1888.93297463
UZ,2105.35809351,2494.82950234
UZ,2899.51928645,3622.87806274
UZ,2047.26720639,2334.43372706
UZ,413.096408828,690.167735276
UZ,4971.05462185,4990.63868211
UZ,3199.7348397,3601.99707151
KE,1576.50436271,2017.93196298
KE,0.0,0.0
KE,0.0,0.0
KE,0.0,0.0
KE,0.0,0.0
KE,0.0,0.0
KE,0.0,0.0
KE,0.0,0.0
KE,0.0,0.0
KE,0.0,0.0
KE,2133.18889484,3351.99791094
KE,4796.05190515,5154.86636177
KE,0.0,0.0
KE,5088.35173587,4332.03893489
KE,2307.45663001,2992.62492197
KE,2040.02880494,3625.00272222
KE,3368.21159077,3113.34736899
KE,4106.23440863,4798.11473777
KE,4799.1970168,4098.48938892
KE,6444.39404563,4929.70036941
IT,3296.30757745,1289.68148087
IT,638.885140239,521.801152412
IT,4025.58448321,3531.62852073
IT,2214.8172589,2489.04773706
IT,2314.26115319,714.435740072
IT,3275.47598216,4809.85386952
IT,2410.32416083,1894.62757211
IT,638.885140239,521.801152412
IT,1884.31844617,1685.66130095
IT,1911.9868267,3613.06404213
GR,922.40057451,922.40057451
GR,315.60648829,366.798218418
GR,4338.48516071,4958.45961559
GR,408.185599551,452.422292792
GR,4108.92321328,1622.99566445
GR,655.331744955,791.017744559
GR,3054.51925237,3285.83680339
GR,1313.47892682,772.349720198
GR,922.40057451,922.40057451
GR,615.147904077,561.696128754
GR,307.252670433,406.179553703
GR,20.1716114233,290.54728337
GR,4332.32914519,2482.58649126
GR,279.358760421,310.766375583
GR,307.252670433,406.179553703
GR,408.185599551,452.422292792
GR,2669.84522975,957.84504501
GR,4487.38807778,5555.08585496
GR,202.583275269,255.131089585
GR,2607.77005964,1453.38275147
GR,3640.2052763,4546.0513043
GR,1803.66102848,976.687072867
GR,138.837413417,164.133539046
GR,1131.82150749,660.084449406
GR,623.240404532,693.590577351
GR,0.0,0.0
GR,3429.827212,2998.96464665
GR,3003.19299245,1170.30038086
GR,1131.82150749,660.084449406
GR,1576.50436271,720.626437293
GR,0.0,0.0
GR,623.240404532,693.590577351
GR,0.0,0.0
GR,307.252670433,406.179553703
GR,138.837413417,164.133539046
GR,4370.54878821,1034.02822132
GR,2218.74045508,1735.47276749
GR,577.937733247,719.923424976
GR,1569.18027299,613.475560928
GR,261.41888302,319.934480068
GR,0.0,0.0
GR,1489.50434002,741.869346576
GR,3482.8624563,1392.1535663
GR,307.252670433,406.179553703
GR,2622.42521465,3719.1867218
GR,307.252670433,406.179553703
BR,5936.47016551,8393.86904063
BR,10842.2824066,10560.3638174
BR,7388.15686087,8737.03893144
BR,5299.20466743,7422.39782149
BR,5634.46871352,7403.0524067
BR,6314.73270603,8738.49890626
BR,5448.20068384,7035.99172576
BR,9207.41325583,9478.03012156
BR,10183.0835484,10288.5500128
BR,7650.75716417,7718.83226858
BR,2702.53284019,1878.98036849
BR,10014.777577,10129.201934
BR,11635.657653,12253.3001532
BR,5645.45507027,7231.2290656
BR,8922.21339994,9428.39021913
BR,9724.09775496,13367.9434301
BR,8266.93287942,8266.93287942
BR,14754.4616115,14935.6464013
BR,6240.33951221,6309.27621162
BR,7610.61665475,9377.84783662
BR,10592.9988617,10555.8373177
BR,13939.4256305,14381.5751946
BR,15140.7111825,15140.7111825
BR,13047.1069439,14749.91893
BR,14495.5583305,14644.1317401
BR,9809.76391876,10102.4602865
BR,10684.7550154,10610.1357945
BR,9436.48255723,9487.28819101
BR,9534.94354911,9531.57596261
CV,1000.96795631,1036.44610673
CV,7891.49797457,9022.5999788
CV,4267.44733984,4992.72162916
CV,8843.69895737,10143.9883913
CV,7891.49797457,9022.5999788
CV,5568.69818167,5802.13981394
CV,6194.04987244,10108.8575538
CV,5914.10897455,5843.08101301
CV,10569.3376406,10680.3106956
CV,2136.09901642,3398.01219203
CV,2679.1668434,4141.73027047
CV,6774.18669436,8086.69601025
CV,9114.90930867,10720.1776326
CV,4799.7432615,6575.27048656
CV,5849.11734153,5739.53761522
CV,4396.04292402,5023.53355895
CV,6300.16956669,9692.48837531
CV,4962.38038538,5243.6942288
CV,5986.847141,9308.56675324
CV,3579.01927165,4847.76590003
CV,5242.84877588,5090.93881238
CV,8016.31094224,8952.49540687
CV,11272.8747264,12196.6565712
UZ,3523.44349471,982.518503298
CV,4514.04628803,5419.14154321
CV,7891.49797457,9022.5999788
CV,6621.45966865,6395.76478138
CV,1580.55524182,1815.19228516
CV,1000.96795631,1036.44610673
CV,9064.75165722,10524.7557841
CV,1139.19687685,3587.7622436
CV,12790.5081933,12341.4650752
CV,4747.89344247,5028.79855236
UZ,1181.29952437,1259.72807303
UZ,3709.67927453,3904.59762425
UZ,1466.73027689,2264.691871
UZ,2233.53215458,3050.37047011
UZ,2730.40158387,1973.21157434
UZ,3691.89649585,3588.81711763
UZ,827.759107601,1047.67868781
UZ,1022.13008241,1068.90004569
UZ,1379.99561672,1776.35945205
UZ,2730.40158387,1973.21157434
UZ,4057.00463895,3890.51015119
AU,18929.6403773,13145.2620577
AU,12105.1708507,11028.6740198
AU,3504.57746633,8674.91074515
AU,6062.04656999,10782.8617919
AU,3165.6774749,9417.9354943
AU,10164.1707948,9537.11586489
AU,11285.4690487,10746.541386
AU,19276.8300816,17703.2445271
AU,15094.1402399,14396.2802872
AU,14725.7631243,12414.7614581
AU,15695.1533112,15947.0918421
AU,9397.13658046,9577.11079516
AU,3504.57746633,8674.91074515
AU,8441.03571465,8825.55220617
JP,4773.33209132,4617.41788591
JP,6317.0657978,5308.28166843
JP,6070.8310233,4797.58810083
JP,7669.44727871,7342.86405596
JP,6153.00802372,6143.34154837
JP,6153.00802372,6143.34154837
JP,6288.93918527,6167.65667802
JP,6288.93918527,6167.65667802
JP,11412.5092143,10923.3023983
JP,10040.1017092,9908.16263781
JP,7981.22401286,8798.09059636
JP,6932.33892355,6735.37393868
JP,8811.94627113,9084.39160577
JP,17457.3786041,6989.39312075
JP,8254.48233661,7537.28434545
JP,7182.97819036,7346.57943573
JP,7369.213614,6943.97434923
JP,8980.71096954,6496.27407499
JP,10607.0338209,8148.68761753
BZ,5060.4404533,4979.67411171
BZ,4373.00536412,3798.35259254
BZ,2795.64910837,2031.77074875
BZ,9610.66809307,13019.4213007
BZ,1182.22450189,997.632448354
BZ,3356.74939651,5943.02911693
BZ,4244.67301971,7224.99630086
BZ,13178.8917854,14674.4443338
BZ,824.329891457,919.344619298
BZ,10352.7039415,14445.624407
TZ,6003.58895557,5278.18857836
TZ,3896.61723009,4887.4823202
TZ,1730.59336775,1530.02524663
TZ,5910.01539651,5993.43988229
TZ,3778.56950367,4739.26860844
TZ,403.413337699,482.345819664
TZ,11122.2582031,12303.4636431
TZ,8128.94653787,8232.6219307
TZ,5172.08053955,4448.89510264
TZ,9554.85122488,9299.84280645
TZ,4355.88922577,5150.90783651
TZ,5739.10216765,5312.51485177
DZ,2171.64980249,3050.69788315
LB,6260.94371352,2665.43353131
MA,7553.2537049,7876.17679903
MA,1085.38670984,4807.6144022
MA,4906.69943026,7888.16782099
UK,1060.1973189,952.376329212
UK,6722.96422126,7801.530492
UK,2866.57549042,2156.59193096
UK,2775.31704664,2771.58492955
UK,2096.98450952,1018.32398664
UK,5046.10154934,5309.34056114
UK,6799.47854197,7639.75675981
UK,6754.49203435,8200.63660766
UK,528.452198433,621.006699264
UK,3167.96949445,2577.0828189
UK,3561.74943126,5419.77203122
GE,2584.95391332,3572.21541233
GE,0.0,0.0
GE,1392.39411067,1719.17784509
GE,324.275077219,264.987856172
GE,0.0,0.0
GE,2408.60142248,3695.19420318
GE,0.0,0.0
GE,4652.74990792,4596.77990542
GE,1911.82887554,3106.85554124
GE,0.0,0.0
GE,0.0,0.0
GE,0.0,0.0
GE,1392.39411067,1719.17784509
GE,0.0,0.0
GE,0.0,0.0
GE,1392.39411067,1719.17784509
GE,0.0,0.0
GE,0.0,0.0
GE,0.0,0.0
GE,0.0,0.0
GE,4489.00024162,1762.25370895
GE,972.927623247,768.020464943
GE,1340.30063387,1397.93705939
GE,1340.30063387,1397.93705939
GE,1392.39411067,1719.17784509
GE,2155.93105717,2038.23400466
GE,0.0,0.0
GE,0.0,0.0
TZ,5798.93095867,6141.25473733
GE,2408.60142248,3695.19420318
TZ,2546.50008674,4482.11370909
TZ,1714.66246105,2238.50237058
TZ,1714.66246105,2238.50237058
TZ,1920.2758086,2800.46951072
TZ,3572.04384295,4442.34705986
TZ,3785.21806735,4687.5227901
TZ,3713.69638169,4729.7734814
KH,5364.46697516,4531.25918627
KH,0.0,0.0
KH,0.0,0.0
KH,0.0,0.0
KH,2608.8533927,1820.19783289
KH,0.0,0.0
KH,161.680449406,282.20431059
KH,161.680449406,282.20431059
KH,860.471939788,1254.23779515
KH,161.680449406,282.20431059
KH,2964.55357084,2627.28038589
KH,3420.71093673,3494.5707839
KH,4198.19981125,3833.63343449
KH,7945.18549143,7462.14602643
AM,9285.25750047,6730.19999099
BR,4296.50653266,5965.12135608
CD,4034.01499056,4159.59787077
CI,5015.11721677,5176.73218896
CV,1535.4997367,1895.92475962
DZ,4152.79005426,4627.46382692
DZ,3364.14373659,2316.41187919
DZ,4811.61344473,3306.3059775
FI,3508.18937482,5099.69786864
IN,6656.71314166,6346.42733377
IQ,1581.97353297,1392.92833759
IT,2546.42050911,1931.12268388
ML,8814.00513933,9174.47065958
ML,2162.46947557,2822.5508312
ML,12561.3740542,10674.7748712
PK,4331.00563738,4283.35657313
PK,5862.60711394,5470.13489285
RO,7635.5167609,7007.72873728
RU,8120.82834325,5757.09897772
SD,3306.4002669,3452.69389912
SN,7467.29773928,8225.2808032
TN,7332.56235251,7483.17986314
TR,2387.39384554,3492.66489598
CN,8162.05479199,8143.53085502
CO,2833.934952,1607.9927095
DZ,2889.21992464,3155.77576181
DZ,1565.87776852,359.499989286
ES,7790.90945368,7790.90945368
ES,913.822829914,1290.92566337
ET,1174.84451612,1655.90783165
FR,4184.1770005,2113.98578341
IL,9333.22566655,10569.9910351
IN,1070.773865,271.990702675
IN,5461.10090164,5449.06693847
IQ,5264.41334077,3013.117311
ML,5903.49503412,6796.10210809
ML,3423.04788503,4082.46848009
MX,12108.71887,13648.301523
NE,4307.65420197,3767.75389611
NZ,18749.6136124,15875.3688013
SN,2799.99780874,4197.9352778
TR,1623.49132533,1242.08152579
UK,6911.0547427,7687.7976598
US,11650.959307,11526.0908695
ZA,15334.1169436,10940.342222
CM,2836.56541183,3506.2795345
CU,8163.45314336,8071.86665812
EG,6687.60415927,6423.92800105
IL,1976.42390684,1246.39363273
IN,3673.17660953,3631.85760115
IN,4061.42891851,2589.65871387
MT,5936.97235453,6514.2501387
PR,11460.8564545,13181.1667945
AL,3102.44799143,4295.98741388
BA,4057.75685164,5392.39827316
BG,502.143060771,502.143060771
BG,2827.80065553,3553.44731724
HR,2376.25243792,2028.15680419
HR,2640.19401222,1889.01849497
MK,5603.80786151,5153.45484646
MK,7759.24414552,8234.70141932
RO,5006.7201001,5987.1944529
RO,7395.97827988,6784.59469632
RS,2474.94695516,1922.57771109
TR,716.445562538,658.696837705
XK,7573.95351009,9168.11446432
AL,3073.98468012,5096.49720919
AL,3947.68616869,5499.81073706
AL,2016.20836882,2011.10110404
AL,5437.59078532,6414.3167595
AL,407.114790004,463.565689571
AL,2895.87524084,1187.57475422
AL,494.388269269,509.75416581
AL,3834.93530874,1628.72314227
EG,1127.77882304,1178.31887857
EG,3569.11616024,3067.01505866
EG,4875.05790214,2547.16015862
EG,2574.36028633,2903.40220679
EG,4006.64144765,1627.69413098
EG,4673.73989924,2882.21705087
EG,7661.61428339,7829.30573676
EG,4358.5526678,5139.91327354
EG,2828.48320705,4105.15268625
EG,5050.12806228,6022.26110215
EG,3130.37420538,2214.3977102
EG,3906.31103314,4144.85399168
EG,4114.54971679,4481.10048053
MM,0.000100299715996,0.0
MM,0.000100299715996,0.0
MM,2268.4366153,862.07614825
MM,2115.16438263,1273.65230646
MM,2339.57447928,1315.9241207
MM,0.000100299715996,0.0
MM,3410.33817707,2304.49770479
MM,1090.20863192,592.85438257
MM,0.000100299715996,0.0
PK,2285.88589241,2565.68286354
PK,2174.55880391,1989.34558979
PK,4888.19890951,4920.89190245
PK,574.291566515,1003.66025119
PK,6216.57498114,1691.21587771
PK,3254.1457553,3841.07046753
PK,1518.55565486,926.020137745
PK,574.291566515,1003.66025119
PK,2185.13433168,2441.57544976
PK,6774.99847619,5822.80908178
PK,4331.00563738,4283.35657313
PK,1392.35128307,716.11248113
LT,0.0,0.0
LT,1865.52214491,4262.18824582
LT,0.0,0.0
LT,567.300448112,804.216259814
LT,0.0,0.0
LT,0.0,0.0
LT,4403.71277748,3745.85305802
LT,0.0,0.0
LT,0.0,0.0
LT,1347.60942245,1121.91209059
LT,2217.76417131,4847.06993263
LT,1068.07850508,1160.61663771
LT,2133.18889484,1934.14009249
LT,1452.90672228,1426.77840009
LT,0.0,0.0
LT,4853.56855,5941.06949083
LT,0.0,0.0
LT,2133.18889484,1934.14009249
LT,0.0,0.0
LT,0.0,0.0
LT,567.300448112,804.216259814
LT,2035.05894199,1611.12545104
LT,3976.80088541,5036.65613171
LT,4247.84114194,5206.09539104
LT,0.0,0.0
LT,0.0,0.0
LT,3774.85784413,4913.57435468
LT,0.0,0.0
TR,307.252670433,365.548124452
TR,2364.29595788,3212.16621251
19276.8300816 0.0 3772.82100551 17703.2445271 0.0 3720.9733498
