BG,98.6852131773,113.216798742
AF,2831.93266448,3026.06397908
BR,9958.46184804,9922.85947017
BR,11286.2399972,10890.6704162
BR,5829.65643736,5829.65643736
BR,15755.1307227,16456.4096797
CU,8352.80098422,8371.8099871
CU,13188.6960919,13809.772492
CV,6473.9514709,6473.9514709
ML,6827.01890398,7143.44006988
TR,1544.76842947,1167.30760653
DZ,4556.50838027,3084.80028044
EG,3744.82126231,3721.92960085
ES,3288.85057221,2339.8048536
ES,3329.71044081,3352.98603801
ES,3092.93086391,3092.93086391
ET,4848.05450144,5312.62992694
FI,6362.24101225,6362.24101225
GN,3537.15394133,3823.81093295
HR,7979.69227907,8354.80528927
IL,1209.45689466,1474.13022326
IN,6408.09517761,6086.05744742
IQ,1658.26138555,1841.9436888
IR,2717.2607815,2717.2607815
MA,3745.57629651,3591.70249444
ML,0.000100299715996,0.000100299715996
ML,1546.46543195,2344.09904263
ML,5321.73142786,5321.73142786
MX,14267.1326422,14196.3249164
MX,8017.78010394,12352.3197564
NG,5042.16179967,5179.14659018
PE,10004.7176864,10094.9992482
PL,2324.94382609,1647.62552044
PL,3933.94941124,4153.41382456
RU,7316.57008623,7316.57008623
RU,2731.11368905,2692.46956958
SN,571.404114772,435.925088347
SN,5819.48708027,6487.11053276
TR,3865.8629772,3681.72412379
TR,408.187630842,794.283442935
TV,17326.7625222,17150.666884
UK,6082.80791988,6261.38374159
UK,4269.07347566,3808.24658449
UZ,3089.53685893,3089.53685893
AR,9486.46791758,9853.09899799
BR,14741.1138728,14819.6331271
TR,0.0,0.0
UZ,7332.86543094,6640.39874146
DZ,1914.90628408,1840.39011982
UZ,1618.83419949,1993.44132596
DZ,1177.39006073,1009.92885503
UZ,3926.47495747,4004.70633954
ES,4461.00472395,4477.72321293
UZ,3457.59057786,2984.01403797
ES,6030.67743123,6753.83314933
UZ,3427.77566497,3884.07000856
GN,2077.1893171,2814.37780791
UZ,9257.09528007,8501.61591807
IS,9782.90028155,9778.25171582
UZ,3146.41103445,3503.97550631
IT,1223.18799383,1200.52258449
UZ,4701.75748327,4373.11667271
ML,0.000100299715996,0.000100299715996
UZ,4776.25900374,4400.45707769
MX,5291.87586019,6151.98099614
UZ,2402.88450451,3051.64922122
RU,7316.57008623,7316.57008623
UZ,1544.76842947,1943.49007091
SN,1142.80822954,1142.80822954
UZ,3712.36484767,3548.84841389
TR,2735.76726308,2181.86898804
UZ,4202.70213166,4202.70213166
IN,7195.59466144,7137.63649755
UZ,1224.46327088,1575.10594706
ZA,8029.79335042,7893.22780124
UZ,2436.03498551,2623.01379191
UZ,4061.72143251,4088.69771154
DZ,5538.66829986,5610.74074695
LB,5511.58851235,3045.3351933
PK,10419.1294701,9146.65482583
UK,4744.34185559,5742.72694451
UZ,12653.6494164,13127.8306143
RO,3692.12829146,4663.00607816
LT,0.0,0.0
RO,2742.50724744,1732.5531881
LT,0.0,0.0
RO,2734.48873163,2292.91923582
LT,0.0,0.0
RO,1028.28541914,1028.28541914
UK,0.0,0.0
RO,3001.47846081,1899.30661132
UK,0.0,0.0
RO,3367.40357816,4048.40783223
MA,5086.05150392,4980.49564045
RO,1028.28541914,1028.28541914
LT,2977.6589488,2649.6554284
RO,4588.55005134,5922.47407553
UK,0.0,0.0
RO,3129.48695169,2514.60362125
UK,0.0,0.0
RO,2287.77614382,1739.90906687
MA,3373.02969894,3447.83839226
RO,838.558939652,838.558939652
UK,0.0,0.0
RO,5114.73337389,5841.19224784
MA,8833.24205915,8821.09045705
RO,5551.1935284,3353.64111662
UK,0.0,0.0
RO,0.0,0.0
MA,5049.45627087,5820.24582475
RO,1028.28541914,1028.28541914
UK,0.0,0.0
RO,5231.11681768,5221.2393684
UK,0.0,0.0
DZ,4133.46643971,3286.29461326
MA,7842.01389421,8070.52362705
DZ,1456.9477799,886.73521441
MA,3672.82647568,3629.06717861
DZ,3850.93757286,3284.28481057
MA,4875.29735606,4317.506601
DZ,5987.72801868,6734.9295781
MA,3478.02999133,3016.86654859
DZ,4844.94698286,5168.68757649
ET,4138.11704466,4181.03742902
DZ,6326.48908753,7423.20060048
ET,2898.28231323,2777.40201589
DZ,4222.74282717,3651.84155992
ET,3341.42774558,3488.49890259
DZ,8873.06210151,8188.40802532
ET,6188.44226293,6245.50639336
DZ,5557.2231547,2245.45181983
UK,0.0,0.0
DZ,4133.46643971,3286.29461326
ET,4475.27824972,4102.26288446
DZ,5053.06952971,5262.48790649
ET,2213.97776191,2719.12513372
DZ,10847.7126926,10588.6880898
ET,6600.97307535,6600.97307535
DZ,6326.48908753,7423.20060048
UK,0.0,0.0
TR,1529.04799118,982.899178665
ET,2010.92999792,2407.27771802
TR,1796.53717942,1444.11467693
ET,2456.87424527,3706.05575524
TR,6271.27006959,4571.69706879
UK,0.0,0.0
TR,1100.53416735,851.4975468
ET,4116.7446964,4193.1391077
TR,5441.65848973,2797.69998182
UK,0.0,0.0
TR,474.526003635,369.383813316
ET,2456.87424527,3706.05575524
TR,3236.97573545,2305.92847397
ET,1781.18610566,2196.6657987
TR,5441.65848973,2797.69998182
ET,5006.80010505,4982.19743426
TR,1922.50385829,1922.50385829
UK,0.0,0.0
TR,1170.25821989,1188.71547368
ET,5735.74563828,4837.67588811
MM,7384.25658293,7384.25658293
MM,5671.90057903,4623.45529756
MM,419.962349015,383.798829165
MM,3300.48653768,2314.32905617
MM,0.000100299715996,0.0
MM,0.000100299715996,0.0
MM,0.000100299715996,0.0
MM,5770.15613106,2856.85994957
MM,885.131816446,997.917931759
MM,6172.48619144,4745.04698675
MM,3811.98106563,1609.35896235
MM,2323.52240231,2497.5309107
MM,3300.48653768,2314.32905617
MM,0.000100299715996,0.0
MM,0.000100299715996,0.0
MM,3300.48653768,2314.32905617
TH,4531.9774047,3726.61133993
TH,7508.81735154,7508.81735154
TH,2537.33108784,2537.33108784
TH,2866.68902213,2518.26687214
TH,8210.53369365,7228.65790528
TH,6918.80636977,6949.93413895
TH,5131.9954295,4492.01725426
TH,2744.31856385,1869.12180309
TH,7215.51632671,7318.12310065
TH,4127.63294235,3456.09914492
TH,13355.7185133,13234.4639979
TH,485.134727856,485.134727856
TH,2537.33108784,2537.33108784
TH,7420.51055237,7128.40678121
TH,5152.79677979,3770.28159982
TH,0.0,0.0
TH,2976.85066726,2014.58850504
TH,7420.51055237,7128.40678121
TH,0.0,0.0
TH,242.567363928,156.042923938
TH,5131.9954295,4492.01725426
TH,9733.64525713,9711.33626575
TH,5179.21245135,5203.21449381
TH,6433.80126802,5406.05038718
TH,5428.5606339,4245.97271475
TH,0.0,0.0
TH,0.0,0.0
CN,1583.12447245,731.947187227
CN,8470.78347957,8354.77632236
CN,2993.12809622,2997.36582098
CN,4462.67820691,4219.70706791
CN,6425.37076022,7381.63098808
CN,5269.13554731,3900.8642291
CN,13369.2265086,11228.16147
CN,10775.5527569,10022.8740057
CN,2101.43510358,1187.08083602
CN,3972.45369475,3774.64857668
CN,1249.47431431,1022.63892423
CN,2188.06953645,2370.97099198
CN,2488.70283992,2958.26379844
CN,7962.72513592,7046.16562338
CN,3309.14609241,2553.96171707
CN,11355.9099695,11307.1177155
CN,12475.2403744,10518.0683116
CN,7962.72513592,7046.16562338
CN,0.0,0.0
CN,4173.24852883,4135.57668559
CN,0.0,0.0
CN,4215.43997131,3971.42898128
CN,3303.10433839,2020.10752663
CN,6442.20067096,7015.37382677
CN,3676.29661398,3676.29661398
CN,7426.09807924,7426.09807924
CN,6940.49943734,5782.12386264
CN,6365.76519781,6073.1599897
CN,5087.84846329,4943.76308666
CN,7257.16990175,7501.93521305
CN,6619.97742401,7312.77665812
CN,5272.5227636,5362.25041889
CN,5782.03053018,5528.27437321
CN,8470.78347957,8354.77632236
CN,7984.76911472,7892.10955289
CN,9237.63526182,9105.40484691
CN,7487.33920478,6139.59372478
CN,2188.06953645,2370.97099198
CN,8172.95347547,8050.11304456
TW,4399.18373158,4399.18373158
TW,5075.05991538,4044.69331272
TW,0.0,0.0
TW,0.0,0.0
TW,0.0,0.0
TW,3816.2500623,2848.66442948
TW,0.0,0.0
TW,0.0,0.0
TW,0.0,0.0
TW,0.0,0.0
TW,0.0,0.0
TW,0.0,0.0
TW,0.0,0.0
TW,10471.5429703,10263.1905986
TW,0.0,0.0
TW,0.0,0.0
TW,0.0,0.0
TW,0.0,0.0
TW,0.0,0.0
TW,0.0,0.0
TW,0.0,0.0
TW,0.0,0.0
TW,0.0,0.0
TW,8886.15684377,9019.32262058
TW,0.0,0.0
ID,1650.31022209,1851.83381954
ID,6439.53616506,5319.22133104
ID,2353.01513519,3171.22480254
ID,6845.50604508,6279.91765403
ID,9130.81736149,8677.96317662
ID,9748.56332971,9547.69360299
ID,5847.0746607,5557.2183179
ID,5356.33555807,5336.83981298
ID,3003.73754042,3718.26550693
ID,7476.89788859,7474.568754
ID,9736.13126256,9184.99568262
ID,11472.6509088,11322.2972833
ID,11106.9528252,11195.2780531
ID,8361.61588469,8628.35934807
ID,12181.1546563,11927.4372322
ID,9722.0393686,8948.06731112
ID,9131.20553146,8992.09117744
ID,3504.98137442,3695.66526747
ID,6501.84564191,6320.86172115
ID,7483.2245862,5306.01490383
ID,9740.08661867,9740.08661867
ID,7633.6336091,7300.95518324
ID,1650.31022209,1851.83381954
ID,7668.7204544,7354.55372809
ID,7849.43276035,6508.126869
JM,3772.17276941,2590.55280915
[[18.1165505482762, -77.187396969885]]
JM,0.0,0.0
[[18.1165505482762, -77.187396969885]]
JM,0.0,0.0
JM,2761.58799807,2113.91704467
JM,3432.08092294,2450.09942197
JM,3895.45472684,2884.82843982
JM,2761.58799807,2113.91704467
[[18.1165505482762, -77.187396969885]]
JM,0.0,0.0
[[18.1165505482762, -77.187396969885]]
JM,0.0,0.0
[[18.1165505482762, -77.187396969885]]
JM,0.0,0.0
[[18.1165505482762, -77.187396969885]]
JM,0.0,0.0
[[18.1165505482762, -77.187396969885]]
JM,0.0,0.0
JM,3997.83895568,3695.02011133
JM,12306.3689515,12787.9801066
JM,3997.83895568,3695.02011133
[[18.1165505482762, -77.187396969885]]
JM,0.0,0.0
JM,10034.1526823,9936.75577741
JM,6517.97057712,8085.43769948
JM,6635.75100346,7887.16475069
JM,3895.45472684,2884.82843982
JM,11296.418333,11296.418333
JM,6635.75100346,7887.16475069
PK,4536.78821204,3520.39701226
PK,3308.94374477,4045.05645842
PK,2659.74109342,1755.25081205
PK,5634.23477729,5638.71734817
PK,1277.42021061,598.207739075
PK,3804.89024111,4294.67541268
PK,7474.84843092,6875.49674454
MA,8233.97515038,8274.86219559
[[33.041530691012, -6.644281310732901]]
MA,0.000100299715996,0.000100299715996
MA,3672.82647568,3629.06717861
MA,2408.08354675,2542.71925089
MA,1916.83104336,2141.57054396
MA,3833.66208671,3833.66208671
MA,1456.27992948,1646.09507992
[[33.041530691012, -6.644281310732901]]
MA,0.000100299715996,0.000100299715996
MA,1456.27992948,1646.09507992
MA,3672.82647568,3629.06717861
MA,2965.83726529,1582.48240068
MA,5037.10423946,4532.91525725
MA,5884.44933374,6208.15808919
MA,3804.89024111,3355.58606664
MA,1916.83104336,2141.57054396
MA,6113.61983571,7833.86757847
MA,3672.82647568,3629.06717861
UK,0.0,0.0
UK,0.0,0.0
UK,0.0,0.0
UK,0.0,0.0
UK,0.0,0.0
MA,3183.1682584,3198.96235696
MA,3939.05722353,3298.09614933
MA,10100.8690147,9670.02889747
ET,2172.76760977,2826.85044079
ET,2456.87424527,3706.05575524
ET,4116.7446964,4193.1391077
ET,9095.29847443,9517.62354069
ET,0.000100299715996,0.000100299715996
ET,2456.87424527,3706.05575524
ET,2172.76760977,2826.85044079
ET,0.000100299715996,0.000100299715996
ET,0.000100299715996,0.000100299715996
ET,9803.6546499,6344.88333153
ET,4271.2230151,4673.78281617
ET,5568.39307036,4353.35792709
ET,4217.72761329,3982.63602982
ET,3155.98944437,3013.34385604
EG,2799.20149128,3460.31458422
EG,2835.5150482,3686.78563506
EG,8712.50011945,8512.56805443
EG,3482.08959649,3562.71960602
IR,2771.47420904,2865.79917083
MA,8233.97515038,8274.86219559
[[-5.06061858629818, 109.92838672912]]
PK,6007.47508084,6007.47508084
PK,1001.8224192,932.225123115
PK,2493.01727174,3009.4705103
SN,6320.98596786,6478.40345248
TR,0.0,0.0
PK,3788.89582734,2986.54728976
PK,1310.19840611,1310.19840611
PK,655.099203053,672.050950369
PK,4423.09618499,4200.25339075
PK,655.099203053,672.050950369
PK,0.0,0.0
PK,2493.01727174,3009.4705103
PK,2348.77143292,2922.12771346
PK,10953.6027003,10391.3371354
PK,8980.45407614,6481.07944369
PK,7137.84300282,5120.89726325
PK,2366.21334614,2981.92292825
PK,4836.09449479,831.283913266
PK,3804.89024111,4294.67541268
PK,2188.84291344,2019.92977266
PK,1865.78170168,2352.14813736
PK,620.427758214,504.169796182
PK,2227.85237209,1930.64613477
PK,3975.29880256,2058.90669684
TR,0.0,0.0
TR,0.0,0.0
TR,0.0,0.0
TR,1100.27205103,497.979206934
TR,0.0,0.0
TR,0.0,0.0
TR,0.0,0.0
TR,0.0,0.0
TR,0.0,0.0
TR,0.0,0.0
TR,1650.17988829,1827.57453331
TR,0.0,0.0
TR,0.0,0.0
TR,0.0,0.0
TR,0.0,0.0
TR,1403.04755953,1528.06042077
TR,1916.83104336,1906.65151644
TR,1916.83104336,1906.65151644
TR,1916.83104336,1906.65151644
TR,0.0,0.0
TR,1916.83104336,1906.65151644
TR,5441.65848973,2797.69998182
TR,0.0,0.0
TR,4109.80415635,1746.82162913
TR,1362.23946895,686.144374746
TR,7312.75078228,6927.19228817
TR,1889.26816344,1626.22952555
TR,7392.5148878,6634.2462391
TR,1916.83104336,1906.65151644
TR,14757.0636563,14757.0636563
TR,3685.48076646,3793.39948281
TR,5441.65848973,2797.69998182
TR,5883.40505443,3708.15297041
TR,6450.3409945,5498.37132254
TR,1430.93245142,856.408760361
TR,5159.66524819,4977.91618979
TR,5441.65848973,2797.69998182
TR,0.0,0.0
TR,0.0,0.0
TR,0.0,0.0
TR,5740.77675979,2789.77503892
TR,1889.26816344,1626.22952555
TR,1779.94445465,1937.5665715
EG,4581.61254071,1879.48251252
EG,4017.06760571,3944.36141851
EG,1151.38255645,1151.38255645
EG,788.219893426,2434.47925636
EG,1083.72092206,1379.37608922
EG,7049.7486378,6736.02703819
EG,5211.65123179,5491.5930729
EG,6244.39430562,5198.33333732
EG,1151.38255645,1151.38255645
EG,4861.00368613,5383.69412106
EG,8712.50011945,8512.56805443
EG,4872.05018445,2853.64200523
DZ,1215.82013423,433.347912965
DZ,1456.9477799,886.73521441
DZ,1375.5999478,1275.05879568
DZ,1388.33700595,902.031697164
[[33.041530691012, -6.644281310732901]]
DZ,1039.50261617,1039.50261617
DZ,1749.36155324,1709.55946336
DZ,3494.51341302,2913.24872837
DZ,1657.35916173,1310.97364355
DZ,5969.84987537,4781.28493944
DZ,2744.90745348,2852.29482368
DZ,2295.57937912,2505.8056021
DZ,5619.53421102,6483.71444307
GM,9061.47854948,9748.93486826
GM,4298.17890729,4656.76739
GM,2612.36570101,3327.38045648
GM,2048.84576614,2456.4031515
SN,6835.86803377,5877.10362761
SN,13257.0269053,13257.0269053
SN,6172.48619144,7601.19680401
SN,2158.74220515,1694.12885355
SN,1576.63456172,1999.74794358
SN,9290.99571102,10114.6641155
SN,3749.42833545,3818.1605684
SN,11857.2171564,11487.4124113
SN,6172.48619144,7601.19680401
SN,6311.97888874,6311.97888874
SN,1483.25893035,1225.00977187
SN,2804.94837878,2771.37973017
SN,5771.25902421,6006.56588661
SN,3432.08092294,4508.36225723
SN,2525.31644392,2782.51543175
SN,5500.3639321,6588.92007022
SN,3432.08092294,4508.36225723
SN,7500.71704942,7453.69497049
IN,0.0,0.0
IN,0.0,0.0
IN,0.0,0.0
IN,3778.18278622,4291.62299094
IN,0.0,0.0
IN,5294.7112282,4576.81146442
IN,0.0,0.0
IN,5994.61622376,6086.30678147
IN,3472.35752132,3294.07374588
IN,5195.78311801,4871.86598235
IN,5656.12095563,5612.49332328
IN,1692.68583307,436.566106043
IN,12380.9015466,12754.0665676
IN,0.0,0.0
IN,0.0,0.0
IN,655.099203053,657.070896979
ML,4996.92691539,4796.37541215
ML,0.000100299715996,0.000100299715996
ML,0.000100299715996,0.000100299715996
ML,0.000100299715996,0.000100299715996
ML,0.000100299715996,0.000100299715996
ML,0.000100299715996,0.000100299715996
ML,0.000100299715996,0.000100299715996
ML,3658.28504312,4229.31418074
[[-5.06061858629818, 109.92838672912]]
ML,13691.0120902,13691.0120902
ML,571.404114772,745.620889633
ML,571.404114772,745.620889633
ML,0.000100299715996,0.000100299715996
ML,0.000100299715996,0.000100299715996
GN,10022.1914467,10292.0016718
GN,4791.16304094,4847.20535875
GN,2602.99502282,3429.27737552
GN,3130.64897513,4061.27802291
GN,4244.81166486,4548.905814
ML,1574.49200648,1361.07633939
ML,10459.7060258,10363.7809244
ML,4608.63814367,4814.21999315
ML,1023.81617559,1073.11779371
ML,5078.3821687,5078.3821687
ML,8843.60069118,9245.85399527
ML,5472.61239675,7182.70273978
KG,4710.84154293,4845.58828941
KG,1171.68891237,1545.93597782
KG,0.0,0.0
KG,2503.09559049,3169.54946199
KG,4324.70470535,4364.80861358
KG,4101.0071903,4101.0071903
KG,6442.50771743,5492.56565967
KG,4324.70470535,4364.80861358
KG,5242.78705903,5242.78705903
KG,5740.54508173,5256.70216145
KG,0.0,0.0
KG,5865.53420146,5433.26424484
KG,0.0,0.0
KG,2242.00347053,2906.93006408
KG,0.0,0.0
KG,1796.53717942,2157.21158794
KG,0.0,0.0
KG,0.0,0.0
KG,1716.37651148,1509.24005384
KG,0.0,0.0
KG,0.0,0.0
KG,2621.39352951,3385.85832373
KG,0.0,0.0
KG,0.0,0.0
KG,0.0,0.0
KE,4010.65999628,4987.75315278
KE,0.0,0.0
KE,5079.01188377,5319.64788989
KE,5079.01188377,5319.64788989
KE,5642.09081583,5710.17714377
KE,6678.91725362,6545.15171565
KE,5053.29524714,5213.14949854
KE,10327.8577779,7661.5726925
KE,5741.53896416,5741.53896416
KE,3635.01571994,3640.05098312
KE,3617.61204242,4878.14719444
KE,3140.14727953,3846.12615248
IR,4481.66708665,4060.98767367
IR,387.318324297,574.445425751
IR,2406.51564453,2563.43843317
IR,7503.85342129,7497.88328256
IR,4089.15746408,3384.75542596
IR,2659.89996213,2709.25728901
IR,2481.01945487,3232.54468272
IR,2425.29213974,2382.83466248
IR,1312.08808156,1451.20177022
IR,6574.23930542,6574.23930542
IR,2470.85234048,2731.15306063
IR,5765.79653333,3478.25018068
IR,292.044530025,283.246784974
IR,2413.60901742,2496.01962938
IR,2771.47420904,2865.79917083
IR,3813.22371022,3866.14084587
IR,1620.34548858,2286.09265947
IR,3963.11613554,4123.89937445
IR,4515.59310718,3911.79859549
IR,2874.02535828,2925.38386671
IR,1620.34548858,2286.09265947
IT,3097.71303947,2648.40817436
IN,3628.55003523,4231.08377994
IN,9738.91792089,9738.91792089
IT,2827.17115339,2187.14265877
IN,12310.0141327,12465.5002575
BZ,0.0,0.0
IT,2415.95124077,1447.49920629
IN,4933.30344219,4605.91077708
IN,4430.11682833,4386.58478553
IT,961.251929143,865.637906996
IN,5093.81068063,5030.64692318
IT,5075.05991538,6451.50484666
IN,7898.05750017,7707.9767253
IT,552.797697955,469.381034585
IN,8424.17189843,7512.51522528
IT,1705.98200646,1705.98200646
IN,8181.91724427,7333.49116284
IT,794.324758666,888.500176777
IN,5554.92885929,5363.39442508
IT,5964.55280518,4868.29075644
AL,8947.8183654,8847.58274911
IT,1762.61602401,789.761581583
IN,0.0,0.0
IT,3778.61002781,3599.46910638
AL,1198.30830217,527.467061483
IT,0.0,0.0
IN,0.0,0.0
IT,5075.05991538,6451.50484666
AL,0.0,0.0
IT,948.621635576,883.634700835
IN,7897.33845857,7862.22289123
IT,6390.63255121,7686.05876473
AL,4939.68506432,2802.77919769
IT,0.0,0.0
IN,2523.71544953,1823.60915277
AL,5508.64136638,3967.22502903
IT,794.324758666,888.500176777
IN,2120.84995484,1324.09228979
IT,2306.72486888,2362.92868544
AL,0.0,0.0
IT,0.0,0.0
IN,1171.68891237,808.290947301
IT,7308.56466014,7502.95951903
IN,4491.76101314,5055.0966566
IT,4528.56459287,4542.27056421
AL,4352.80538908,5364.3684714
IT,5852.79619043,6111.67186554
IN,2120.84995484,1324.09228979
IT,4229.68502091,4561.65707865
AL,0.0,0.0
IT,3386.87177668,2837.82603018
AL,497.642596538,314.519662961
IT,6298.82107734,6326.26791135
IN,0.0,0.0
IT,587.224052043,87.3521446556
IN,0.0,0.0
IT,5852.79619043,6111.67186554
AL,0.0,0.0
IT,5405.23724783,5902.79310076
PK,2182.04219212,1848.91027809
IT,638.516724805,418.219654483
PK,4876.88224514,4417.32899799
IT,2272.04628647,1484.63650116
PK,8033.01938842,8155.45428911
IT,1922.50385829,1922.50385829
BR,5011.08716392,7438.66978741
IT,1925.77300033,1253.38369519
IN,2343.37782474,2343.37782474
IT,3245.35668723,2765.09218062
AL,5802.80476226,6134.77699193
IT,4831.90248154,4831.90248154
AL,1558.7741967,540.831257583
IT,2178.95872497,1060.608485
IN,0.0,0.0
IT,1922.50385829,1922.50385829
IT,7911.34856698,6371.54762217
IN,5957.51206517,5957.51206517
IT,1922.50385829,1922.50385829
IT,5693.8931332,5804.91397781
IN,655.099203053,657.070896979
IN,5840.31917492,5514.05799216
IN,0.0,0.0
IN,9199.78481468,9381.22899011
IN,0.0,0.0
IN,4933.30344219,4605.91077708
IN,0.0,0.0
IN,1268.66554392,934.096834281
IN,0.0,0.0
IN,5674.55442041,4704.65237857
IN,1354.20800356,1287.30381929
IN,6100.06087716,6124.36987561
IN,2775.42917968,2659.94369867
IN,8374.89958641,7858.08805504
IN,3472.35752132,3294.07374588
IN,5957.51206517,5957.51206517
IN,5294.7112282,4576.81146442
IN,2523.71544953,1823.60915277
IN,0.0,0.0
IN,2523.71544953,1823.60915277
IN,0.0,0.0
IN,0.0,0.0
IN,0.0,0.0
ML,9033.72797911,9736.38809491
ML,5183.25620514,5170.64518379
ML,3047.51566915,3278.75232641
ML,2492.88735633,2588.85285322
ML,2615.4286809,2705.87838997
ML,561.591657318,2377.13032712
ML,6259.12691646,6028.67667253
ML,1214.84409457,3278.40769074
ML,4251.44160517,4251.44160517
ML,2546.46375411,2996.10943982
[[18.1165505482762, -77.187396969885]]
ML,7995.67791136,7995.67791136
ML,1355.78666269,1810.8048741
ML,0.000100299715996,0.000100299715996
ML,2914.82821868,2998.77084183
ML,3707.38490975,3972.43348096
ML,8649.40941069,8649.40941069
ML,1986.46551936,626.342248613
ML,0.000100299715996,0.000100299715996
ML,8313.31351761,8475.2499758
ML,3362.85548801,3521.49238988
ML,571.404114772,745.620889633
ML,2914.82821868,2998.77084183
ML,4787.80775928,5540.60761387
ML,0.000100299715996,0.000100299715996
ML,4119.44066159,4457.70163842
ML,1546.46543195,2344.09904263
ML,0.000100299715996,0.000100299715996
ML,0.000100299715996,0.000100299715996
ML,6597.09219888,7705.92614049
ML,4787.80775928,5540.60761387
ML,4119.44066159,4457.70163842
ML,1023.81617559,1073.11779371
ML,2660.86571393,2725.45911983
ML,4787.80775928,5540.60761387
ML,5671.90057903,6729.07475095
ML,1644.41263619,3437.1536867
KG,0.0,0.0
KZ,6562.82489856,6133.29686535
KZ,5964.10827866,5444.65839324
KZ,1726.92712318,2120.68943202
KZ,2115.0856144,2790.64328673
TJ,8257.78586397,8257.78586397
TJ,5743.32615568,5073.1337811
TJ,3105.37629565,3755.29122259
TM,2334.70677144,2999.88156333
TM,2457.40845605,2457.40845605
TM,344.56316069,396.502012151
UZ,344.56316069,304.391835736
UZ,1581.22237457,1966.82023509
UZ,3229.94323743,3604.42491253
UZ,620.427758214,763.076062414
UZ,5560.05280041,5560.05280041
UZ,1850.3028863,2321.53078556
KE,2412.73164504,2739.44862882
KE,0.0,0.0
KE,0.0,0.0
KE,0.0,0.0
KE,0.0,0.0
KE,0.0,0.0
KE,0.0,0.0
KE,0.0,0.0
KE,0.0,0.0
KE,0.0,0.0
KE,0.0,0.0
KE,4599.47931348,4619.05214986
KE,0.0,0.0
KE,6010.21420578,5007.79204168
KE,3635.01571994,3640.05098312
KE,0.0,0.0
KE,0.0,0.0
KE,4059.53607906,4485.36241383
KE,7528.1416382,6388.58427578
KE,7481.94744656,6471.01478593
IT,3513.94228833,1886.79140956
IT,0.0,0.0
IT,4348.52703207,3574.06816029
IT,3472.35752132,3652.08726336
IT,961.251929143,865.637906996
IT,5208.67522119,6223.81228224
IT,2517.81017634,1853.68871747
IT,961.251929143,865.637906996
IT,961.251929143,865.637906996
IT,1762.61602401,789.761581583
GR,922.40057451,922.40057451
GR,461.200287255,547.590758657
GR,4434.60635771,5554.06728464
GR,612.582799745,600.332436169
GR,6410.47384971,6070.14648009
GR,461.200287255,547.590758657
GR,2348.77143292,1776.79529544
GR,1997.04770971,1413.56447743
GR,922.40057451,922.40057451
GR,461.200287255,547.590758657
GR,461.200287255,547.590758657
GR,476.835071911,637.967554711
GR,1847.16181404,1277.79020134
GR,419.279469826,444.69170285
GR,461.200287255,547.590758657
GR,251.071530385,275.336153727
GR,5005.90366247,2812.54142952
GR,4825.55581792,5267.41409436
GR,1053.73247332,989.382995966
GR,4251.44160517,4251.44160517
GR,1358.63039075,1186.36195953
GR,0.0,0.0
GR,208.285676686,268.912861775
GR,461.200287255,547.590758657
GR,0.0,0.0
GR,0.0,0.0
GR,2678.82441077,2471.75623958
GR,0.0,0.0
GR,461.200287255,547.590758657
GR,2412.73164504,2206.17273198
GR,0.0,0.0
GR,937.573102854,955.460274726
GR,0.0,0.0
GR,461.200287255,547.590758657
GR,0.0,0.0
GR,1149.33758167,1405.05666223
GR,1997.04770971,1413.56447743
GR,870.274619331,946.164848724
GR,2412.73164504,2206.17273198
GR,251.071530385,275.336153727
GR,0.0,0.0
GR,2779.95937323,1949.70938982
GR,2324.83933143,1383.94007074
GR,0.0,0.0
GR,4214.85224742,5125.56700131
GR,0.0,0.0
BR,3672.82647568,3960.26337038
BR,12595.7572581,12337.3754388
BR,7535.17439325,8024.05735691
BR,3672.82647568,3960.26337038
BR,5982.83467743,6678.06741274
BR,5005.90366247,7204.69456615
BR,5982.83467743,6678.06741274
BR,9105.30483372,9474.87219212
BR,10011.8073249,10011.8073249
BR,7804.41248281,7822.6885681
BR,2761.58799807,3666.10659016
BR,10883.3169795,10883.3169795
BR,11999.616466,13188.2481001
BR,6936.81734279,7437.6995857
BR,9262.83973738,9639.28657938
BR,4939.68506432,7079.23113354
BR,8266.93287942,8266.93287942
BR,11909.1480182,10041.6056326
BR,7642.90924017,8052.05722843
BR,9396.98343409,9770.62182738
BR,10447.5304949,10552.0102406
BR,14313.6935412,14733.0033715
BR,15140.7111825,15140.7111825
BR,16337.6097414,15858.7029954
BR,14606.9854783,14681.799059
BR,9572.36833977,9709.95108631
BR,10585.0207314,10549.7034114
BR,9489.66674507,9537.84008551
BR,9601.35852354,9598.69175611
CV,1023.81617559,1026.19201146
CV,8441.69701673,8767.82208751
CV,3078.86788235,3720.07149778
CV,7559.41882494,7021.788679
CV,6127.06745402,6547.28579279
CV,4656.7445424,4721.85480029
CV,6635.73850721,8175.60789031
CV,5636.13991692,5563.86522787
CV,10764.7958249,10822.0292366
CV,2779.95937323,3695.26837367
CV,1023.81617559,1026.19201146
CV,4677.00923508,4736.5639486
CV,6942.26184468,8591.33433347
CV,5674.55442041,6662.74298559
CV,7270.03143987,7270.03143987
CV,3236.97573545,4204.30325943
CV,7383.06884136,9208.94364506
CV,4776.25900374,5156.88627668
CV,2415.95124077,3385.17450968
CV,2936.73978442,2809.08084695
CV,5093.00485442,4996.97020969
CV,10764.7958249,10822.0292366
CV,9801.38485754,10646.3172713
UZ,6975.80815475,4965.19025651
CV,6934.01695721,6431.40607606
CV,6127.06745402,6547.28579279
CV,7079.52493671,6954.26468317
CV,4676.81101511,5733.31787019
CV,1023.81617559,1026.19201146
CV,6004.16831763,5679.98908471
CV,3810.00158926,4769.48135705
CV,14982.0179073,14982.0179073
CV,4050.33777422,4257.23596368
UZ,1997.04770971,2591.6415779
UZ,3427.77566497,3884.07000856
UZ,1544.76842947,1943.49007091
UZ,0.0,0.0
UZ,4426.27440467,4265.72841159
UZ,3540.77211877,3446.51423066
UZ,1240.85551643,1240.85551643
UZ,2402.88450451,3051.64922122
UZ,0.0,0.0
UZ,0.0,0.0
UZ,3540.77211877,3446.51423066
AU,17175.4218141,17452.5074466
AU,10389.3247529,10368.4740556
AU,7378.53182817,8851.25957357
AU,4869.45896044,7683.14821391
AU,8337.64669353,9483.68554445
AU,11039.7564417,11039.7564417
AU,9174.28574592,10278.3542592
AU,20182.1764846,19125.5115924
AU,17559.8506186,17546.6385945
AU,18506.6001818,17955.0202145
AU,14553.7147158,15218.2682209
AU,10389.3247529,10368.4740556
AU,7378.53182817,8851.25957357
AU,7172.20679375,7256.9267874
JP,4452.26695237,4544.57351083
JP,7676.39948363,7899.9660065
JP,8375.90037814,6622.12913969
JP,8467.1093972,8179.05485183
JP,6031.39281593,6099.28705039
JP,6307.93430071,6197.37792988
JP,6265.10493891,6265.10493891
JP,6307.93430071,6197.37792988
JP,12327.8808875,11631.978393
JP,8029.63738336,8624.5165823
JP,9058.93246809,9598.9446547
JP,7606.46142742,7559.4103961
JP,9159.49503367,9259.31267443
JP,16663.9374072,15844.2184322
JP,7489.1169732,6583.50866093
JP,6265.10493891,6265.10493891
JP,8286.5061704,7978.29304415
JP,7606.46142742,7559.4103961
JP,13650.6747873,13418.0559712
BZ,4705.84069847,3714.48085657
BZ,3208.35649916,2386.49143915
BZ,3208.35649916,2386.49143915
BZ,13343.2381064,13289.9936745
BZ,1792.628986,1670.52481653
BZ,0.0,0.0
BZ,7862.39503575,9649.20175249
BZ,7248.39724171,8037.55644966
BZ,0.0,0.0
BZ,6937.48288121,8351.69555181
TZ,9293.64902194,9579.45020256
TZ,3097.71303947,3581.34531922
TZ,0.0,0.0
TZ,6133.00814732,6141.63385413
TZ,2635.02849456,2985.52086659
TZ,302.514709445,396.686966341
TZ,9861.87798952,11130.2057136
TZ,7520.07784351,6537.9548423
TZ,7749.85979159,7631.19815038
TZ,11239.9401139,10928.5010662
TZ,3890.99648089,4666.07406716
TZ,5876.87026871,5551.63643869
DZ,1121.68590522,327.82584548
LB,15509.9230454,12909.8248067
MA,9950.01724315,9267.53939253
MA,1755.99407897,350.850481456
MA,5272.23379514,7663.12083898
UK,794.324758666,707.449554803
UK,5740.23992346,5735.18140073
UK,4673.86281069,3578.18767027
UK,2354.99390853,2262.76036695
UK,3932.30806686,5136.5728108
UK,3735.06463419,3678.41410142
UK,5327.89912239,5947.15627799
UK,5177.65685361,5209.08244894
UK,794.324758666,707.449554803
UK,4673.86281069,3578.18767027
UK,5831.09788752,6631.11819652
GE,4363.36693662,4374.67810082
GE,0.0,0.0
GE,2120.84995484,2920.57133474
GE,2245.16839709,2343.49395027
GE,0.0,0.0
GE,0.0,0.0
GE,0.0,0.0
GE,2697.37357564,3755.44706198
GE,3816.2500623,5006.59566464
GE,0.0,0.0
GE,0.0,0.0
GE,0.0,0.0
GE,0.0,0.0
GE,0.0,0.0
GE,0.0,0.0
GE,0.0,0.0
GE,0.0,0.0
GE,0.0,0.0
GE,0.0,0.0
GE,0.0,0.0
GE,4369.80495014,2674.2715884
GE,1469.94482782,1475.94183672
GE,1361.09599633,1516.57470002
GE,932.874705451,1169.07373526
GE,0.0,0.0
GE,463.955594711,935.429139142
GE,0.0,0.0
GE,0.0,0.0
TZ,5331.6378898,5116.07851019
GE,0.0,0.0
TZ,3802.45066757,5112.80689882
TZ,2635.02849456,2985.52086659
TZ,2635.02849456,2985.52086659
TZ,2972.20857973,3123.04576456
TZ,2635.02849456,2985.52086659
TZ,2952.6531501,3320.26219568
TZ,3249.82370649,3457.72467144
KH,3351.25381409,2977.70834441
KH,0.0,0.0
KH,0.0,0.0
KH,0.0,0.0
KH,0.0,0.0
KH,0.0,0.0
KH,0.0,0.0
KH,0.0,0.0
KH,0.0,0.0
KH,242.567363928,354.517472937
KH,4918.65291571,3826.90468684
KH,7181.64278331,5445.04718763
KH,9902.89862209,6870.10324788
KH,10380.4633622,10353.8933357
AM,11958.409073,12773.0223712
BR,2761.58799807,3666.10659016
CD,5130.06479279,5130.06479279
CI,4842.78797226,5203.94903817
CV,2075.59478546,2169.33871347
DZ,6326.48908753,7423.20060048
DZ,5143.50708971,5922.02211741
DZ,2852.31774274,1328.29064007
FI,5954.82734339,6535.92237881
IN,7682.9953805,7266.86000229
IQ,1928.53959956,1367.89654229
IT,2084.63767448,2272.04186455
ML,12325.3645414,12546.7799564
ML,2125.72080259,2787.53110497
ML,12973.3299094,11218.8745927
PK,4237.88003525,4168.51601753
PK,4822.67909314,4693.38604941
RO,9243.40820421,9737.17349273
RU,6966.44764845,6191.31079392
SD,2767.73948128,3153.46480632
SN,8413.47702103,9741.85098495
TN,10258.4796132,10027.8484618
TR,1000.63868562,426.631849358
CN,8476.11075441,8130.06332586
[[18.1165505482762, -77.187396969885]]
CO,1472.66137971,1472.66137971
DZ,2961.51746185,3159.66597745
DZ,1984.11987334,1692.40564927
[[18.1165505482762, -77.187396969885]]
ES,7790.90945368,7790.90945368
ES,1464.34585889,1448.49786551
ET,1781.18610566,2196.6657987
FR,4341.90487966,2499.45230019
[[18.1165505482762, -77.187396969885]]
IL,11510.1366649,11510.1366649
IN,0.0,0.0
IN,5619.90137009,5336.55053768
IQ,2572.19209983,2700.55142909
[[18.1165505482762, -77.187396969885]]
ML,7995.67791136,7995.67791136
ML,2539.19108435,3395.35296602
MX,13216.5598263,13251.2221499
NE,5025.22823005,5254.53904414
NZ,17998.3831576,19674.70043
SN,1766.31554895,2641.3519732
TR,2544.68676661,1845.71270604
UK,7926.59255353,7926.59255353
US,12650.0417732,12845.2022685
[[18.1165505482762, -77.187396969885]]
ZA,13082.9429667,13082.9429667
CM,3239.28145821,3778.65338593
CU,8470.09333467,8470.09333467
EG,6319.24182866,5478.48460356
IL,1983.97316438,1228.72353342
IN,5445.47259895,5451.18682087
IN,6576.75010361,6608.2614417
MT,5504.87421003,5937.91869948
PR,9405.91241801,9469.77355629
AL,3586.86637857,3534.4417037
BA,5877.18899906,6584.88740409
BG,502.143060771,502.143060771
BG,2357.30797885,2537.90619661
HR,1571.11377137,892.927216844
HR,3968.98538235,3603.62288333
MK,7404.06440326,7255.61927698
MK,7141.59881537,6676.11730219
RO,7031.78065815,6574.88591959
RO,5857.72106858,5857.72106858
RS,2944.1183215,2415.24954657
TR,1074.64508214,1074.93837812
XK,6274.66421017,7778.47070327
AL,4934.98305183,6010.9794297
AL,4166.64434537,4463.07923848
AL,3132.61117651,3476.17602504
AL,3742.43434639,4441.61340811
AL,0.0,0.0
AL,4939.68506432,2802.77919769
AL,743.83271843,670.799395399
AL,1889.67766116,899.023863248
EG,1146.85119215,1226.36748723
EG,4017.06760571,3944.36141851
EG,483.266574817,612.046871964
EG,2028.72940389,1794.21586191
EG,1402.69148338,1499.34944263
EG,1602.49280145,1683.675687
EG,8994.78170457,8724.12916718
EG,6459.23244925,6074.38362855
EG,1838.01974153,1905.57925634
EG,6605.16782294,6949.76973251
EG,2066.12789711,1830.43705384
EG,3843.24488574,4002.36624346
EG,3710.68667747,3710.68667747
MM,0.000100299715996,0.0
MM,0.000100299715996,0.0
MM,419.962349015,383.798829165
MM,3300.48653768,2314.32905617
MM,3692.12829146,2923.39298411
MM,0.000100299715996,0.0
MM,0.000100299715996,0.0
MM,1650.31022209,1491.69652067
MM,0.000100299715996,0.0
PK,655.099203053,672.050950369
PK,2827.17115339,3467.94802718
PK,4986.03454348,4986.03454348
PK,360.952975801,460.743808124
PK,3704.90948315,3477.6416619
PK,2366.21334614,2981.92292825
PK,2970.13062773,3444.16053005
PK,360.952975801,460.743808124
PK,3392.83726724,3532.47126976
PK,7421.66642564,7163.955413
PK,4237.88003525,4168.51601753
PK,2827.17115339,3467.94802718
LT,0.0,0.0
LT,2706.56952913,4872.94367801
LT,0.0,0.0
LT,852.991003229,935.512598661
LT,0.0,0.0
LT,0.0,0.0
LT,5722.63866189,6060.30887556
LT,0.0,0.0
LT,0.0,0.0
LT,0.0,0.0
LT,4358.12174168,6176.36669644
LT,852.991003229,935.512598661
LT,0.0,0.0
LT,1345.62211518,1332.8597222
LT,0.0,0.0
LT,2050.50359515,1846.63692165
LT,0.0,0.0
LT,3331.35347305,2370.09184258
LT,0.0,0.0
LT,0.0,0.0
LT,852.991003229,935.512598661
LT,3164.39207781,1955.64293035
LT,4358.12174168,6176.36669644
LT,4101.0071903,4101.0071903
LT,0.0,0.0
LT,0.0,0.0
LT,4727.85769572,5756.51237546
LT,0.0,0.0
TR,0.0,0.0
TR,575.691278225,809.779696354
20182.1764846 0.0 3902.21196423 19674.70043 0.0 3853.39983062
