BG,2299.91037907,1243.41256182
AF,1112.65336429,863.805259794
BR,13042.847235,14560.7706565
BR,9291.51450207,9758.85005402
BR,5101.67498381,7057.19292295
BR,14400.6701377,14907.3229106
CU,7248.08840629,9026.03998468
CU,11171.8941385,11365.9681043
CV,3072.96806138,4769.51852065
ML,4004.59751577,4967.97381095
TR,197.71945358,201.523603239
DZ,698.324382364,5444.53219173
EG,2596.01128758,1218.12732894
ES,4004.05392243,2480.6864282
ES,2671.60525659,2597.49361349
ES,2382.33321752,426.228560389
ET,6399.8067595,4971.0073983
FI,5437.91525023,6087.30813989
GN,1786.5753245,2842.27727172
HR,2193.29618154,5031.28216971
IL,2455.52704828,1413.69084477
IN,5310.950376,2864.14739951
IQ,3028.89600018,2092.99649246
IR,692.863627341,734.222242567
MA,1990.21865722,4721.39712915
ML,275.448262193,2493.58006452
ML,440.866152837,679.50106108
ML,4285.85848822,4866.29907608
MX,15106.3271332,15322.8003267
MX,11347.5216474,14360.7762148
NG,3617.39156105,3345.25470144
PE,8669.00282906,10873.0485665
PL,1012.4783357,4516.03167279
PL,1864.07245448,1326.03720141
RU,7661.63878836,5072.0961172
RU,3692.57211503,3346.55492466
SN,952.849056571,946.922003277
SN,3308.47922168,6409.70792465
TR,4294.5395733,4171.99369033
TR,2621.74969453,1371.72573632
TV,18411.2534331,17840.5033339
UK,3196.63689571,6052.33627159
UK,5369.07353828,7035.15255319
UZ,4475.14457299,4257.48159319
AR,9200.84456865,10049.9706423
BR,10128.1002053,10820.7948887
TR,307.252670433,365.548124452
UZ,4901.1819664,2999.19757271
DZ,790.584799093,3973.41294843
UZ,2893.82333881,1319.56899745
DZ,1462.70554802,640.812574987
UZ,1531.68967419,1430.69132029
ES,2797.62395674,3864.08431175
UZ,3268.76995012,1751.01048975
ES,2943.09405319,2857.36212114
UZ,3964.0729505,2553.85416067
GN,3725.69493504,4457.6644308
UZ,5325.77565413,1453.50082524
IS,8083.46570323,8330.69852703
UZ,5917.30766222,1835.20172371
IT,2653.76780689,1722.94332798
UZ,4350.74249684,4189.08352197
ML,2810.54819172,3917.68336338
UZ,2694.7143123,1776.72280909
MX,9821.13674708,13476.7136007
UZ,3116.10461936,3684.76592845
RU,7508.12334257,4877.74833644
UZ,2746.81540325,3343.32719392
SN,1383.37094589,1564.60917086
UZ,1792.41076461,1402.10241717
TR,3243.07548955,1428.99060424
UZ,3981.94033161,3960.6093666
IN,3097.56762344,1882.58467493
UZ,2697.9456427,1781.92822242
ZA,8251.43015591,7417.4660496
UZ,3139.43795502,683.457884649
UZ,4359.96552102,3912.55520444
DZ,5661.90641264,7195.1753975
LB,2098.81399326,3721.71420111
PK,7048.38070082,5139.66647384
UK,5808.06781144,7185.83411755
UZ,7091.64087826,2416.85770466
RO,2406.57997943,3467.54703952
LT,0.0,0.0
RO,1718.8209484,1845.3039957
LT,282.635539124,620.153729165
RO,2942.84246864,3781.16474594
LT,0.0,0.0
RO,685.820466268,667.123082938
UK,0.0,0.0
RO,2548.83015687,4407.77162639
UK,0.0,0.0
RO,2303.04491309,2414.12256788
MA,5946.67515362,6913.35268265
RO,1545.57706242,1563.08104173
LT,2825.68047937,2469.32486365
RO,6669.96894389,6592.17278769
UK,0.0,0.0
RO,2452.25494215,2817.16283021
UK,0.0,0.0
RO,2100.13370201,2041.25779095
MA,3055.43774421,6824.72200965
RO,1938.06587662,3978.8720327
UK,0.0,0.0
RO,3194.65272702,3317.47474763
MA,7643.81051902,8641.11705667
RO,3645.06367164,1927.69158567
UK,0.0,0.0
RO,1709.24951236,3310.91594136
MA,1265.04717441,4122.88826228
RO,1028.28541914,1028.28541914
UK,0.0,0.0
RO,3078.26366019,3611.57786352
UK,0.0,0.0
DZ,2917.20026364,5174.10137161
MA,6174.48927981,7181.80334119
DZ,816.093428537,452.239171904
MA,2210.80167139,5149.77614745
DZ,4293.58822147,4736.73949779
MA,6735.33644664,7765.92714345
DZ,2917.20026364,5174.10137161
MA,3912.45486446,4671.59201983
DZ,3270.56527804,3395.69042105
ET,2789.18415712,3260.72371238
DZ,3629.98224026,4865.22124567
ET,2022.72039332,2416.31554899
DZ,2779.98799801,2342.32646978
ET,2523.85517568,3082.05592343
DZ,4850.62244804,5974.13360233
ET,5219.67368663,3043.48889667
DZ,1802.78474821,4661.83368619
UK,0.0,0.0
DZ,2428.30939341,1176.08009905
ET,2619.66243333,4254.06215657
DZ,3112.628575,2769.04501968
ET,3089.59088014,2329.24967641
DZ,3166.02349019,6584.20003376
ET,5239.6773305,6086.04139864
DZ,3601.68500315,6825.45856562
UK,0.0,0.0
TR,1749.07259429,3962.65220079
ET,3134.87267585,3340.54703079
TR,2062.15657539,4228.20959418
ET,2457.91616662,2932.80393843
TR,873.770422009,3477.25356153
UK,0.0,0.0
TR,516.647902102,2037.22516754
ET,4470.8573007,3625.7073831
TR,592.512770447,3771.79636178
UK,0.0,0.0
TR,1322.1089685,3059.60657072
ET,777.835017872,2535.30236115
TR,1606.38068679,1211.8085908
ET,2919.6171369,3723.45553277
TR,6021.65606146,700.372416248
ET,3802.59514645,3091.70291482
TR,195.558408796,2217.05987896
UK,0.0,0.0
TR,1522.13937613,1245.01558019
ET,2768.50402391,1965.47283294
MM,9824.63584543,8179.59769356
MM,4591.7410885,2828.82977479
MM,6115.83371623,4606.06325045
MM,999.108304591,468.796303234
MM,0.0,0.0
MM,2209.78890881,1739.67346319
MM,0.0,0.0
MM,6190.78414309,2968.40024333
MM,4483.70389344,2831.86256346
MM,3410.33817707,2304.49770479
MM,2557.33048241,1536.18918917
MM,4523.08443342,2603.35000308
MM,1745.54823671,830.338273336
MM,4948.7210158,2913.95821801
MM,0.0,0.0
MM,5791.94975505,2723.91525517
TH,7089.10734305,5387.68308618
TH,7179.01239603,7808.10066373
TH,2901.5820662,3068.57203681
TH,5026.93036757,3221.98241647
TH,3405.99414479,3121.25276264
TH,8550.11583527,4069.82800269
TH,7540.18075682,7149.83252964
TH,4760.13160092,3191.19999402
TH,4472.08508241,3129.58003047
TH,5170.39669725,4112.4090707
TH,9196.34987589,4583.11435378
TH,990.937251591,2814.00309459
TH,5207.51451251,3432.60471795
TH,8684.75630471,8677.02701293
TH,3070.74727983,2135.07246195
TH,468.075774564,881.158080264
TH,7964.43119129,4095.66779252
TH,9995.83911786,6425.23146054
TH,2574.0084871,2985.80206746
TH,1406.41647121,1710.38303717
TH,4752.34912483,3428.86635383
TH,6731.69419371,4167.53238842
TH,5115.34438917,4220.61607028
TH,1231.24999827,2827.4721569
TH,6459.90990463,5009.77415184
TH,1013.98949374,1727.12964847
TH,1013.98949374,1727.12964847
CN,4439.96012482,3588.3660596
CN,6783.87943957,7322.23135774
CN,4356.7905916,3624.1306477
CN,2005.38425252,2625.2448562
CN,5302.23248625,3833.73447721
CN,4130.80096483,3571.78503937
CN,5933.36037366,3883.8115922
CN,8296.76081083,7853.38882941
CN,6211.42408344,4026.27982811
CN,8289.34570404,5599.4391595
CN,1188.82308551,2257.66712439
CN,3768.52889907,3147.22761306
CN,2776.89898727,2414.05663018
CN,8292.44002578,7513.98649168
CN,5363.51626266,3889.33340462
CN,11484.8104566,7776.18748532
CN,7870.30819585,4213.89157744
CN,10192.7751528,7826.17138145
CN,6826.50521192,5507.55819648
CN,6941.3714943,5833.79749682
CN,3092.68350601,3543.03360213
CN,4781.03698188,3610.21591059
CN,4775.32936066,3648.95562118
CN,6268.50511418,3933.90744672
CN,3897.46374568,3182.1193487
CN,8378.47253191,8244.09072857
CN,8952.00419356,8740.91160788
CN,6590.534585,4228.00066971
CN,6025.9912634,5673.9932278
CN,3488.18518654,2842.58086577
CN,5968.86046663,5486.22246952
CN,6177.0386576,4204.91310437
CN,6720.33596906,4952.73089615
CN,9425.62657308,7519.10054043
CN,6355.37981184,5634.05235034
CN,3973.84826331,3190.39125217
CN,5519.85866518,3709.87559845
CN,7086.66463676,5615.96115817
CN,7540.29522051,7194.6001519
TW,5345.38242472,4779.73473686
TW,4186.10362409,3624.70764247
TW,1114.31230121,2530.6312711
TW,4410.27186369,4517.75212322
TW,0.0,0.0
TW,2408.60142248,2660.62341923
TW,0.0,0.0
TW,1303.02939034,3165.75067626
TW,0.0,0.0
TW,0.0,0.0
TW,1354.27437181,3842.10862067
TW,1114.31230121,2530.6312711
TW,0.0,0.0
TW,11401.8572923,9569.89353084
TW,0.0,0.0
TW,1114.31230121,2530.6312711
TW,1310.08337944,3319.36254719
TW,0.0,0.0
TW,0.0,0.0
TW,0.0,0.0
TW,0.0,0.0
TW,0.0,0.0
TW,1202.72839632,4424.83508001
TW,4063.49253033,3609.2906336
TW,2013.93117978,2606.10231007
ID,3486.42996558,4102.35641257
ID,6758.29812038,5472.63153481
ID,11270.5585867,7463.97273701
ID,9415.70279569,6763.43508884
ID,8747.31676765,7102.72136602
ID,5388.54509328,4642.6545231
ID,8526.4916518,5934.17349346
ID,5628.78743164,4740.05526951
ID,7245.16142004,5753.31176113
ID,6517.14950946,5512.68190181
ID,10494.4834304,9312.35058152
ID,10632.2950685,6726.83920505
ID,11732.0717482,10933.3056271
ID,9981.8787024,10297.6358876
ID,7139.71689525,5585.35181547
ID,10734.4328324,9409.98540575
ID,10948.6967576,7795.47362055
ID,5525.06251512,4684.06186844
ID,9575.99442968,6060.43315041
ID,4901.89499283,4237.05315695
ID,8247.40430727,6093.21702328
ID,9728.20837042,9227.65737061
ID,3218.60927688,3916.25447685
ID,10151.8103339,6350.91560311
ID,5961.16368307,5458.15187231
JM,1667.79807657,1283.7153597
JM,1326.92725287,6445.55194527
JM,2595.89504849,2446.49675249
JM,1913.3474717,1599.13785336
JM,5816.22748846,6711.58913239
JM,2409.62297309,1405.56177768
JM,3759.66814308,6077.97910103
JM,0.0,0.0
JM,1047.08623144,1106.76798733
JM,1196.45154156,2091.3091053
JM,2409.62297309,1405.56177768
JM,2969.78510705,1892.99158395
JM,1150.55198674,1257.60448875
JM,11047.6666633,13462.4495863
JM,1197.41205749,1200.40912912
JM,4513.4872678,6367.72334658
JM,10831.7236952,10411.353294
JM,7402.21778938,9606.92899825
JM,2773.42505315,6541.92721113
JM,2969.78510705,1892.99158395
JM,9741.37818102,13759.8334659
JM,5134.69744541,6568.70221898
PK,646.793015923,622.945810198
PK,4247.58559153,4410.40844098
PK,2795.00718332,2451.48385352
PK,3612.23091987,3271.96103438
PK,3568.09264648,1884.7364536
PK,3848.07817182,1447.92841157
PK,5005.51038458,601.925428286
MA,4278.10997609,4421.40755291
MA,2259.11656172,2465.25374458
MA,1357.73245622,975.173935164
MA,1687.42328917,2196.43131792
MA,594.981989771,2327.08474471
MA,970.728495417,2663.80786758
MA,3051.9475539,4189.52381625
MA,1077.7340936,2039.0734828
MA,1900.0440747,2419.05430887
MA,1976.52018673,607.465686632
MA,1363.84537071,2173.44508005
MA,3144.59446402,7213.90103179
MA,3289.52851597,4017.45730112
MA,1585.71773469,576.007049075
MA,693.026509606,1838.55406363
MA,1068.65357018,6135.15932659
MA,1798.49053827,1020.80453868
UK,0.0,0.0
UK,0.0,0.0
UK,428.623988452,1066.65752054
UK,0.0,0.0
UK,0.0,0.0
MA,2815.35130013,6978.57385111
MA,1380.88719918,4004.86796727
MA,7133.95543923,8240.77766803
ET,2609.50384664,3728.68655853
ET,217.603064187,1909.86335065
ET,3688.93028343,3442.62036596
ET,8346.00665475,7518.34039738
ET,857.150153939,2250.17836481
ET,1870.29132895,3872.6470932
ET,1730.72782764,2481.27035833
ET,1427.87254,2575.69544722
ET,2951.84880506,3690.60417724
ET,3224.7948883,4730.7941952
ET,2434.5443576,3458.59933945
ET,10345.1039367,3108.04683975
ET,3443.11230491,3436.3707726
ET,3203.73605391,2210.70528539
EG,2064.15617078,2298.07627836
EG,134.401613385,820.520735109
EG,3222.62332712,4448.05751965
EG,2225.16218624,1448.88378421
IR,3451.61129596,3044.30838923
MA,4422.89662389,6050.43317365
PK,1018.16503298,1836.68176379
PK,589.668709649,229.405119203
PK,2031.9085572,1717.64988177
SN,6526.13002679,9358.43603793
TR,1714.66246105,929.963481236
PK,5222.65646669,3625.40313574
PK,2196.34049217,338.374818503
PK,1532.38688905,835.717836939
PK,4001.03429654,419.685687685
PK,1140.51762017,694.583643077
PK,2494.87782627,353.944333771
PK,1430.95323216,1985.72794611
PK,2354.499097,2922.39876812
PK,10942.6951945,10300.4976294
PK,7779.3173561,5609.3007648
PK,9526.5086338,7353.60423936
PK,3237.65206531,541.991307505
PK,4002.30545294,291.269879406
PK,3399.1199678,2187.52010877
PK,3081.87531229,2920.49149751
PK,1804.98157306,595.846398701
PK,950.011201308,1033.42555865
PK,2261.60268203,2498.1748373
PK,3027.51568631,115.792053926
TR,153.46594607,219.961694383
TR,0.0,0.0
TR,800.947548501,925.448670285
TR,691.405949211,3473.58046986
TR,748.359356109,1160.83051382
TR,171.01026987,188.007988747
TR,153.46594607,219.961694383
TR,171.01026987,188.007988747
TR,0.0,0.0
TR,0.0,0.0
TR,749.380541129,908.799899096
TR,0.0,0.0
TR,0.0,0.0
TR,153.46594607,219.961694383
TR,171.01026987,188.007988747
TR,1616.89277029,1200.46558731
TR,1257.9931253,1443.84755249
TR,3433.96348722,1674.43252108
TR,3799.72939802,2420.5024495
TR,153.46594607,219.961694383
TR,1257.9931253,1443.84755249
TR,1339.31909175,2748.04005102
TR,1294.86002994,962.532778814
TR,3669.9428054,1714.64015941
TR,486.662946968,477.019960219
TR,390.121845103,3779.83864506
TR,692.499932176,3834.29750395
TR,3551.32611043,4451.77971148
TR,1383.58138681,3870.84860656
TR,7755.09842121,3915.07321114
TR,1379.84784478,3744.83870748
TR,1637.91734623,3719.47658539
TR,2787.36286476,3121.36635102
TR,232.855741541,3670.18736307
TR,719.057898271,2886.15710766
TR,2802.66503139,2310.76047523
TR,1225.34006882,3607.27443327
TR,652.395418073,2625.37073234
TR,638.885140239,695.248832229
TR,558.05352879,2551.55124224
TR,1996.16444732,3353.36461822
TR,61.2206849707,591.960311752
TR,2047.49825864,2097.88064647
EG,3127.55892416,4012.63886395
EG,2193.6819584,1485.81369385
EG,2309.90045497,1589.81332725
EG,2492.86669519,1322.3567956
EG,871.461276955,715.971246261
EG,5938.55380536,3961.73524376
EG,3081.94768524,4393.85173249
EG,4529.48142789,2945.49166924
EG,951.364831142,4221.53587708
EG,882.530006185,3894.35757497
EG,4471.58342095,5459.49734576
EG,3174.24433344,2327.50592644
DZ,3218.30832777,6458.34039033
DZ,2190.01075005,5030.42532909
DZ,4599.49612767,4754.47024464
DZ,486.093444068,3913.81691426
DZ,1561.77650035,2014.61716862
DZ,1559.23191187,2013.73056534
DZ,4399.08528352,5712.71297486
DZ,2223.22839015,3469.05082121
DZ,4438.03541688,2282.380685
DZ,1108.56273831,4975.19503991
DZ,2164.05473747,2349.1484679
DZ,5817.94266808,7097.89625409
GM,5445.57658723,7805.46337568
GM,4422.83714422,4807.10078407
GM,3142.67350574,6799.23868983
GM,2406.65070061,3800.31826149
SN,3768.76842757,4747.95273326
SN,7437.66045014,9615.24569324
SN,10020.2745383,10132.7102707
SN,2592.18181882,6331.02533778
SN,3399.7409903,4745.22713887
SN,5444.80825318,7500.67043873
SN,5847.88662994,9604.1199198
SN,8105.80818143,9659.26772115
SN,8531.94859118,10040.3187517
SN,4683.5960362,5442.11014629
SN,633.677651496,2623.48852772
SN,4222.1677681,7255.22234388
SN,2779.52135934,4974.47956674
SN,181.269100664,2680.4520507
SN,730.840388657,2908.23834168
SN,1671.26482159,1354.9886269
SN,1427.75902893,2789.38255941
SN,3643.64610505,2265.35773057
IN,196.466272929,891.502133275
IN,217.599348893,199.029752698
IN,217.599348893,199.029752698
IN,6238.30353571,2231.17487508
IN,0.0,0.0
IN,5182.78481019,2712.75239776
IN,0.0,0.0
IN,4659.66905962,2751.65033014
IN,3733.75710918,1512.20101817
IN,5774.78654672,3962.1762508
IN,5216.64452802,1543.27951014
IN,1153.4321618,786.534346765
IN,10954.7586197,8526.22936546
IN,1651.55436467,826.012743378
IN,0.0,0.0
IN,617.69360037,184.082275545
ML,6570.34293649,6231.09432695
ML,529.705067419,573.721195735
ML,451.493051254,446.996679426
ML,2697.69840036,3703.06471172
ML,451.493051254,446.996679426
ML,1167.98661912,2953.59020436
ML,1277.68915527,4818.61381803
ML,1419.22196978,2842.07887739
ML,4423.26089911,7846.15401443
ML,380.528395751,535.42744287
ML,603.723036631,1929.76093258
ML,1435.13570736,5729.15567976
ML,869.088593696,2043.64156057
GN,5357.80244749,8605.69948855
GN,4500.30201695,8664.7156157
GN,4111.36588452,5976.3392585
GN,4278.39042941,5798.25834442
GN,7094.54892962,9228.69572008
ML,1997.80430051,3633.33081019
ML,10510.1395361,10828.1335898
ML,3539.96695747,7774.06089558
ML,1628.42082384,8465.55928192
ML,4170.44043587,4442.85488873
ML,8703.13648066,9213.39831645
ML,5711.54890073,7675.00040278
KG,3635.3398349,1064.92080605
KG,1208.57872387,1349.50002851
KG,2290.40786415,1173.18498973
KG,2232.06714004,2919.06693505
KG,4840.60676595,2415.36873852
KG,2897.07267712,2841.1834287
KG,3349.59369285,597.590856004
KG,4211.54717724,2552.47915008
KG,3145.20272798,2972.29652883
KG,5136.18447374,4772.59212662
KG,968.02683369,1397.13609324
KG,2943.68447126,2205.56634794
KG,0.0,0.0
KG,4138.66527537,2865.0251526
KG,2319.4779182,1981.0801689
KG,1808.16828339,1710.12619553
KG,968.02683369,1397.13609324
KG,0.0,0.0
KG,3848.05893545,1071.35166514
KG,716.174510789,1225.46767154
KG,0.0,0.0
KG,4390.29234381,3880.83896982
KG,0.0,0.0
KG,0.0,0.0
KG,2040.02880494,2104.60393382
KE,4885.53602494,5712.721829
KE,3896.21965561,4782.50684806
KE,6019.75842446,4700.43430858
KE,4843.51960884,4078.97162783
KE,4230.43849034,5001.42692436
KE,4488.59611963,4643.65319824
KE,5148.45467849,5585.05910572
KE,5242.89931277,5462.05628396
KE,2308.76042096,3632.9673543
KE,1925.82552302,3258.40750765
KE,1664.72083951,3838.9066344
KE,4641.66666361,5775.15882211
IR,3744.41705498,4094.37357803
IR,1668.51439104,1223.36189664
IR,1055.51105505,1320.24008163
IR,7700.71077318,5360.31040051
IR,1738.99020518,704.946245401
IR,3872.91535374,3267.23640604
IR,2094.25604095,2923.79903549
IR,2733.06692284,2842.60444011
IR,1532.5772117,2125.88440297
IR,2062.8039085,868.739989849
IR,2670.50206325,1435.34054514
IR,2955.3087977,1258.29134674
IR,1469.21262643,684.055236272
IR,1343.83729312,2327.35463741
IR,4055.44985099,3362.13348562
IR,3660.15423974,4313.92854826
IR,278.936962623,1316.06216024
IR,2119.55578768,3193.83532068
IR,4911.04072239,873.09140841
IR,1344.15731685,2279.9351595
IR,560.753614901,1681.75992216
IT,2032.30560818,1241.28006076
IN,5752.62484873,4963.49738352
IN,1509.11550331,810.669557333
IT,2579.84944506,5376.17758965
IN,10620.8587224,8727.83323831
BZ,1863.09590867,1155.49526691
IT,958.543306018,1806.99705216
IN,6234.99517967,2828.84746632
IN,6044.5068831,4867.98402207
IT,861.810702696,750.52562609
IN,4479.7551618,2706.57887796
IT,643.604760395,4520.37994084
IN,5986.41554292,1932.4224586
IT,3014.02599127,3992.17663057
IN,5289.12641071,4211.45341817
IT,1825.38980675,1242.44743751
IN,4927.12399354,3076.97755658
IT,1441.13330804,5244.65577893
IN,5539.57128871,5732.71510751
IT,4799.54335077,2455.29031158
AL,7049.70372868,7400.00620055
IT,1175.91786229,2263.7717983
IN,1226.63983059,792.493659158
IT,3165.48871193,2602.88596131
AL,3288.77494181,1330.54777742
IT,1893.25285685,3199.64588007
IN,1514.95020596,657.639930546
IT,1113.99104203,5087.19108347
AL,1499.91209478,4774.77372776
IT,3314.25977358,5615.4154299
IN,4892.84687604,4494.77146432
IT,5173.25705814,6624.57239223
AL,2753.98838565,4945.61796793
IT,1625.84940238,5145.22404238
IN,3053.79668398,2703.27518117
AL,565.369774665,3988.0856669
IT,3345.61803143,5698.51578334
IN,2120.84995484,1324.09228979
IT,1281.27669063,2310.17345413
AL,1732.24938813,1041.48741869
IT,1596.67832667,3434.72562619
IN,2215.62330111,1171.69403291
IT,3753.69481634,5433.49267567
IN,5786.41790747,1865.56748675
IT,3366.1726858,1401.05800574
AL,3216.58790698,3947.53896747
IT,3497.73966217,5714.10806972
IN,1793.85701207,884.923638584
IT,3344.12343989,2182.99583468
AL,611.157546135,408.038316129
IT,1976.19510409,5547.15803829
AL,3429.07953606,4833.58221045
IT,3979.40465992,4591.50402726
IN,1363.03251407,726.413880214
IT,3310.77851077,2035.25478903
IN,217.599348893,199.029752698
IT,6687.65259082,7259.39051873
AL,799.32024613,2422.77741428
IT,368.932107604,4738.38564218
PK,1665.39350069,612.679881111
IT,801.191571726,1270.10544169
PK,3891.16893049,4016.07962994
IT,5306.84048691,6236.57007779
PK,4067.65060038,374.576259196
IT,503.689650659,3152.17183082
BR,5915.38902459,8088.46962833
IT,2348.04104605,4499.27932088
IN,9120.16749135,8136.37830933
IT,2322.82495138,4139.17099635
AL,4294.55602645,4855.91402827
IT,3946.89381746,1538.24342801
AL,1595.98314057,848.44083452
IT,675.589626466,1111.26738387
IN,1595.91320642,553.91249556
IT,546.02291191,396.577779002
IT,1936.9457405,5276.59822874
IN,3116.77516875,1257.39608435
IT,1638.18722149,1568.84725322
IT,3571.95749476,5816.71420802
IN,3001.19411064,2078.53425294
IN,6449.8011728,6264.30241467
IN,2966.7174779,1883.015411
IN,5459.85700991,2514.86290446
IN,3414.17100157,1306.70128509
IN,7801.08860481,4192.28598967
IN,896.512890199,794.208334017
IN,4466.41278353,1715.24009978
IN,3150.3569677,1081.18891688
IN,7174.56073984,4894.46183908
IN,3556.55331292,1180.90655878
IN,6503.03885599,2160.72460297
IN,1109.66577877,1070.96976286
IN,7162.03760203,3659.60958352
IN,5905.64276875,4865.73066846
IN,5690.15291142,4839.58849899
IN,6034.76509199,4832.99205061
IN,4250.80605123,4268.61004598
IN,639.054085803,506.167000747
IN,3401.7108648,3165.42178105
IN,714.901006421,992.444869831
IN,958.55765349,140.327883319
IN,390.537810784,1306.33440057
ML,4924.85881379,8370.87263861
ML,5051.04960322,5083.93808103
ML,2691.80840581,5622.25094415
ML,3458.52964785,8010.17201098
ML,3558.34290301,3920.71713423
ML,12118.5261755,9128.79726704
ML,5404.36763755,6887.52229409
ML,6745.32992127,8737.00331935
ML,3270.89008363,6307.97440386
ML,7418.33511066,8765.92834768
ML,3440.1383847,3203.62182168
ML,1807.18528129,629.393387917
ML,1678.5968235,2219.18064211
ML,189.567578674,2482.03949977
ML,1030.19817013,3040.58787559
ML,3884.08388191,7919.9290379
ML,573.763417427,2141.33528075
ML,574.803577817,2123.34857124
ML,6328.89834063,8562.47072326
ML,3646.85960775,7037.5654795
ML,1018.10514339,3076.12941621
ML,689.713731729,2449.302752
ML,3398.67439129,6688.38182644
ML,1075.92397658,1080.00157221
ML,601.28623168,2141.63939649
ML,803.290391965,1827.34094351
ML,291.75134699,2620.18480739
ML,1338.71214198,3086.75017286
ML,3775.30480712,2334.7533592
ML,6105.94730634,7031.49194193
ML,3830.64334743,8284.17859843
ML,1334.15208784,1513.41832813
ML,1043.17600714,2693.35865949
ML,3597.65957545,4975.71867845
ML,3580.88337029,6410.7607676
ML,644.426722153,2066.30141877
KG,1341.07433954,1022.53120253
KZ,6983.97768953,5187.01905857
KZ,5675.19690612,4467.11302785
KZ,1197.90257913,1910.47345763
KZ,1332.50995935,1607.21836873
TJ,9424.76503797,6504.8674186
TJ,4999.8825846,1925.22298851
TJ,2757.12576058,1544.57373926
TM,3695.49421183,777.990302469
TM,5656.92582633,3396.75392131
TM,923.878845581,776.649924103
UZ,710.025776014,1581.15717061
UZ,3277.88937385,3039.21235496
UZ,3054.8593101,2744.94154701
UZ,811.224831488,1517.84189072
UZ,3585.65346638,680.397540887
UZ,1289.08054485,1458.59164499
KE,677.645770069,1533.90655937
KE,0.0,0.0
KE,0.0,0.0
KE,0.0,0.0
KE,0.0,0.0
KE,677.645770069,1533.90655937
KE,0.0,0.0
KE,0.0,0.0
KE,0.0,0.0
KE,0.0,0.0
KE,2038.50173053,3304.01468283
KE,4677.81452792,5030.60910258
KE,3635.01571994,3640.05098312
KE,4544.22546898,4074.73445573
KE,2947.06988247,3641.38097714
KE,2658.65265993,5459.21140679
KE,3114.7388224,5801.35057354
KE,3850.39619281,4645.2216363
KE,4968.86393878,3557.94467318
KE,5054.05879805,5440.26470063
IT,4841.21807078,3779.27058941
IT,1718.78502901,2336.76039793
IT,2865.96372408,2224.12703443
IT,1379.62280627,2278.83552865
IT,697.441563793,4582.39213597
IT,3238.87870205,4875.72584789
IT,1991.00651629,1247.28957845
IT,1175.91786229,2263.7717983
IT,1256.23039912,951.673551289
IT,1596.67832667,3434.72562619
GR,922.40057451,922.40057451
GR,210.946924303,266.296019058
GR,2065.32677058,2936.31338759
GR,502.847643521,553.093198537
GR,3246.31872995,1182.4269643
GR,2139.03754943,2242.87778509
GR,2240.23355199,1653.30198254
GR,1629.43716901,985.615145057
GR,902.062932546,920.38615549
GR,615.147904077,561.696128754
GR,351.397486773,434.695870064
GR,262.010770845,381.957841808
GR,6028.01543517,4778.04008226
GR,1492.2508326,2994.49061327
GR,351.397486773,434.695870064
GR,655.433017905,631.677356136
GR,747.174250971,3108.8743492
GR,6197.9628553,6381.73072881
GR,1581.52697878,4818.64038711
GR,1035.07571964,538.223796164
GR,2257.48073215,4677.9747359
GR,219.472473265,564.062817396
GR,123.701320382,274.484711148
GR,1110.09700144,448.240941286
GR,358.890270578,472.53954297
GR,1330.90849202,2429.82347396
GR,2792.860789,2455.51826236
GR,1303.01970123,2457.63002506
GR,3570.36220694,1218.29599783
GR,1793.95693981,711.96671135
GR,0.0,0.0
GR,1033.52207209,473.022112562
GR,643.726167174,578.063937196
GR,307.252670433,406.179553703
GR,1841.15570997,991.571432019
GR,964.36395798,4616.19673952
GR,1318.72619012,976.700278521
GR,844.423056012,4375.4135452
GR,848.676175834,538.070929819
GR,191.822016085,250.170320196
GR,714.182140368,457.993732959
GR,815.278604671,2905.28330492
GR,2620.39512446,1405.70319162
GR,441.0839524,619.389668662
GR,2464.5547232,3698.90410093
GR,1014.60754177,479.806290718
BR,7364.14704957,9405.48269112
BR,8152.08891941,11028.5009473
BR,7783.28062841,9104.51689046
BR,6969.696987,8976.34146303
BR,4799.43769077,5284.33835908
BR,8356.83048026,11404.9869227
BR,7460.42702657,10928.492846
BR,8988.48780184,9410.40820143
BR,9911.96967678,9907.31363749
BR,8152.08891941,11028.5009473
BR,4691.25147469,6452.29564128
BR,8518.56408597,11646.8400366
BR,10588.1693977,10490.334659
BR,5015.19051082,6814.28998304
BR,11263.3546407,12733.2598109
BR,9517.16864641,12996.1282453
BR,9134.90822217,10771.7229829
BR,10029.6353481,13897.4217275
BR,7197.29339325,13690.8062882
BR,10895.4967015,13832.4047509
BR,11190.0361765,11396.3194668
BR,11975.5001731,12989.5277433
BR,17141.7529873,16517.9797243
BR,14905.4184465,15002.6461038
BR,12943.2344542,13140.7173168
BR,11080.3806516,14266.4403517
BR,11073.7474021,14264.8697787
BR,10470.2398768,13621.7513546
BR,11089.6675119,10375.9518662
CV,3247.65465691,4732.75353766
CV,4870.24524029,6920.87426756
CV,6331.88571119,8544.22302226
CV,7831.60058288,8442.83014724
CV,6476.69393197,8275.27806662
CV,4972.3756851,5145.55131304
CV,4536.4301399,7972.83187094
CV,6655.58874357,6993.6241668
CV,7415.74735809,10361.7286156
CV,4337.60173895,4992.1369184
CV,4654.33203639,5095.74441082
CV,7208.38328497,8511.31296491
CV,8788.85334536,10696.6035645
CV,5827.77113716,8414.71331783
CV,6534.52169728,6072.96330895
CV,5108.05542671,5430.1040715
CV,6869.37062224,10145.0421161
CV,6183.98227323,8013.26334662
CV,7047.43997686,10238.6104303
CV,5895.71858992,9612.33843914
CV,5212.74152888,5222.87163973
CV,7029.06931714,8382.47825571
CV,7597.65794715,9274.08727461
UZ,823.028127076,922.457371884
CV,7037.41739478,8690.07590548
CV,5727.4296781,6784.63962703
CV,5774.25615671,5822.97867211
CV,2077.25978675,2234.73437181
CV,4113.92842307,7593.60268312
CV,6699.65742927,8972.57155156
CV,3912.42093878,8789.0221373
CV,14074.3502205,12328.8205948
CV,6413.13810222,7982.63985862
UZ,2933.28211914,3478.41833167
UZ,3015.68858312,3532.91710344
UZ,1569.19286916,1277.31247928
UZ,660.494851657,1643.2819622
UZ,2689.39110213,1910.44927767
UZ,2970.50168502,3463.55713454
UZ,1168.04596094,1159.34217225
UZ,2618.74904831,1084.2449802
UZ,1253.23003525,1414.98765904
UZ,825.384974489,1660.29899905
UZ,5124.0667834,2062.29196032
AU,17234.9438248,12487.6023616
AU,15444.3639269,11925.6595327
AU,7330.2057993,8897.33708484
AU,12533.4670784,11080.6841599
AU,5851.05716309,10294.1335841
AU,10221.6008332,9413.65466262
AU,8446.06831973,10245.0811804
AU,18908.2622175,17287.062388
AU,15362.8182329,11574.6846465
AU,12137.5650267,10854.2290682
AU,16308.436169,13486.483883
AU,11364.0013094,10421.3146558
AU,3011.73691931,10222.084271
AU,11582.2171999,10467.3846107
JP,4387.28734845,3896.61293486
JP,6558.22498023,5830.85770154
JP,8101.1013299,6308.23191023
JP,7776.32087761,7372.74864414
JP,9246.57947553,6171.73585918
JP,5415.17666601,5321.17158352
JP,6454.49579895,5293.18930689
JP,8515.02883565,7787.67883574
JP,9284.27316585,7204.03001152
JP,10050.6480482,9779.57516609
JP,6290.37474704,5527.35975318
JP,6462.70987464,5490.13756108
JP,6940.91425407,5957.61449441
JP,13646.9619168,6968.07698254
JP,7216.76714519,6579.69551695
JP,6647.09974802,6339.32028348
JP,7922.15258779,7273.85990829
JP,9635.98365808,7045.30098063
JP,8367.15190295,6026.90344519
BZ,5060.4404533,4979.67411171
BZ,5701.00170809,13225.3577719
BZ,4477.84279891,7555.74244603
BZ,8889.15509246,10527.1111952
BZ,2965.2951155,5985.49103389
BZ,6246.60925169,7847.31404191
BZ,7261.44145163,8664.94506578
BZ,12436.7516248,14675.7424168
BZ,2695.73979784,2411.42863422
BZ,10907.9378281,14689.5949953
TZ,8166.60323378,7354.53699516
TZ,4073.70380364,4889.22169666
TZ,3567.6241177,4013.578608
TZ,6044.69942909,5802.94110662
TZ,4792.44310638,5030.43599563
TZ,1632.62289867,2538.42573725
TZ,7517.08907045,6477.90072285
TZ,4991.82173989,4836.13911697
TZ,7162.29932372,6929.68958507
TZ,7821.47353383,7614.5163085
TZ,4260.02165619,5047.4257189
TZ,5725.90229741,5417.55082855
DZ,2470.04618176,3054.16462089
LB,13421.8210681,5463.92619281
MA,9185.30551133,9649.75124278
MA,1843.20610663,6381.98393803
MA,4532.29944733,7736.13309371
UK,722.330719004,790.810649917
UK,3799.70862709,6075.61118551
UK,1166.73443529,4413.8312318
UK,3474.87919692,3669.91009285
UK,2385.71844883,1911.68593224
UK,5217.72711162,5615.43907418
UK,3302.85423157,1706.57420926
UK,5881.75828531,7486.61742011
UK,722.330719004,790.810649917
UK,2457.67181222,1948.82304391
UK,4058.35898046,5880.98125709
GE,2504.20837156,3426.02131315
GE,0.0,0.0
GE,680.613287505,836.385486831
GE,952.789577933,2055.97017606
GE,680.613287505,836.385486831
GE,1362.35246707,3074.71856218
GE,0.0,0.0
GE,3603.15128671,4407.73875166
GE,2616.8365863,3631.86856732
GE,0.0,0.0
GE,955.763189366,1336.92550474
GE,1392.39411067,1719.17784509
GE,955.763189366,1336.92550474
GE,484.013890129,224.102358065
GE,1002.9994151,2269.17857352
GE,1367.62194919,2369.88895825
GE,0.0,0.0
GE,2408.60142248,3695.19420318
GE,0.0,0.0
GE,0.0,0.0
GE,2991.91307308,3482.39196428
GE,767.516193338,2106.48187458
GE,1184.40746586,2998.38380572
GE,940.236479429,2094.32663024
GE,3126.84918603,4470.11643967
GE,2762.55804922,2300.76177092
GE,1090.39898851,1417.65719363
GE,0.0,0.0
TZ,5843.28053594,6411.13143695
GE,1114.31230121,3010.1236294
TZ,2135.34937925,5192.01359079
TZ,3455.29958553,5283.03351334
TZ,2815.71063183,4420.86338288
TZ,2463.64271439,4378.37309199
TZ,3722.9681805,4720.9090512
TZ,4231.76143245,4827.27129599
TZ,3723.76765026,4488.7338132
KH,5145.67314559,3683.22082367
KH,161.680449406,282.20431059
KH,426.66135873,972.364485051
KH,1443.7942856,3298.61857916
KH,4138.4911139,3338.72532777
KH,2890.57451585,3452.50816637
KH,1543.33263008,2188.38327673
KH,161.680449406,282.20431059
KH,771.494169007,1208.81410598
KH,80.8168899022,166.209622072
KH,5131.97065882,3675.90195958
KH,7661.31502199,4489.99564644
KH,7531.79458648,4293.97216928
KH,8168.05420242,7260.62075498
AM,3049.16376816,1055.7863124
BR,5421.34583472,6992.99430783
CD,2841.16950218,4660.91834226
CI,3579.48669332,6639.67707665
CV,879.19896211,3110.11260674
DZ,5358.99103166,6632.64645457
DZ,1932.66875613,1696.38197028
DZ,2545.23603511,630.903688631
FI,3118.42470931,5050.15048459
IN,6668.51345059,6322.92339538
IQ,1647.21636019,1268.0366637
IT,1534.75666104,3710.07275776
ML,9528.39302803,9263.77682476
ML,2537.91687299,4176.77709657
ML,5666.01312655,8404.89635205
PK,4517.5779338,4664.36491803
PK,6301.47424048,2651.24296505
RO,4695.10032335,1802.82641765
RU,4666.43128476,2777.12728058
SD,5881.95902729,5031.83392204
SN,6456.95893923,6783.62955448
TN,7137.81460087,7667.44154373
TR,297.895235317,1997.44122734
CN,5965.45195986,5160.09891595
CO,2833.934952,1607.9927095
DZ,2103.159442,3634.55820256
DZ,1535.4318632,5316.64283681
ES,4088.02315655,1673.4829585
ES,2909.43450281,2358.76492858
ET,1286.23877738,2456.87465354
FR,3342.06571275,1964.44366298
IL,9190.14968392,10239.1958343
IN,1595.91320642,553.91249556
IN,4077.5884886,1652.3050765
IQ,4864.01260348,3121.49093047
ML,7013.17034741,7005.14344896
ML,4946.47273296,5313.25509675
MX,10226.7414827,11921.2218015
NE,1052.20618971,3838.08917108
NZ,17973.3878522,20213.4218026
SN,3179.70099247,7724.37515125
TR,3360.80112595,1467.7423383
UK,6911.0547427,7687.7976598
US,11685.9423735,11483.5227991
ZA,10978.6996049,8675.27032773
CM,2633.7340784,3410.25091796
CU,8242.34953659,8389.1147682
EG,4085.56077405,4403.72533142
IL,2303.9246673,3086.61744549
IN,5391.94065706,3618.44573346
IN,4665.11235931,3044.91256669
MT,5556.67074679,6702.09189424
PR,9839.51600105,13176.1912818
AL,4314.11876568,5417.04617686
BA,1913.39842414,5013.29509558
BG,578.58355439,353.383197487
BG,4727.69371669,5754.91152899
HR,4167.27499659,5300.32645255
HR,2982.39116857,2874.98472184
MK,1079.33700799,4616.77022764
MK,5643.257531,3298.32683146
RO,1836.93355042,3459.87808678
RO,3401.72728169,5022.31762499
RS,1762.83848933,1167.90446206
TR,646.013613127,445.169756435
XK,6719.94033269,8933.30169197
AL,2144.24383482,4867.80598255
AL,3931.12583789,5511.35864294
AL,3421.47550539,3952.97980727
AL,2561.25817343,4092.44323076
AL,2975.10935118,4097.40994831
AL,1347.35934653,2637.33382817
AL,490.449185492,1574.62807425
AL,4300.14272981,2290.48450852
EG,1146.85119215,1226.36748723
EG,3568.80763042,1827.94544247
EG,3042.50927859,999.054409001
EG,1023.67826638,4240.94886817
EG,2906.40100053,773.240710544
EG,2373.21555194,4199.27761253
EG,4826.95324051,5106.2319502
EG,3272.4113232,4477.04857492
EG,2690.90082829,4216.21853707
EG,1410.44774675,3815.60948521
EG,3157.80757925,827.532441935
EG,1635.05607932,3656.11303291
EG,4285.93705767,5362.82085461
MM,0.0,0.0
MM,0.0,0.0
MM,2614.04696047,2234.57295632
MM,2985.79356448,2267.1383946
MM,2725.40174278,2238.06427224
MM,0.0,0.0
MM,3332.04584584,2309.81601318
MM,537.757950617,168.615544797
MM,0.0,0.0
PK,886.434526737,728.467458371
PK,2365.0489354,1606.92277178
PK,5255.39842949,1460.58772662
PK,1447.59375183,2179.81917564
PK,4079.09543902,622.105218072
PK,2246.03102406,2081.00434626
PK,1569.36870783,1048.77082179
PK,346.322058612,425.577102098
PK,875.348127045,659.959386256
PK,7343.79438137,5307.57186795
PK,4380.18153557,4743.11122189
PK,815.958200056,1590.47710493
LT,873.280485117,1449.76146246
LT,2504.89562181,3692.54480406
LT,2744.72293523,2081.88706884
LT,1631.58411466,2417.69931323
LT,659.719247254,1146.50050897
LT,1215.01700748,4608.67313466
LT,4147.69946666,2922.92058725
LT,1442.92427547,2363.74942166
LT,0.0,0.0
LT,1717.01877308,2171.2789201
LT,2001.4503728,4752.88589277
LT,2506.85651409,1899.25623486
LT,3772.23450182,4742.67163501
LT,998.92994403,4522.17000272
LT,1070.73446053,2614.20779066
LT,3154.32879027,5317.76348078
LT,1453.69711314,3373.73005496
LT,2350.75241446,2237.5852971
LT,4358.12174168,6176.36669644
LT,585.24113868,1209.99720266
LT,1631.58411466,2417.69931323
LT,1216.64637346,2144.9873903
LT,2831.07297881,4795.99771036
LT,4247.84114194,5206.09539104
LT,0.0,0.0
LT,1219.7864615,2101.08718519
LT,3091.05000774,5005.37941441
LT,282.635539124,620.153729165
TR,2188.45790965,1502.18595347
TR,1092.88820448,2608.29779043
18908.2622175 0.0 3693.75838009 20213.4218026 0.0 3941.6274299
