BG,2276.34799995,24.2269815268,30.4689779366
AF,1094.3819456,38.5395334278,58.6673686322
BR,11842.5429926,39.9034709261,43.0870322353
BR,10115.1110751,36.1134250979,25.0009240286
BR,4758.10161599,17.1218034271,-23.9525776567
BR,16236.7130255,31.7283480875,89.4777471953
CU,7218.0610882,20.1802329905,-15.760929651
CU,11143.9232845,41.1512600182,37.3322514138
CV,2584.02823337,31.4725435884,-7.66944745449
ML,5141.89633408,39.9397899674,30.9811438688
TR,11.907372504,39.8320643967,32.7455639044
DZ,466.7245432,35.8899215942,8.03627946741
EG,2043.45764273,14.7975912305,22.0827513306
ES,3112.23709983,22.9839770909,-27.3801526226
ES,3372.60603119,12.4517088219,-11.0149449779
ES,1797.19237357,26.9033297984,-12.335296965
ET,6585.46370344,17.6933971922,-18.3889654564
FI,4486.64580589,34.0468164076,68.1774444553
GN,2180.6249308,23.9621856776,-25.9067037979
HR,1952.307054,54.160247226,38.5257863302
IL,2929.87823766,28.6646177656,6.48844868438
IN,4435.77440922,20.2446486585,36.5487584363
IQ,3584.79899235,28.0180796214,9.32005107563
IR,1507.21621848,39.2442297726,35.8582109899
MA,2243.56369482,24.6899983199,12.3261820131
ML,1075.1992804,7.35778249149,-15.5855092909
ML,571.262968451,17.4885336461,-8.50180923459
ML,5648.29416362,23.3656090715,41.5396287351
MX,15100.6847355,14.6238330165,41.113813431
MX,11740.0118803,48.934897859,33.0268194592
NG,3815.18387207,9.9314765509,-25.4480976469
PE,10086.3600115,31.8199685541,0.313520401132
PL,1800.02607619,41.2805748671,5.22620792389
PL,1396.3714292,52.125468069,40.4669892647
RU,7578.67094218,7.7636561529,-17.5381104224
RU,3112.99542141,31.6455561761,21.9182277211
SN,880.262300144,13.079044737,-9.86513604227
SN,3718.60632316,17.8768042147,15.4350168299
TR,4771.17299771,18.2631639705,-7.16245230132
TR,2041.84853793,35.6597209658,11.4449007155
TV,18012.6135218,34.0123279844,-9.2790858297
UK,2849.20556851,35.3750895108,24.1654636705
UK,4252.57965203,36.7401343422,46.9288918434
UZ,4739.24122415,35.2370742956,17.6493509844
AR,8343.03250703,17.8993574211,-8.02830091476
BR,10072.2720275,38.5643846426,23.1679545512
TR,344.847855534,39.2318585574,29.1245855769
UZ,3970.31733648,28.0234008312,30.9669213498
DZ,864.781411868,34.5021978933,11.8545815679
UZ,3821.06387403,26.1153463194,34.2025240893
DZ,2184.84140795,18.5926526682,-1.61729167183
UZ,2106.88527515,40.4931935621,45.4386382101
ES,3221.64393115,30.6222598821,28.005275469
UZ,4166.56180327,13.1416292002,94.0123541448
ES,4101.02815991,8.72241296582,-20.1178603907
UZ,4975.41415751,27.6102888061,19.7976568478
GN,4580.6301748,34.6582258518,18.9208764414
UZ,6776.01545465,30.8471327049,-3.06221995397
IS,9235.21344406,24.7516529006,94.970674986
UZ,4366.95156257,33.5380168884,22.8562224206
IT,2002.31932041,26.0147114372,4.97335990496
UZ,4163.58444369,38.3436644514,22.6757901601
ML,1878.98162681,24.806002433,3.00543691928
UZ,3365.04946487,38.4564188121,31.7830543504
MX,8504.55668013,35.2940202985,-17.8506764045
UZ,3057.38940378,41.0369935177,34.4135397652
RU,6610.11716775,14.7499890933,-13.0692549062
UZ,2637.23819581,42.4280678158,38.9563795759
SN,1917.17163369,17.5611870138,-34.1327587493
UZ,1999.85669662,24.3751522303,66.6110861349
TR,3138.86188371,19.0605539459,13.3989409263
UZ,4931.82363666,40.470529954,12.6735465956
IN,3572.16658099,50.6550607919,49.3562789022
UZ,1590.06600869,41.3796497764,51.1561916125
ZA,9048.62180127,42.0822537521,32.0478591487
UZ,3296.74521036,32.8656689191,35.3879456113
UZ,3291.48009741,35.8630730622,33.7874354492
DZ,5006.34903012,43.7794802218,59.3626859345
LB,1903.31215211,45.5655599053,50.2445712589
PK,8388.30731398,26.4261673813,-11.2786024729
UK,6656.8117176,41.1634615429,86.4585503126
UZ,6970.74094513,22.5633994128,0.934658320157
RO,1765.87920275,36.6607287008,43.115488883
LT,0.0,54.68,25.31
RO,1667.71234036,30.9429738497,20.388703468
LT,357.798642271,52.2623990072,22.1962223212
RO,3376.01547252,25.7760834636,53.2241940403
LT,0.0,54.68,25.31
RO,473.350565256,41.7562003505,30.2529697839
UK,0.0,52.5,-0.12
RO,2986.3295631,20.682634375,37.1038312562
UK,0.0,52.5,-0.12
RO,2279.14387442,38.3021531433,50.7546660764
MA,4659.308802,38.7183390045,42.6674520716
RO,1543.86201503,39.1051016547,42.2613060172
LT,3662.14936855,26.3545542163,7.56098915906
RO,6901.25578363,28.5569709172,99.0160398294
UK,0.0,52.5,-0.12
RO,2686.72617618,29.4025079068,47.899294895
UK,0.0,52.5,-0.12
RO,1507.65835714,40.1714649958,42.5137757553
MA,1326.93983632,39.5264193463,5.49109695499
RO,1612.91788204,36.2767078087,40.6679039262
UK,0.0,52.5,-0.12
RO,3542.07649651,20.9116273781,48.9499635076
MA,7369.48784301,25.2148977357,66.1060805702
RO,3615.61635244,24.8725857151,-3.26254996441
UK,0.0,52.5,-0.12
RO,826.332346361,38.9144810953,31.9855098247
MA,896.813186638,27.8898273426,-1.55472270758
RO,788.772999328,39.91,32.83
UK,0.0,52.5,-0.12
RO,3936.35175159,12.2605132189,15.0914003649
UK,0.0,52.5,-0.12
DZ,4048.16023291,19.6718490464,37.5551864944
MA,5604.16387436,39.939963854,53.5672939422
DZ,1106.52954214,28.2341847812,-1.69416921959
MA,2958.38816839,26.3006608017,20.9840580254
DZ,3757.46421557,23.8904196105,37.4316599884
MA,6231.71410478,24.9003479999,54.0526153209
DZ,2315.88250518,17.2510586134,6.85197674354
MA,3906.77377865,27.2480249593,31.2229336962
DZ,3261.37663368,38.705574125,38.4234687397
ET,2562.17768315,30.827140083,39.53805373
DZ,2896.0808052,20.5313689587,24.5728394724
ET,2558.23959914,15.216591339,17.3673061119
DZ,2804.54030166,38.8400011888,33.4275194265
ET,3529.65978706,38.8120969203,43.1617209392
DZ,4831.98416391,15.9831999139,43.4181094476
ET,4977.68149187,20.5371049695,-3.58813396199
DZ,3223.34348085,64.1134544637,5.1268848423
UK,0.0,52.5,-0.12
DZ,2381.14687977,16.9770856453,-2.0736517477
ET,2102.59841544,23.3855070565,49.909357488
DZ,3257.31332969,32.5385918688,36.6960193104
ET,2939.8826827,26.231959556,19.5660100494
DZ,4362.201111,34.0371372579,49.0661090034
ET,4911.78148718,18.8043955131,80.7394881387
DZ,3833.19745827,21.8468026644,36.819397062
UK,0.0,52.5,-0.12
TR,1147.67206911,30.2033577595,34.1829016919
ET,2913.40163754,32.3923310122,47.7257041465
TR,3216.40768868,37.7930725851,68.1110196687
ET,2398.39782145,28.4771553387,32.1346434044
TR,1153.42379687,31.7203449371,26.1358618895
UK,0.0,52.5,-0.12
TR,1304.8044536,35.4026624703,19.9886338001
ET,4786.67101182,40.6117781299,9.69702572868
TR,1437.25209996,31.693198801,21.6232584484
UK,0.0,52.5,-0.12
TR,1795.86699804,43.0066255283,12.8020196317
ET,924.068600724,13.3317918968,45.45465142
TR,2494.88485799,36.6586248338,5.98777867296
ET,2565.8933506,28.2068971786,27.6363830678
TR,4397.13656807,19.1191711535,-3.48706748553
ET,3699.9447053,40.0215514395,32.4483773517
TR,1103.51874153,38.5880641397,20.8112201952
UK,0.0,52.5,-0.12
TR,1298.19090887,28.979219424,30.8556874706
ET,3423.47458408,13.6806758342,9.37586609487
MM,8644.19673473,38.5124734889,11.7292248775
MM,3025.00585447,19.4681505891,68.7368870714
MM,4923.74911528,24.3472636581,50.9618025248
MM,1216.59781149,19.0170714344,85.1473638915
MM,0.0,19.75,96.1
MM,1216.59781149,19.0170714344,85.1473638915
MM,0.0,19.75,96.1
MM,6884.67972837,39.3197906245,31.0233112861
MM,3944.49385077,31.9968269069,61.1321968146
MM,1700.06878376,24.6730383042,81.3884061535
MM,3656.45554332,50.8245060242,93.8673732137
MM,3372.17452509,26.5096111565,65.6800796646
MM,1729.8608703,23.8563199573,80.8586133742
MM,5291.55134258,36.2998002639,47.9960841704
MM,0.0,19.75,96.1
MM,4245.43931881,31.2760089711,57.9023479526
TH,6945.81163985,43.1023946695,40.1224818655
TH,7104.87786612,40.8668266705,37.8088460077
TH,3246.09328065,25.5684948352,73.8641803104
TH,3185.55813345,25.6727118818,74.5185648505
TH,4023.69263903,29.6453402998,67.6066209545
TH,7270.38003599,21.1471817849,35.6615473593
TH,7090.911653,37.0336395761,37.4283138522
TH,6244.43886153,22.9291983317,45.0080815585
TH,3287.1857621,34.9710168819,80.2522925303
TH,4288.54433148,24.312577651,63.3721845972
TH,10796.6999702,23.0743490879,2.34988570987
TH,1279.025833,16.1145522763,89.4790227184
TH,6045.23711022,33.6963692838,47.9128398174
TH,8359.21161299,27.4953061337,24.8106146481
TH,3218.20182375,19.9294905702,72.5552632629
TH,681.542544724,18.9870606236,103.082580979
TH,6940.73476808,38.3365877847,39.223691903
TH,8631.45364558,28.9558119377,21.9766267934
TH,3323.91668752,16.607472521,71.287322232
TH,1889.622188,27.8701436755,92.2077374455
TH,5127.64622491,38.1939668783,59.5356193002
TH,8121.10639247,54.9047680304,27.3211021212
TH,4720.14948921,36.8683476793,63.5800014759
TH,1453.81851028,17.6324327476,88.2701109855
TH,7687.76130204,28.3992796507,31.2212427633
TH,1328.70874374,20.3170562549,90.8413059731
TH,227.86577631,12.8789711922,102.260963729
CN,3144.80305145,32.4712794018,84.3093398452
CN,7092.45902669,39.9952168537,34.4010039363
CN,2734.24329339,47.9450502174,85.7780546219
CN,2327.29891045,41.6038540468,90.2218601656
CN,5012.32004733,36.8700406874,61.1973009007
CN,4915.64021682,40.7321147747,60.5343301899
CN,6719.49198574,33.5349192015,43.4141942499
CN,8313.39863339,29.5860610101,27.4680010624
CN,6765.29547612,42.2319624403,37.011096379
CN,7087.0696652,29.5575613358,41.9025030657
CN,1514.96410328,40.2809436563,99.5037069619
CN,2759.55039036,44.5483712964,85.0729323763
CN,2531.49890686,37.7770311075,88.7374149353
CN,7302.92188258,36.0296239928,34.6810423498
CN,6251.1094378,46.8062839881,40.8433050873
CN,12792.7762773,9.95491893983,-8.75041483617
CN,8768.84380323,31.3066543347,20.3773088116
CN,10561.3746208,24.1672539748,4.4881297071
CN,6077.85587451,37.9546737261,48.1877695929
CN,6831.6694766,29.5440502404,44.8396150107
CN,1597.42553455,40.4759536173,98.5642782885
CN,3216.25952796,40.1420172903,80.3785579404
CN,4118.349444,31.0857700095,74.2696694829
CN,6788.67060816,38.2615675549,39.4079551933
CN,4678.85453063,35.6403743376,65.5961682547
CN,8097.69782013,33.8067355125,26.608783367
CN,8862.60846316,27.4234955777,22.665852287
CN,5421.22506488,45.3766913622,52.3769845578
CN,6248.88255151,39.3923438518,45.2753686014
CN,3448.76870093,39.8067689762,77.8309439471
CN,5549.34436334,37.0094201524,54.9327921272
CN,5481.87463477,49.1409851898,49.9984151274
CN,5462.43858337,39.3615223364,54.7158241895
CN,9264.94831289,30.2665007232,15.0409203383
CN,5611.63902763,38.4267660958,53.4419767465
CN,4576.17738904,44.6255239974,63.1726166697
CN,5406.29954899,19.1637104854,68.2719752742
CN,5900.18046455,49.5753391784,44.098966802
CN,8029.57501663,35.1926428945,26.3051496324
TW,5168.87501888,31.8077037773,71.6805417077
TW,5147.56381576,43.9733843035,73.1255899557
TW,0.0,23.76,121.0
TW,3488.67042413,38.2118400227,90.4705345584
TW,0.0,23.76,121.0
TW,2942.90068334,36.5659107965,95.9410982934
TW,0.0,23.76,121.0
TW,0.0,23.76,121.0
TW,0.0,23.76,121.0
TW,0.0,23.76,121.0
TW,0.0,23.76,121.0
TW,0.0,23.76,121.0
TW,0.0,23.76,121.0
TW,12034.1181158,33.6254985648,-4.12496542841
TW,0.0,23.76,121.0
TW,1352.42006909,30.2357127147,110.304469284
TW,1626.168605,33.1012567692,109.354931685
TW,0.0,23.76,121.0
TW,0.0,23.76,121.0
TW,0.0,23.76,121.0
TW,0.0,23.76,121.0
TW,0.0,23.76,121.0
TW,0.0,23.76,121.0
TW,5021.19542679,42.1755180165,74.1533002129
TW,958.016566526,26.9254535553,112.681197667
ID,3637.11831437,20.1994600861,90.3204293716
ID,7547.57689587,29.6528743944,51.1828795405
ID,10905.5933223,12.7372603661,15.3019290316
ID,9405.91539298,12.5835137689,28.4700874844
ID,9565.20503645,28.2780195023,30.0303362847
ID,5216.57386753,19.3890783491,69.9337551112
ID,7995.89195635,32.291949868,47.6729627834
ID,4723.19141075,25.6045706696,81.4620233964
ID,6716.32677644,32.4738874674,62.4765467086
ID,7653.38265127,38.4611851558,55.5567213136
ID,9551.20370158,33.9123060548,31.6506708681
ID,11387.8408168,20.5252792957,11.7011630525
ID,11187.9885217,36.4704960103,14.8596958987
ID,9010.6302738,33.8437043628,37.3730470145
ID,7753.43283589,20.3805290287,45.2840010196
ID,10238.2850271,31.7599263844,24.0429111321
ID,10315.8001441,24.1906875107,22.0233985169
ID,5635.96601742,27.5959094483,71.5364703813
ID,10139.4367894,18.3686077186,22.7964658277
ID,4463.42784172,29.8665639402,94.2812118894
ID,9962.28124919,39.52973313,28.7885305214
ID,9416.55678614,25.1532457049,30.7503808812
ID,3241.63054341,16.1231236981,90.3903482438
ID,9989.50289354,32.9044426535,26.8216763075
ID,6200.53024552,24.8045126165,62.8902850523
JM,1340.20519177,23.3211645341,-66.0197377174
JM,1679.3407456,17.6420075718,-61.785562134
JM,2046.62335116,4.72736116651,-65.2365825815
JM,2257.60521758,11.5465775304,-58.0559772398
JM,6938.7805339,13.1013420329,-15.445058722
JM,2912.362659,25.2732838756,-51.2574414353
JM,4626.40071601,11.6433568186,-36.5142837088
JM,0.000100299715996,17.98,-76.8
JM,1273.00240308,21.7796234661,-66.0042442289
JM,1455.83088326,24.4932245854,-65.4779162074
JM,1372.12663504,24.7170563121,-66.5456322084
JM,2783.29369261,24.2026381706,-52.2561125657
JM,1379.24680208,18.8593428479,-64.4577741988
JM,11712.9973994,24.1402522219,33.054537072
JM,1379.24680208,18.8593428479,-64.4577741988
JM,2912.362659,25.2732838756,-51.2574414353
JM,10325.1821856,35.4306500727,23.7676188064
JM,7898.560587,41.3754848987,-1.64995021813
JM,3523.97683194,24.9243545041,-45.3633514166
JM,1893.5318262,17.6511368204,-59.8676562083
JM,11050.4576318,47.2742794373,40.6641261205
JM,3522.11280449,23.0633727343,-45.1854948582
PK,1184.4155402,32.0917352422,61.2944621438
PK,3974.74877927,45.1667410865,31.377289791
PK,3485.96748914,30.4000626517,38.2034184621
PK,3701.91826034,39.2784477355,34.2906249701
PK,3632.24692641,38.6601373572,35.0864909482
PK,2877.65832783,36.7533367347,43.2974981053
PK,4194.82405906,22.4410179235,34.4642658052
MA,4436.59265243,40.1727292896,40.441110998
MA,1899.66251173,39.3327023861,12.2483009113
MA,1764.59322385,22.952225646,-18.4304986042
MA,2009.00869404,33.4855108963,13.7434893763
MA,671.794954075,30.76106746,-1.29088716551
MA,1408.0539992,22.2372614509,-4.41309695199
MA,2457.36673375,36.4937169763,18.6657695574
MA,853.434988054,37.4712466067,1.03850203693
MA,1149.45129051,32.4189156929,4.69348893174
MA,2498.84308421,17.5076064024,-21.8222965952
MA,1368.59777057,29.6586444307,5.87589462722
MA,4626.53001205,27.824874187,38.8686066874
MA,3271.11015523,39.3883038962,27.4541197216
MA,1944.64923322,19.0042529392,-14.6524316905
MA,886.70948342,26.5411257126,-5.75770250533
MA,755.939029247,27.7152232426,-5.40770657438
MA,2892.9787023,15.3612469085,-24.6688386408
UK,0.0,52.5,-0.12
UK,0.0,52.5,-0.12
UK,510.53111816,50.0667533075,5.64070061226
UK,0.0,52.5,-0.12
UK,0.0,52.5,-0.12
MA,1478.34170457,34.2308162423,8.36461525229
MA,2445.60963556,38.8693696564,18.4143149666
MA,6429.98145475,35.8569120336,61.3379665964
ET,1282.16241188,18.0472247408,32.4077224223
ET,542.262456971,12.8610049324,36.1169470248
ET,3503.46325528,36.9444832459,27.1567902744
ET,9029.37699004,18.8675954187,-40.368920187
ET,771.055199282,11.2180116348,45.0263411305
ET,1425.95354899,18.3010599979,30.6664950352
ET,1870.67557071,23.2592824489,31.2743853396
ET,1194.50079739,17.6234181908,44.3315880677
ET,2768.79183468,29.1509830596,25.657583374
ET,3391.39368499,37.7830481386,35.8841307812
ET,2994.25102096,30.4516147242,23.9413177761
ET,10619.5578223,3.10645439044,-52.1558140494
ET,4435.03761176,44.1617288627,54.6569969255
ET,2767.84988869,23.8224395662,19.5467419123
EG,1534.39145031,39.302076499,42.4301107994
EG,551.485512522,25.3363747506,31.1156408669
EG,4950.78160328,10.1343289371,71.1515585647
EG,2990.66397777,11.5251681138,12.3822569022
IR,4070.11071162,37.7675239668,7.86958369601
MA,5438.52178527,32.7773668436,49.3135786224
PK,1654.65029347,20.9798335161,80.0875969436
PK,848.123527821,35.4829336956,64.6731270608
PK,1664.59434883,36.9658404324,56.2483843994
SN,3719.78349923,26.817598008,13.9879943411
TR,1026.50947235,31.1912533711,33.5420543166
PK,5726.57322745,33.4040421644,13.8127562664
PK,2033.13972557,32.1565788493,52.5894178441
PK,2258.728134,38.2117813833,50.018230497
PK,5710.47798467,17.3599182753,21.7776542165
PK,2125.84608992,42.8769482746,53.2246251562
PK,1881.00286574,37.3609638688,53.9838651391
PK,1271.08181137,32.6030300659,86.0270682831
PK,2707.25035732,36.9437436487,45.1064981457
PK,10404.3875218,11.214551189,-22.6566367729
PK,8062.21306019,21.1496174996,-4.60942120815
PK,9893.27874373,7.15652695895,-14.6356001092
PK,4070.72180505,46.8042352602,30.4390304631
PK,4078.36735041,38.4058897979,30.2421938609
PK,4318.7037044,27.5626561639,30.7341248119
PK,4087.88030978,40.7233629993,29.9250845063
PK,1189.19176785,43.1447825641,77.6882589923
PK,1249.50744489,39.6915638885,62.2176179467
PK,1643.32597815,39.2932252394,89.1186635198
PK,2134.48837673,24.5227698516,55.1335131143
TR,172.253959922,39.5859756151,30.9700550854
TR,0.0,39.91,32.83
TR,1004.1141761,35.8166700742,23.3159919956
TR,871.0660443,40.1714649958,42.5137757553
TR,157.581183044,40.8395060974,31.5604916352
TR,0.0,39.91,32.83
TR,0.0,39.91,32.83
TR,0.0,39.91,32.83
TR,0.0,39.91,32.83
TR,0.0,39.91,32.83
TR,758.137516119,34.9184601977,27.6749346468
TR,0.0,39.91,32.83
TR,0.0,39.91,32.83
TR,0.0,39.91,32.83
TR,157.581183044,40.8395060974,31.5604916352
TR,2459.40629923,37.0495184727,6.23641506481
TR,1098.69251789,40.267590527,20.6047422581
TR,3324.77770563,32.4253825965,-1.22078985313
TR,2339.383237,36.4232306707,7.8053735176
TR,172.253959922,39.5859756151,30.9700550854
TR,1098.69251789,40.267590527,20.6047422581
TR,1668.8605919,34.3368414986,16.4036580323
TR,361.386300631,40.5881031004,28.8983138695
TR,3783.63581434,20.7827719985,2.41905234996
TR,1343.80531076,38.2128288868,18.2440221404
TR,2061.66993652,38.2206531234,10.2714224188
TR,1833.98306934,38.0539141476,52.81333973
TR,3705.0325838,21.9984419454,63.4613666876
TR,1683.50985247,45.6376714566,50.7862856529
TR,7973.53776789,-15.1188764989,75.5526655589
TR,1587.21698592,48.9962523739,46.9127440868
TR,847.821986854,33.2822449347,29.2674281823
TR,3536.03025616,12.6632983484,18.3149025093
TR,2004.74655437,35.2091560196,12.0772358092
TR,959.82268826,39.1599228644,43.385224081
TR,3607.98151299,12.2021011724,17.8189291147
TR,1430.24750021,28.5737260032,27.4378736548
TR,794.324027324,45.8542474552,37.2351342473
TR,725.960243595,41.1345317084,24.8586779802
TR,1067.64080862,45.9745458942,42.096401556
TR,1185.41638062,29.8207762679,32.6315111374
TR,245.19627506,39.1366314995,35.3433417184
TR,2169.72478331,42.7318600085,8.4374330549
EG,4585.15635081,64.6869056492,59.9993244744
EG,880.785801974,34.0980900129,23.7736931175
EG,2854.76672957,38.1455600557,3.41015005535
EG,2074.85258159,18.6243758659,16.3641826518
EG,957.809043215,37.5766960736,27.4902962752
EG,4727.22653147,13.5010002574,-8.61697851922
EG,3112.48556557,53.3045763074,48.598318914
EG,4741.9065927,16.2025515677,-10.3278590583
EG,2391.99591266,37.6017393925,54.0460312545
EG,1632.73638939,18.587566403,39.8908750513
EG,4730.11044403,18.6602327158,73.8956888729
EG,3868.06571036,55.6807350987,1.9990785815
DZ,1465.24373753,26.3519042442,11.4040705379
DZ,3119.52601004,31.1083158612,34.6412828095
DZ,4214.96175484,43.0731456529,49.849428104
DZ,834.914870351,40.0519010615,-4.78975171943
DZ,1289.25821247,39.2106181889,16.7742926931
DZ,1725.69421698,37.4845869656,21.6287480006
DZ,2964.71636688,22.2524613834,27.1463067379
DZ,2023.81169912,26.693898597,19.7529621915
DZ,5094.61921999,13.1417340893,-37.5838760815
DZ,885.791418621,39.9675585551,11.8794445232
DZ,2260.23387211,34.8694425293,26.8800532312
DZ,6733.34394282,33.3154412654,74.7850911526
GM,6509.16246041,28.7320967705,41.087973874
GM,5405.68441428,36.101701994,28.2247569532
GM,1678.30918283,16.8386298013,-2.21422474675
GM,2223.6496781,31.14473662,-9.26220642901
SN,4882.79719395,32.9573629431,23.8156170571
SN,6970.82567079,51.6906107523,41.3093109217
SN,11275.1917825,21.3509232148,85.1713185513
SN,2607.02604105,24.1079293449,3.92360465125
SN,2386.91706322,27.1987590846,-0.235317256709
SN,5393.16763042,17.0287156082,30.3618026029
SN,4352.70687454,21.3023526171,21.0128578536
SN,9274.66157724,31.1671957999,68.3835241476
SN,9316.61346475,26.8818493765,67.8605335844
SN,5862.72165081,18.9588803589,34.7068529123
SN,928.848679415,10.5250827982,-24.3171884773
SN,3834.26103712,16.1857133148,16.44753345
SN,3900.39630817,29.2727256328,14.9299614325
SN,134.91944344,13.5574729276,-17.741574088
SN,1214.49022363,5.63986588911,-12.2729105773
SN,2572.07997709,-1.32205879729,-32.5279569178
SN,1864.59165015,28.893663043,-25.0020982102
SN,2748.76924777,12.230682553,-41.3491660741
IN,1004.77215775,32.1276100273,68.1589024901
IN,0.0,28.61,77.2
IN,0.0,28.61,77.2
IN,5774.04505387,35.8204314811,18.8794000381
IN,0.0,28.61,77.2
IN,4742.30927827,35.7476108961,29.7869509659
IN,0.0,28.61,77.2
IN,5004.35837292,39.6115161941,26.7685208824
IN,4541.50163376,47.0103554076,33.2023982268
IN,5182.11887286,15.39791393,31.4730587874
IN,4723.54463047,33.7874634186,30.1796212489
IN,1540.96335781,35.995036138,64.347214727
IN,10985.2335886,7.09738496223,-20.7416771113
IN,1620.05088214,29.8027879341,61.448008559
IN,0.0,28.61,77.2
IN,476.044256362,32.1816388304,74.9801464996
ML,7134.36484771,43.8329693549,53.3683254923
ML,355.772880996,13.1758428474,-11.0598267239
ML,602.269132187,17.4359007795,-6.09625571248
ML,2453.31264175,26.1518751084,8.95135102213
ML,219.4777148,13.079044737,-9.86513604227
ML,616.692931919,17.8993574211,-8.02830091476
ML,1557.87971719,18.405445216,4.40769664404
ML,1758.85785017,27.1484261671,-4.01286168746
ML,6471.62040584,12.0871796406,48.5099427238
ML,439.660559612,13.4959743382,-11.7426930899
ML,799.166154086,19.0428056091,-5.58093565268
ML,3047.32854255,30.626937549,12.2557665312
ML,1393.70244435,3.94077676889,-16.1492457768
GN,5816.00628431,8.3001757733,36.4386541541
GN,4675.20500915,30.9895716438,22.3866255276
GN,5151.89788433,29.134296289,28.253676145
GN,5407.05801249,28.7434193531,30.9785779862
GN,7851.34012527,40.3781926805,53.8930520014
ML,2217.58598219,29.5293165467,1.10655526599
ML,11647.7976043,18.4942482381,96.2940566587
ML,3638.01989551,35.5066972698,15.1617727428
ML,1431.83877923,17.8326707219,3.43958382933
ML,4874.72355503,41.1550687018,26.5759099677
ML,8168.68749472,14.2718492942,63.7794925327
ML,6154.74884092,30.4406008082,45.5896258111
KG,3575.09493292,39.7633596829,33.8959406323
KG,1423.43262209,37.9060880218,60.0527359395
KG,2842.70586473,45.6273930523,40.7884283398
KG,1428.51566787,37.208580494,88.6946887418
KG,4938.52798045,34.0831742829,21.1466214503
KG,2994.42204639,51.8790232772,38.9139179994
KG,2343.7296863,60.1714321957,90.9321629996
KG,4210.9454361,35.3819129577,28.8133573516
KG,3057.93707861,43.9205698125,38.5215827049
KG,5076.63972296,25.8657550324,25.5230398305
KG,1204.69676394,35.5825466895,65.2512521079
KG,2254.22066578,33.5505856194,53.1310429049
KG,0.0,42.86,74.6
KG,5030.94972968,32.5511038944,21.0916736033
KG,2915.89811769,29.2607082594,48.67806598
KG,1423.43262209,37.9060880218,60.0527359395
KG,0.0,42.86,74.6
KG,0.0,42.86,74.6
KG,4926.7493579,34.2356293272,21.184891692
KG,870.179174751,43.7673138329,64.4899577732
KG,0.0,42.86,74.6
KG,4583.69532205,41.8617897326,20.8784260713
KG,0.0,42.86,74.6
KG,0.0,42.86,74.6
KG,2561.37413816,26.6835749343,56.6322046861
KE,6034.23823205,34.1009371566,76.5281588419
KE,3204.72951543,15.3722683419,58.6703533182
KE,4744.926829,34.6644367224,17.0979267744
KE,5258.00899682,43.2665356018,41.8542970503
KE,4597.88848796,20.6773840402,3.68019800363
KE,4779.62735937,32.3955254111,60.9829890219
KE,5309.58571482,43.6140962661,30.78888783
KE,6144.6784162,51.0139739283,34.6893534161
KE,3372.30053074,14.2228634123,12.3921331287
KE,2486.74530458,12.5596552151,20.6467209762
KE,2759.07230231,7.0075580504,58.8298904767
KE,3672.65433026,26.9552599902,50.7754415403
IR,3685.83268236,16.8077591661,79.6355557017
IR,1582.53289193,37.6534024181,34.7740138323
IR,806.046833019,41.0378469439,45.9375134344
IR,6515.57067322,17.9609474053,-8.52633162656
IR,2434.01027572,34.1498131329,26.1424514986
IR,4082.27239327,35.9942356988,8.18353814165
IR,1258.47142733,35.8756464669,64.6219942692
IR,3362.86836711,40.4635328003,15.2967879519
IR,1327.70441874,28.2876595973,41.3122983362
IR,3218.46727599,19.5438530316,26.2266546021
IR,4319.79159701,29.6980601304,7.93984479261
IR,4478.02097662,34.0544727726,4.54455475536
IR,1254.12585666,37.9183946003,38.3620654947
IR,3189.27995328,35.3021376869,84.9140425451
IR,3221.30358784,40.1420677659,16.8922578394
IR,3950.65466911,42.2973326018,94.3103380785
IR,606.566866728,38.3896371749,45.9020648417
IR,1721.27795758,30.6724748649,67.8904643104
IR,4428.40852925,36.0530786767,4.42515007117
IR,522.708875613,36.5075620129,45.9989248814
IR,1161.33659764,34.5110504401,63.4151876348
IT,2215.80810658,26.3084182494,25.4027734577
IN,4205.16587869,37.4518450766,35.4470812863
IN,3874.65370294,13.1539762952,108.574079704
IT,3239.02211893,48.3024765186,50.9229943967
IN,11115.2662073,17.79585663,-28.544546064
BZ,1000.2916744,11.9042627453,-81.9088461061
IT,448.128199215,38.2123099859,13.7553512694
IN,4353.00139357,30.5806778586,34.3897483401
IN,5695.93701073,38.8558780935,19.2127558412
IT,900.765500951,34.6593242361,15.6998214225
IN,3758.86526547,34.5912899026,40.0755299742
IT,779.251077175,43.3395809246,21.2840682555
IN,4979.00985219,27.2823550226,28.9129028253
IT,2851.07406356,21.9738947916,29.0041600682
IN,5635.5642613,42.7588547209,19.4981548262
IT,1986.55364639,50.248934264,33.8222214901
IN,5412.25219814,32.0251358612,23.4249932552
IT,2032.01182288,40.52412396,35.4692705737
IN,4459.43698653,37.8664596627,32.7232916758
IT,5974.68485118,-5.98368093584,-6.29554419645
AL,7082.69814935,21.7794176659,88.7390542138
IT,1233.93898091,38.1189200429,25.2922989766
IN,1433.40593761,33.8458476189,64.2948370401
IT,3655.29932272,15.7624651952,32.103670287
AL,1935.43979967,28.0234236069,7.91574024942
IT,3086.00110651,52.5963697793,-23.4229338786
IN,674.460253952,31.8077037773,71.6805417077
IT,1469.735037,45.2188881045,29.1624545229
AL,1927.26098277,35.4811008553,39.4210869854
IT,2337.1852386,37.8510826695,37.9646300658
IN,5104.20010621,41.1132680073,25.6325202313
IT,5797.49725208,39.3687109059,79.1552464169
AL,636.876451593,45.600973758,24.4049691424
IT,2060.34312064,53.1512272964,32.609111739
IN,2265.84636327,40.7569987266,58.8710856301
AL,3078.53267284,31.2053626677,-10.4064768816
IT,2060.34312064,53.1512272964,32.609111739
IN,2074.64020766,37.5757929637,58.9739904192
IT,1418.1686912,38.8032672582,27.8155624221
AL,1093.54171708,40.3679215065,32.0502600436
IT,2554.33467224,42.1789121116,41.900887692
IN,2084.48534571,40.6750749496,61.2975446341
IT,3151.32246942,23.2657619887,35.6571545887
IN,6154.23284591,36.5779613396,14.6500092385
IT,4204.88244444,10.7637198591,-7.68108528337
AL,3747.18353204,26.9636943953,54.6038633679
IT,4532.86382389,38.1730134169,63.3916846792
IN,1370.75325244,34.8412059633,65.5841612244
IT,3437.03151412,12.8312938345,16.284794419
AL,870.063813274,43.7084794,29.3235515008
IT,2056.44799804,43.4233078749,36.2757094488
AL,2995.53406239,40.2564029943,53.6666481728
IT,3720.42065501,37.427255609,53.6090067136
IN,1440.38996948,34.4214038713,64.517103146
IT,2610.89789964,20.472330602,19.4619752197
IN,0.0,28.61,77.2
IT,6678.16608327,28.3256436456,81.9274269099
AL,908.840709869,40.7299660696,30.030431722
IT,2158.19986942,49.2633279432,36.6894046498
PK,824.226055181,34.3600539736,64.7359165197
IT,1347.76135026,40.7267517879,27.694342703
PK,3976.86548212,32.4799932078,32.5246792469
IT,3371.6255912,33.9398902392,47.7292371004
PK,3188.50328738,51.3587581761,44.7065099137
IT,744.229909119,40.267590527,20.6047422581
BR,5337.64862781,12.55471919,-12.0220571712
IT,600.050471395,37.8634915555,16.5616205055
IN,6402.63889219,62.6845017245,9.86557895395
IT,2733.58656423,18.7348145961,9.90162570453
AL,5158.26410415,15.9634775563,61.5259722733
IT,4545.96783781,14.486178982,-19.1777294848
AL,1832.10816586,25.8106092294,21.6579850324
IT,803.916046547,39.9088278731,21.1472992986
IN,1149.91989211,32.3493323368,66.6959044017
IT,744.229909119,40.267590527,20.6047422581
IT,2480.30732792,34.9845171228,38.0774175802
IN,3326.41883209,38.0525444102,45.035346638
IT,1664.66528952,39.5859756151,30.9700550854
IT,3162.34581251,15.817137286,20.2105642999
IN,2569.92870363,37.2202057402,53.1402395443
IN,6522.06803341,26.6842800713,13.7917480249
IN,1781.18612733,39.0017118854,63.8605185663
IN,4990.4756151,37.8053757137,26.9992179691
IN,2922.76036711,34.7911989279,48.7631772911
IN,7172.79595172,26.9575091413,7.14072148213
IN,1620.05088214,29.8027879341,61.448008559
IN,2980.18133539,47.2068997324,55.0000789122
IN,1661.75453035,32.0917352422,61.2944621438
IN,5725.7079729,34.1610219237,19.7285426519
IN,2160.64100719,35.5966202801,57.0589068733
IN,4752.73398515,27.0170370905,31.20952003
IN,1208.92024308,19.7941138197,83.029359235
IN,8247.94693608,20.6086645193,-0.85631256722
IN,5001.62917585,37.2564644424,26.9179713453
IN,6087.00950687,38.2616790812,15.0188743049
IN,4646.59278643,36.8109407564,30.7345375928
IN,3598.19907345,39.1051016547,42.2613060172
IN,248.669678736,29.5965190694,75.0565149676
IN,2691.02387986,37.457392216,51.8773466957
IN,1073.42035063,20.106422268,73.5244779609
IN,90.0078574491,27.9344352801,77.6103791515
IN,248.669678736,29.5965190694,75.0565149676
ML,5394.54028546,21.1953946167,39.3381796413
ML,4602.13253676,24.3862944925,31.5927387742
ML,1839.2346221,28.195826887,-6.01308603551
ML,4547.84291612,36.4873602324,26.0371358593
ML,3447.37408376,26.0706804222,19.7785696962
ML,8524.70463458,-11.050849225,61.1006590223
ML,5967.04700664,26.7390113543,44.2403334237
ML,7019.23469793,42.1937333515,52.4335965215
ML,3057.67882024,32.2449086496,10.6870879273
ML,7528.68729109,22.3518727086,58.9213891886
ML,4165.88903446,17.1619091573,-44.4513669591
ML,1508.87072404,21.3839991583,-17.8615716592
ML,2127.63404149,8.83434487835,10.026483753
ML,1344.40302973,7.50424967617,-18.386123095
ML,1336.63772939,21.0007619401,0.0830597046852
ML,5213.23228039,36.3317078501,33.904900009
ML,680.413145159,12.3900781119,-13.9270650371
ML,766.593936848,17.1561599953,-3.1143827118
ML,7931.43859591,41.5079146287,63.0469693824
ML,3448.72912616,24.8908680613,-36.2848230216
ML,1421.83559265,22.1007398943,-0.065466799347
ML,1242.88385091,7.7636561529,-17.5381104224
ML,1925.76839839,23.3274807671,5.10520558913
ML,1230.09872236,23.1190034675,-7.79155723117
ML,742.165674158,10.7720297389,-14.1605616573
ML,571.262968451,17.4885336461,-8.50180923459
ML,315.127833823,10.7930418713,-6.02290676994
ML,1064.94729718,3.62937755503,-7.09329644292
ML,4637.56696962,3.6293760395,-46.881362963
ML,6114.66369022,25.5357329977,45.7514618904
ML,4479.90895083,33.059804408,27.3361885684
ML,223.003763784,12.5112469692,-9.93975759236
ML,1300.73555489,23.239411083,-4.59449886297
ML,4567.27054134,35.9471805605,26.634691181
ML,4721.07181785,29.2394848944,31.4990100743
ML,761.951087641,12.9669978977,-14.6436526575
KG,1695.67114815,53.1221370762,59.3116758287
KZ,7285.63976928,22.0122496361,-0.748297329989
KZ,5055.06276933,31.7850200699,18.4867110586
KZ,1545.30300758,50.4570243192,50.6434956624
KZ,879.506611105,49.5541808776,60.025310392
TJ,9820.83661366,3.94077676889,-16.1492457768
TJ,5151.48837183,32.2280462259,14.7935768105
TJ,2823.25008244,44.7832490104,37.5035133709
TM,3949.86429287,31.8087542208,11.5150386536
TM,4418.49525238,34.4708425261,16.0774199007
TM,7672.74034184,40.8820066235,56.4655957788
UZ,1093.6933986,50.2028598303,65.4864952502
UZ,3005.57329247,48.3981698108,34.2031021756
UZ,2565.42546358,44.7440200993,39.5600892942
UZ,525.896360553,37.2597270975,71.8067207925
UZ,3430.85968828,54.6284606801,29.5780054181
UZ,1606.14723535,39.0256234383,51.5328134058
KE,924.52803575,6.31306891209,34.6557343956
KE,0.0,-1.26,36.8
KE,0.0,-1.26,36.8
KE,0.0,-1.26,36.8
KE,0.0,-1.26,36.8
KE,924.52803575,6.31306891209,34.6557343956
KE,0.0,-1.26,36.8
KE,0.0,-1.26,36.8
KE,0.0,-1.26,36.8
KE,0.0,-1.26,36.8
KE,2243.84524314,17.4542861966,32.9234970055
KE,4893.7586041,40.1248063522,42.0002550515
KE,2827.34820079,5.95904730456,13.8062743566
KE,3950.9457547,16.6224298118,7.92875132459
KE,3603.16741325,14.6286353526,10.2934136189
KE,2158.80959255,15.3087400398,28.7628152763
KE,4687.78822466,11.4621077038,-1.25814200328
KE,3871.21870749,26.6168736397,18.5755815577
KE,6263.65949821,21.168223574,-12.7130311104
KE,5182.92340459,40.4540377789,21.047746266
IT,3935.78487614,30.3830339811,-26.9307118391
IT,725.960243595,41.5386684989,20.7480315544
IT,2975.6115013,28.2710449404,38.8037486377
IT,1544.33482549,41.8159403234,30.16100773
IT,991.147095171,50.3099222854,11.5045463929
IT,3672.32154375,42.7462357908,55.2064366184
IT,1943.67052068,33.8504825581,30.8649410179
IT,841.780832129,38.5880641397,20.8112201952
IT,1445.13512531,40.8064450668,28.8277844625
IT,1812.15561786,39.9166274158,32.7702338772
GR,862.403216862,39.91,32.83
GR,133.375961812,36.9973726675,23.0386106495
GR,2030.3465459,21.8119006672,30.7409039693
GR,387.350776282,39.7879717608,27.2700891376
GR,4299.05221593,19.6499310135,-12.8825831683
GR,2530.94316462,21.3713067162,7.81911194462
GR,2658.35073387,41.2852806107,52.9278110248
GR,1815.68321311,41.415364363,43.3517775818
GR,862.403216862,39.91,32.83
GR,517.555361328,39.2318585574,29.1245855769
GR,344.847855534,38.848660432,27.2972002469
GR,233.144749783,39.6889667967,22.3718627835
GR,6936.00824655,19.3827634214,-41.6339530469
GR,962.24086149,33.8015696733,15.0198172166
GR,344.847855534,38.848660432,27.2972002469
GR,555.457256114,40.1714547894,29.1227853607
GR,1018.76782288,33.6593663755,14.4410527474
GR,5530.30118148,36.7771570218,84.0393604828
GR,187.106601132,37.9795150062,25.7307471365
GR,476.820990931,34.6116689838,26.4839791249
GR,871.315385399,30.7329236924,25.5094152942
GR,188.207449693,36.7340862058,22.4744969027
GR,163.262227538,39.1260598789,24.7516492345
GR,397.552309823,36.1700969198,20.1410214185
GR,459.408662213,38.6800990335,18.7995008039
GR,105.388406553,38.6759327589,22.9580175129
GR,2739.45032353,15.9813985227,32.4246031856
GR,1617.10576051,31.5149393842,8.89839832769
GR,3511.79593775,19.8160159072,-3.67914078381
GR,2383.44757446,17.9818244565,19.9362535924
GR,0.0,38.0,23.71
GR,225.910580292,38.5303472044,21.3556924861
GR,792.974399017,40.0227739424,32.0019113414
GR,172.253959922,38.4375829841,25.491290892
GR,1104.4334978,35.7141014944,12.3042863588
GR,1055.56610538,31.6530369642,15.9505298119
GR,935.84266527,32.591644027,30.8843131925
GR,406.650622753,38.9652426479,19.4629121133
GR,1046.84735669,32.953770933,32.7393634481
GR,305.978141113,40.2828665784,22.0929757218
GR,1007.01975646,38.5518201107,12.8069987035
GR,138.057624734,39.1493066414,23.396313535
GR,3388.49342035,27.0780340651,-8.18686545045
GR,346.768476605,40.1970253487,21.1693210346
GR,2685.22424942,37.352977165,52.6953599393
GR,1057.96702037,36.4285181618,12.5678655618
BR,6847.31282207,25.4754346221,-5.62916698911
BR,8256.85959718,32.6445823639,5.39852264798
BR,7415.83955848,24.0596184798,2.23722100557
BR,7355.48046432,22.9501362481,2.37162854217
BR,4792.61844654,23.6234910589,-37.023959029
BR,7853.64823143,31.1158525222,1.71013517159
BR,7058.17808244,30.6505978517,-8.26103143968
BR,9378.41956299,40.5217430991,13.2095018698
BR,10051.5384039,40.1585143405,21.9776736507
BR,7025.3927947,29.016371934,-6.89382182671
BR,4514.77778486,19.2476707045,-31.8096554549
BR,8042.76002969,31.9352694958,3.34864807422
BR,11419.3505956,32.7477324628,40.5330195378
BR,5306.80241982,23.9621856776,-25.9067037979
BR,10161.6735557,37.0933194282,25.0242570035
BR,11089.2048254,52.1887835898,28.5406862312
BR,8140.03826721,34.3697404471,2.40375078089
BR,11948.7634887,56.9270546247,39.3770895839
BR,5940.20991119,31.8042763746,-30.0300077533
BR,10050.478107,15.1189148452,32.8624049224
BR,11397.8195621,38.705574125,38.4234687397
BR,12406.6881343,34.8439539762,50.3463723321
BR,17703.6717524,-9.24675874081,116.610248695
BR,14118.9910671,24.435816203,68.5144288936
BR,13663.0783348,38.1730134169,63.3916846792
BR,11368.8782761,44.450682191,36.0239245451
BR,11971.5993032,40.6049805973,44.3734942844
BR,10756.1935399,56.8717670004,19.6891521028
BR,10579.525267,46.8124501744,24.6526654816
CV,2577.66942363,16.3808734288,-0.763515521289
CV,5699.70707207,27.5134773587,27.1295346474
CV,6531.48595508,24.5387911185,35.078624259
CV,7994.01155983,26.8333478545,49.1006581768
CV,6630.63480772,29.268817021,36.0566259399
CV,4478.79047688,12.5470773218,15.7086370926
CV,5735.08351288,32.7193736699,26.7852495256
CV,6601.65830696,41.038192631,34.3795362925
CV,7816.0817294,31.5384300018,47.8200117738
CV,3827.46680895,22.1437312802,10.0735611018
CV,4119.32580689,29.741405678,11.0639032538
CV,7905.83252801,22.1209725178,47.6504924029
CV,8796.83212101,32.2547674942,57.7969850224
CV,5481.02651621,31.9433453956,24.3432097173
CV,6371.82981151,13.4872955632,32.5679354934
CV,5000.4468293,28.4419194081,20.2226723163
CV,7081.27830216,46.365599709,38.8277878032
CV,5182.1940587,38.87734132,18.7816379522
CV,7128.8891399,44.7584908784,39.7746824917
CV,4010.3489856,20.7238180279,11.8975886013
CV,5193.41736821,40.008791189,18.3330682495
CV,7764.07411527,34.9075205164,47.4850107503
CV,7880.57822474,50.7584895999,48.3668306326
UZ,2533.15620638,37.3814056345,41.6679554321
CV,7087.6662239,39.184160103,40.1439549997
CV,6757.64477041,30.1204949451,37.2844365866
CV,6034.09787008,35.9353020618,29.2602761512
CV,1175.94025957,21.3535151416,-31.5767188925
CV,4063.10873537,13.5096501434,12.1755850938
CV,5667.2818854,29.7252902792,26.5786363796
CV,2180.14143956,26.1952715132,-7.73379124466
CV,13897.894515,22.2207147162,106.190351216
CV,6261.03589436,29.9948428081,32.4020008131
UZ,2756.54473434,41.7522441445,37.707256111
UZ,3048.81175717,43.2065461538,33.9968704475
UZ,935.798557098,35.3119627103,62.4495218434
UZ,1255.8161972,33.3650407762,78.2948202897
UZ,3377.82883734,39.8370172678,31.1097005304
UZ,3667.20819936,37.2481337111,28.8635100795
UZ,638.867542691,38.4786816329,63.1182712869
UZ,2598.64055948,37.2502194423,40.9833663455
UZ,1553.64932871,41.6427789748,51.5417600992
UZ,1197.48865254,32.580299491,62.5060048293
UZ,4234.58798375,30.6614360917,26.1220083241
AU,18798.7712071,36.5024805748,-6.19051596311
AU,14973.5312929,34.2748738922,34.3322902909
AU,8499.9845712,2.74360320084,83.0604946935
AU,14222.1276433,23.1118408293,36.4642539055
AU,3223.63821554,-35.3006885697,115.330552367
AU,11931.227623,37.1622945774,72.3320631995
AU,6967.46656608,-11.5713628802,88.6846140242
AU,18499.5106846,41.0503100123,-3.03252794685
AU,14854.317191,36.8342883967,36.845285468
AU,13820.887792,33.0113957824,46.5284546453
AU,17624.7695027,13.6100334629,-7.90070179651
AU,10809.7324662,29.2431400049,79.426262152
AU,4404.30658169,-17.4214807895,111.94281396
AU,10701.8804994,31.1530277929,82.7359871014
JP,4382.3627856,14.5458824261,105.347681242
JP,5688.90191439,20.9619006201,86.564203815
JP,7597.32826435,31.3701894149,60.0167482102
JP,8157.25596837,39.2058729556,48.1059682662
JP,9108.5167324,36.4803258988,38.1296195741
JP,6666.58347192,35.0154104359,68.4335044991
JP,7077.39372994,22.7606201775,70.8886083591
JP,8461.38094808,33.7147134756,48.4121403356
JP,10356.4161113,50.2333039281,-3.56710920719
JP,10368.5633888,34.9520059233,22.5405887558
JP,6629.74184119,41.7956758527,65.4250947081
JP,6772.87755274,35.0602011513,67.206461121
JP,6083.0119736,46.8203647025,70.0502672908
JP,13493.1299004,20.2225152153,-5.0084603646
JP,7847.86053549,28.280706081,59.1602051463
JP,6821.29564691,38.0073958063,65.084205221
JP,7838.85688747,34.6701231409,55.1380127638
JP,11576.1876504,43.8997865458,-21.2423344363
JP,7194.5511609,20.1430544565,71.2697974737
BZ,5710.0265934,3.49311711452,-41.1927608758
BZ,7279.85199268,28.1094760085,-21.8419719738
BZ,6007.10871325,40.4766928912,-35.5445123852
BZ,10772.5057592,18.7747839916,9.19084304119
BZ,1602.3797183,20.5644831695,-74.7681106619
BZ,4465.13065256,47.6227960239,-60.8577113261
BZ,9330.23425736,68.7322985903,16.7711296547
BZ,10321.2015238,33.4954221591,10.3609683624
BZ,2111.22377554,19.0918273855,-69.9357444737
BZ,9096.97402512,71.4094747519,13.2838936361
TZ,6631.94596462,14.7091347492,-17.1706730611
TZ,3612.39344379,21.2852191597,21.6272073634
TZ,2222.2768486,2.50533739257,18.9052564136
TZ,6227.84705477,27.2955945284,-6.80453673719
TZ,4677.62197514,31.4291606283,22.0204691352
TZ,1126.58094631,-0.483233543667,28.0021296749
TZ,9109.27951289,33.6281663131,-34.8376629383
TZ,6537.33552664,19.0042529392,-14.6524316905
TZ,5798.70258331,5.63986588911,-12.2729105773
TZ,8336.25329634,37.7981947621,95.7988884135
TZ,5118.20907932,35.6837414953,22.8704749779
TZ,5612.96743284,39.2362571984,51.8074466934
DZ,2279.22854652,33.8644059058,26.7837691822
LB,13767.4560105,-47.3534492473,130.296041796
MA,8162.94298694,19.1227464433,70.8260102715
MA,3775.32554269,29.4441481936,30.7643190931
MA,3366.92955453,31.8877881785,27.3704905891
UK,856.368522148,49.0543916395,10.0553951049
UK,3451.66695792,44.3223005746,43.1603616564
UK,585.417440016,49.4893537847,6.19513876092
UK,3192.03759691,41.4885149096,36.9047388891
UK,3001.11322023,41.6045339765,-34.5483577581
UK,4391.12773797,32.6156635811,44.1726319872
UK,4185.82099493,24.7606885359,-29.7499194944
UK,4938.06545182,42.0349572489,61.9860478432
UK,637.648657793,48.4334591282,5.53570138667
UK,3099.32668277,30.8957096781,-20.8745488326
UK,3751.96349578,38.2908827191,41.5303079226
GE,2038.33925296,31.5940483087,62.4373450868
GE,0.0,41.71,44.78
GE,674.460253952,39.8923685304,51.9771411197
GE,377.527536845,40.2776291067,40.9680362289
GE,0.0,41.71,44.78
GE,1567.94151123,44.7747146947,62.6541079685
GE,0.0,41.71,44.78
GE,2863.73771062,23.8180441139,64.6816596551
GE,1481.2217919,45.7752243486,61.3410337604
GE,0.0,41.71,44.78
GE,1370.75325244,37.5757929637,58.9739904192
GE,674.460253952,39.8923685304,51.9771411197
GE,1370.75325244,37.5757929637,58.9739904192
GE,971.972924896,40.7595261206,55.7167772127
GE,0.0,41.71,44.78
GE,1852.59764404,37.7068518142,64.6606065531
GE,0.0,41.71,44.78
GE,1352.42006909,42.6629929156,60.2853868947
GE,0.0,41.71,44.78
GE,0.0,41.71,44.78
GE,3224.79982181,14.3825694193,41.7878188418
GE,1193.20792407,45.1247979181,57.9701256625
GE,1861.10472627,34.2788544936,26.9635190092
GE,705.118079849,38.2321572026,38.3924444949
GE,3657.72444579,36.8419319786,84.8800332457
GE,3300.5507588,33.6982033313,10.4695418462
GE,510.21366972,42.5503591325,50.5267383795
GE,0.0,41.71,44.78
TZ,6232.15873646,31.8641420596,74.5612394388
GE,1352.42006909,42.6629929156,60.2853868947
TZ,2688.74371522,11.4210738893,50.4555446579
TZ,2812.69565983,14.783135157,47.4239834415
TZ,2086.31882026,7.46958490748,47.1410148738
TZ,1716.29540035,6.71775015366,42.6352806131
TZ,3447.22131998,22.720173323,30.4879729694
TZ,4270.22805644,29.6697471631,42.0524821463
TZ,3492.69176115,23.3046917175,39.7236567232
KH,6450.58146419,32.8325816284,49.4126428374
KH,113.883892279,11.9954886029,104.03051701
KH,0.0,11.55,104.91
KH,113.883892279,11.9954886029,104.03051701
KH,3170.20871932,6.54178362284,78.0438673621
KH,1694.85158457,15.6053750354,90.661146828
KH,721.119737502,17.6187330249,105.862968083
KH,113.883892279,11.9954886029,104.03051701
KH,721.119737502,17.6187330249,105.862968083
KH,113.883892279,11.9954886029,104.03051701
KH,4520.97124902,30.7758969047,68.8318733142
KH,6492.79034595,46.203898048,53.7455505693
KH,6886.35516405,29.8961925611,44.6186363148
KH,8175.15252572,21.260759543,32.5145139818
AM,5288.73869915,31.6223966852,-10.9799294199
BR,5992.4190395,25.2963132418,-16.8618870469
CD,3527.54058706,23.619287223,26.6187532005
CI,3050.79129687,24.9038294261,14.2154536083
CV,758.780020811,9.46428223982,-19.95539035
DZ,5118.62208138,22.82301299,51.3951259636
DZ,2460.50584811,21.2149975809,19.4359303206
DZ,1759.25721242,23.6664158183,-5.36049412138
FI,2413.69318243,39.9144513025,30.5383455861
IN,6504.04227945,25.1140422601,14.5443728058
IQ,1426.51776615,29.6760624309,30.8345183783
IT,1510.68079671,29.467034259,16.5432443608
ML,8748.92807023,23.1274956626,70.3185372804
ML,1918.41818496,26.5261735321,1.17036709893
ML,6344.55661294,65.6591802916,7.15736861443
PK,4632.17086524,40.6270819586,23.8073271581
PK,7368.23136056,3.36492204685,13.9878240674
RO,6065.12930907,10.0251369459,-18.7224050156
RU,5341.40771148,21.6522580037,-3.13152383065
SD,5931.16925094,37.6505001229,-19.2555399012
SN,6694.42883772,30.7382890395,42.6101531248
TN,6739.92203276,42.6997720968,87.1155190201
TR,211.534216619,38.1751069176,32.2092322572
CN,6424.10196599,31.1101803229,48.4346914869
CO,3249.18918867,18.842011334,-49.7247839571
DZ,2807.51533958,13.7298833633,-4.1641325475
DZ,1317.84491692,37.4971139967,-10.8320348951
ES,4775.58758056,18.5446342056,-43.7491978797
ES,2260.96219555,33.2015245192,18.6716752131
ET,1596.60766353,20.008550597,30.4488613075
FR,2457.99692396,28.1332128226,-1.45532146813
IL,10336.4080992,18.8593428479,-64.4577741988
IN,1720.6744117,33.8327364827,61.1727532317
IN,4577.12881553,27.699881656,32.7611483571
IQ,4300.79209277,31.7486762208,0.722095411463
ML,6620.23300563,24.7170563121,-66.5456322084
ML,4285.24465435,35.8166700742,23.3159919956
MX,9697.80392542,23.1181517562,-9.45963874084
NE,1858.23638142,15.6382197193,-14.1230838017
NZ,19330.9505895,26.7863884167,-12.0521041535
SN,2553.66962141,25.4706822748,2.7215440343
TR,2046.5907549,34.4353007432,12.0105846413
UK,6086.77904199,32.0542619407,67.410470225
US,10644.5866116,34.2203613722,47.3798087385
ZA,11588.5370899,37.4717949533,-54.8852962048
CM,3101.27784298,26.2725344463,-3.05232345071
CU,8324.71703305,31.5273814853,-1.36631832045
EG,4295.57848295,11.1426712115,64.9378618736
IL,1500.13270687,19.0178248764,35.6892670537
IN,5065.65811412,38.0501164441,26.1706379899
IN,4103.90756823,40.0195093097,36.7871270448
MT,6628.28907605,33.864790967,84.8276160873
PR,10866.1376145,13.4440073281,31.1925407301
AL,3896.02942567,29.4022790765,58.1707857024
BA,1097.54536093,42.8008956288,31.1839756318
BG,639.657991294,38.027248539,19.5951899319
BG,4473.29115295,33.4442269665,70.9187243979
HR,3467.26234818,40.8820066235,56.4655957788
HR,2463.01663578,30.4200450727,34.2966052808
MK,1128.32557056,45.3917257132,33.8766438618
MK,7414.31574271,11.5858318888,-42.6818461513
RO,2368.23677386,33.2489061705,47.8025634837
RO,3534.21389308,29.0425153453,58.7955424302
RS,2083.37963563,29.7314170939,32.311879219
TR,529.494905742,42.1001708226,27.6082010561
XK,3278.87344341,35.3235299038,56.0973865526
AL,2705.25403907,49.6756511399,50.7285334072
AL,4630.77414075,30.4194973007,67.2184635279
AL,2985.88708743,40.2401452358,53.5508207834
AL,3241.05242022,37.0145008208,55.2033309646
AL,3600.29471137,36.3899134143,58.9870171866
AL,1787.83901823,36.559151226,1.17055309008
AL,684.041813954,40.4077537921,27.4053418349
AL,5626.94480757,7.76978306002,-18.8365522827
EG,1099.55459512,39.2318585574,29.1245855769
EG,4050.39629425,22.7873237453,-6.61109713272
EG,3835.25844992,23.1482506772,-4.63631279683
EG,1426.82470266,33.0480346922,45.0260988055
EG,3631.05824503,23.848591012,-2.8960800352
EG,2174.82410288,48.379040413,27.9995818725
EG,5111.43606524,45.364539692,83.8473204563
EG,4146.12346013,30.4361348891,72.287787508
EG,3342.10550092,43.2455547868,62.9425549368
EG,2886.80353823,31.5408376657,59.840692033
EG,1836.43212394,30.4599367056,13.1022504881
EG,2933.33529006,40.4792573764,59.1725398392
EG,5100.30163971,27.774483488,81.1316870172
MM,0.0,19.75,96.1
MM,0.0,19.75,96.1
MM,1312.5556042,14.714733957,85.6518260807
MM,3325.84573698,20.9075456346,65.8904554546
MM,3455.39969515,30.6762889114,65.7728991864
MM,0.0,19.75,96.1
MM,4360.66370218,27.421918782,56.2911467526
MM,644.825784353,14.6922861872,98.3335393702
MM,0.0,19.75,96.1
PK,866.076688685,40.4746950213,76.690540834
PK,2939.85232169,33.2667588223,43.0593416578
PK,6445.87962613,33.5640200346,5.98236397129
PK,1237.80548978,26.1292615795,81.6744077832
PK,5403.34349628,40.0587299786,15.2053826375
PK,1796.07363625,37.3548235886,54.9013558221
PK,1991.1539491,40.2401452358,53.5508207834
PK,128.720060216,34.7304913748,73.4424967361
PK,1430.53477662,45.2568450017,68.3239949289
PK,6175.74842068,11.7637689243,20.5487857231
PK,4292.2881799,44.0322092976,27.4982929411
PK,840.588315931,40.1237581551,77.0029101914
LT,0.0,54.68,25.31
LT,3276.09462745,30.6462105034,5.50085853023
LT,2533.37566854,42.0222997709,-1.35939745802
LT,626.80317073,49.3917765481,24.1556497731
LT,770.732959057,54.1906637584,36.5707537518
LT,0.0,54.68,25.31
LT,3868.68111448,25.8492351819,3.65449913269
LT,698.657796792,51.4539616258,16.9837417923
LT,0.0,54.68,25.31
LT,1819.70282277,50.0306831482,49.6577692355
LT,832.884025657,50.0749194149,34.1601549249
LT,1932.48889068,39.098110831,17.4837245229
LT,3808.39391492,22.9311351799,34.0636937995
LT,1516.58673665,44.8172563097,12.3188524102
LT,1304.16191339,43.7656999438,28.4410165702
LT,4500.70307581,41.2210957889,80.7021556066
LT,770.732959057,54.1906637584,36.5707537518
LT,2384.15703867,34.9193419664,31.9614507331
LT,3338.26388261,53.659004174,74.859770972
LT,698.657796792,51.4539616258,16.9837417923
LT,1960.39757563,38.0385952512,27.130860711
LT,1042.88980794,46.1052962571,21.6866869016
LT,2183.08826405,38.0905900574,37.64971653
LT,4244.37783737,26.6835749343,56.6322046861
LT,0.0,54.68,25.31
LT,357.798642271,52.2623990072,22.1962223212
LT,3778.43596316,41.1274427074,69.949140705
LT,0.0,54.68,25.31
TR,884.010361212,39.0089145624,23.1488370804
TR,1355.74598702,36.1703354163,46.7122887565
19330.9505895 0.0 3708.43536482
