['BG_4_10Fairground.wav\n', 'AF_6_05LaloLalo.wav\n', 'BR_3_01SantaMassaChegou.wav\n', 'BR_3_07NoPrego.wav\n', 'BR_3_11VelhaInfancia.wav\n', 'BR_3_16CucurrucucuPaloma.wav\n', 'CU_3_06HayQueEntrarleAPalosAEse.wav\n', 'CU_6_11Chiquichaca.wav\n', 'CV_3_07MonteCara.wav\n', 'ML_6_3Fununkeesaya.wav\n', 'TR_41_08.wav\n', 'DZ_3_09RabaRaba.wav\n', 'EG_6_03SagalKo(Honorher)_TuDois.wav\n', 'ES_3_08ElliYeddiHaqEnnas.wav\n', 'ES_3_09TiempodeSoleaaDJPankoRemix.wav\n', 'ES_6_06QuienEnganaNoGana.wav\n', 'ET_3_12Gedawo.wav\n', 'FI_6_01Kaluaja.wav\n', 'GN_6_10Sabou.wav\n', 'HR_3_04Cansoneita.wav\n', 'IL_6_07ThroughTheMistOfYourEyes.wav\n', 'IN_6_05PyarKaMatlab.wav\n', 'IQ_3_06YaNas.wav\n', 'IR_6_06TheReturn.wav\n', 'MA_6_12MinYoumi(SinceAlways).wav\n', 'ML_3_03KoteDon.wav\n', 'ML_3_05Yala.wav\n', 'ML_6_01Madan.wav\n', 'MX_6_07Sr.Judas.wav\n', 'MX_6_09SaleSobrando.wav\n', 'NG_6_04Eparapo.wav\n', 'PE_6_03SeMeVanLosPies.wav\n', 'PL_3_13Childhood.wav\n', 'PL_3_14DoCiebieKasiuni(ToYouKasiuni.wav\n', 'RU_3_12AaShuuDeKei-OoLive.wav\n', 'RU_6_12DancingVoices.wav\n', 'SN_3_04Boomerang.wav\n', 'SN_6_10JiinMaJiinMa.wav\n', 'TR_3_03Nar-INey.wav\n', 'TR_6_08Shinanay.wav\n', 'TV_6_11Alamagoto.wav\n', 'UK_3_02TheOutlandishKnight.wav\n', 'UK_6_04PrettyPloughboy.wav\n', 'UZ_14_01SchochVaGado.wav\n', 'AR_4_09TierraColoradaRedLand.wav\n', 'BR_4_04Aganju.wav\n', 'TR_40_04K.wav\n', 'UZ_14_03Bahor.wav\n', 'DZ_4_04YaGalbi.wav\n', 'UZ_14_04IWishYouWereHere.wav\n', 'DZ_4_06GhirEntaIOnlyLoveYou.wav\n', 'UZ_14_05KizilAlma.wav\n', 'ES_4_09EnAlgunLugar.wav\n', 'UZ_14_06JeliJeli.wav\n', 'ES_4_11Rememorix.wav\n', 'UZ_14_07Ona.wav\n', 'GN_4_07Wawata.wav\n', 'UZ_14_08Onajon.wav\n', 'IS_4_14WhoIsIt.wav\n', 'UZ_14_09Fergana.wav\n', 'IT_4_05DanceWithMe.wav\n', 'UZ_14_10Binafscha.wav\n', 'ML_4_12Sara.wav\n', 'UZ_14_11TscheMischod.wav\n', 'MX_4_06Viborita.wav\n', 'UZ_14_12Bolalik.wav\n', 'RU_4_13Adimiral.wav\n', 'UZ_14_13Jannona.wav\n', 'SN_4_03ToubaDaruSalaam.wav\n', 'UZ_14_14TukilmaJonim.wav\n', 'TR_4_12Ab-ITarab.wav\n', 'UZ_14_15YiglamaLive.wav\n', 'IN_4_01RagaMisraMand_Thumri.wav\n', 'UZ_14_16KunglimGuli.wav\n', 'ZA_4_05LahlUmlenze.wav\n', 'UZ_3_10AdolatTanovari.wav\n', 'UZ_3_10Yer-Yer.wav\n', 'DZ_3_01BelelMadhiTheGateofthePas.wav\n', 'LB_4_02AlNashalTheDayPickpockets.wav\n', 'PK_4_14LalShahbazQalandarTheRedF.wav\n', 'UK_4_11SofiaTheSaracensDaughter.wav\n', 'UZ_4_02YallajonimMyDearestSong.wav\n', 'RO_9_01SpuneSpuneMosBatriin.wav\n', 'LT_31_29Dudobileliutrysratileliu.wav\n', 'RO_9_02HoraDinCaval.wav\n', 'LT_31_30Penkiese.wav\n', 'RO_9_03AziEramFrumoasaJuna.wav\n', 'LT_31_31Saulalasadinalylia.wav\n', 'RO_9_04Tiganeasca.wav\n', 'UK_32_02SlowAir.wav\n', 'RO_9_05CiindEramLa48.wav\n', 'UK_32_10LochMonarAir.wav\n', 'RO_9_06Geampare.wav\n', 'MA_33_01ZeyeMeyel.wav\n', 'RO_9_07CiintecDeDragosteSiJoc.wav\n', 'LT_31_32Silogegutelkukavo.wav\n', 'RO_9_08DoinaSiCiintec.wav\n', 'UK_32_01BundleandGo_OvertheWaterto.wav\n', 'RO_9_09JaleaTiganilor.wav\n', 'UK_32_03SaluteontheBirthofRoryMorM.wav\n', 'RO_9_10Turceasca.wav\n', 'MA_33_02BabAadi.wav\n', 'RO_9_11BaladaLuiCorbea.wav\n', 'UK_32_09TheBaldoozer_CentersBonnet_.wav\n', 'RO_9_12Siirba.wav\n', 'MA_33_03Bay-Bay.wav\n', 'RO_9_13DeMaDeieButTePau.wav\n', 'UK_32_11TheEweWitheCrookitHorn_Th.wav\n', 'RO_9_14Briiu.wav\n', 'MA_33_04LeilaaLill.wav\n', 'RO_9_15DubaDubaSiHora.wav\n', 'UK_32_12DonaldMacLean_PaddysLeather.wav\n', 'RO_9_16LelitaCiirciumareasa.wav\n', 'UK_32_14TheOldWifesDance_TheKitche.wav\n', 'DZ_10_01Didi.wav\n', 'MA_33_05Touria.wav\n', 'DZ_10_02ElArbi.wav\n', 'MA_33_06Mahmouna.wav\n', 'DZ_10_03Wahrane.wav\n', 'MA_33_09TaalaFineGhadi.wav\n', 'DZ_10_04Ragda.wav\n', 'MA_33_10LalaAisha.wav\n', 'DZ_10_05ElGhatli.wav\n', 'ET_34_01Heywete.wav\n', 'DZ_10_06LiahLiah.wav\n', 'ET_34_01MothersLove.wav\n', 'DZ_10_07MauvaisSang.wav\n', 'ET_34_02Sema.wav\n', 'DZ_10_08Braya.wav\n', 'ET_34_02YekermoSew.wav\n', 'DZ_10_09NeMEnVoulezPas.wav\n', 'UK_32_15TheWanderingPiperAir.wav\n', 'DZ_10_10Sbabi.wav\n', 'ET_34_03Milenu.wav\n', 'DZ_10_11HaraiHarai.wav\n', 'ET_34_03Yekatit.wav\n', 'DZ_10_12MauvaisSang.wav\n', 'ET_34_04EmbiIla.wav\n', 'DZ_10_13Didi(LiveVersionFromHafla).wav\n', 'UK_32_04ColonelRobertson_The72Highla.wav\n', 'TR_11_01HadiBakalim.wav\n', 'ET_34_05Tezeta.wav\n', 'TR_11_02Tutsak.wav\n', 'ET_34_06Gubelye.wav\n', 'TR_11_03NeKavgamBittiNeSevdam.wav\n', 'UK_32_16ParkersWelcometoPerthshire_.wav\n', 'TR_11_04Gulumse.wav\n', 'ET_34_06SetAlamenem.wav\n', 'TR_11_05GullerimSoldu.wav\n', 'UK_32_17TheDuchessofEdinburgh_Thick.wav\n', 'TR_11_06Vazgectim.wav\n', 'ET_34_07BeneMote.wav\n', 'TR_11_07HerseyiYak.wav\n', 'ET_34_07EreMelaMela.wav\n', 'TR_11_08Namus.wav\n', 'ET_34_08AntchiHoye.wav\n', 'TR_11_09SeniKimlerAldi.wav\n', 'UK_32_18ThePrettyApron_TheHighlandL.wav\n', 'TR_11_10Degermi.wav\n', 'ET_34_08MetcheNew.wav\n', 'MM_15_01ChitKyooThweTogNyinHmarLar.wav\n', 'MM_15_02MingalaThiriProsperousMajesty.wav\n', 'MM_15_03SabeJasmineFlower.wav\n', 'MM_15_04PhuPwaeLatTinTheHug.wav\n', 'MM_15_05ChaukLonBatLetSwanPyaImpro.wav\n', 'MM_15_06ArKarNaBanHeavenlySpace.wav\n', 'MM_15_07ShweSoanNyoGoldenBrownHawk.wav\n', 'MM_15_08DePyaNePyaOnePennyTwoPe.wav\n', 'MM_15_09HylatPanKhwayNewPowerfulKin.wav\n', 'MM_15_10ShewKyetKelHanChiJauntyAir.wav\n', 'MM_15_11KyarChiYanWaitingForTheBel.wav\n', 'MM_15_12ThabayYwetYiAuspiciousLeaves.wav\n', 'MM_15_13NanBhonThiHarBwayDistinguis.wav\n', 'MM_15_14KyaySayTaMannMessengerDove.wav\n', 'MM_15_15SeitKuuYinAhHlaDreamingOf.wav\n', 'MM_15_16MyaManGiriPalaceAtMandalay.wav\n', 'TH_16_01HaeNangMaew.wav\n', 'TH_16_02LamYaiLamPoon.wav\n', 'TH_16_03PhinSoloTranscendentalTechniq.wav\n', 'TH_16_04LerkDaiLermBorDai.wav\n', 'TH_16_05RangJaiRaiWan.wav\n', 'TH_16_06AnElephantsSwanSong.wav\n', 'TH_16_07MooLamLamTeai.wav\n', 'TH_16_08AmazingIsaan.wav\n', 'TH_16_09OhOhOh.wav\n', 'TH_16_10RoopKhaoKrapaoAei.wav\n', 'TH_16_11MaKorThoTai.wav\n', 'TH_16_12TheNangHongSuiteForDoublePi.wav\n', 'TH_16_13SiengSoongWaoSao.wav\n', 'TH_16_14KatikarHuajai.wav\n', 'TH_16_15TamHaKujee.wav\n', 'TH_16_16SoDuangTheSadKing.wav\n', 'TH_16_17SaoNoongSan.wav\n', 'TH_16_18SaoNaSangFan.wav\n', 'TH_16_19PongLangEnsemblePongLangDan.wav\n', 'TH_17_01SoundsoftheSurfOverturePlen.wav\n', 'TH_17_02TheFloatingMoonPlengBulanLo.wav\n', 'TH_17_03AStarlitNightPlengRatriPrad.wav\n', 'TH_17_04HeartoftheSeaPlengOkThalay.wav\n', 'TH_18_01ChatriOverture.wav\n', 'TH_18_02SathukarnTraYapakkokandTraJ.wav\n', 'TH_18_03CherdNawk.wav\n', 'TH_18_04PhlengReuangKamenYaiTheGrea.wav\n', 'CN_19_01LeVentDansLesPlainesFong.wav\n', 'CN_19_02LeRendez-VousKongKiunTouan.wav\n', 'CN_19_03FroidEstLhiverTong-tienH.wav\n', 'CN_19_04AfflieeEstMonCoeurSin-teo.wav\n', 'CN_19_05LeProceesKaoTa-Jen.wav\n', 'CN_20_01ShuilongYin.wav\n', 'CN_20_01YifengShu.wav\n', 'CN_20_02XiaXifeng.wav\n', 'CN_20_02XiaoHuayan.wav\n', 'CN_20_03ChoudianZhuyan.wav\n', 'CN_20_03YuFurong.wav\n', 'CN_20_04Batiao.wav\n', 'CN_20_04DeshengLing.wav\n', 'CN_20_05LiuyaoJin.wav\n', 'CN_20_05PuAnZhouSuite.wav\n', 'CN_20_06LiuqingNaing.wav\n', 'CN_20_06SuiteOverture_Opening.wav\n', 'CN_20_07FanLihuaPozhen.wav\n', 'CN_20_07SuiteSectionFinale_ClosingSe.wav\n', 'CN_20_08ShuangshengHen.wav\n', 'CN_20_08XiaoKaimen.wav\n', 'CN_20_09TaiHuajiao.wav\n', 'CN_21_01YiWuSouYouNothingToMyName.wav\n', 'CN_21_02Silaihuar.wav\n', 'CN_21_03JiuKuangTheDrinkingSong.wav\n', 'CN_21_04WoYaoHuiJiaIWantToGoHome.wav\n', 'CN_21_05My1997.wav\n', 'CN_21_06StoneForestNocturne.wav\n', 'CN_21_07HongNiangHuiZhangSheng.wav\n', 'CN_21_08ShananxiAir.wav\n', 'CN_21_09YellowBanana.wav\n', 'CN_21_10NocturnalLight.wav\n', 'CN_21_11LanGueiJiJi.wav\n', 'CN_21_12TheGreenBrookRunning.wav\n', 'CN_21_13TirikBostan.wav\n', 'CN_21_14Bo.wav\n', 'CN_21_15ChiangWeiCuCuKai.wav\n', 'CN_21_16AutumnMoon.wav\n', 'CN_21_17TheNightOfBonfire.wav\n', 'TW_22_01EHoYi.wav\n', 'TW_22_02EYaO.wav\n', 'TW_22_03PaYaSiVINo.wav\n', 'TW_22_04ToYiSo.wav\n', 'TW_22_05MiYoMe.wav\n', 'TW_22_06HoMeYaYa.wav\n', 'TW_22_07NaKuMo.wav\n', 'TW_22_08Maluppalimianme_Lalai_YiTaKaPe.wav\n', 'TW_22_09LauAhLuMeDaNe.wav\n', 'TW_22_10OuHaLaYiYouYi.wav\n', 'TW_22_11Lalai.wav\n', 'TW_22_12MaoWaPaPaLan.wav\n', 'TW_22_13OuiNaRuWan.wav\n', 'TW_22_14SeNaiKiNiaDaRukai.wav\n', 'TW_22_15YiNaNaZao.wav\n', 'TW_22_16BuSiLiVoLo.wav\n', 'TW_22_17SeNaiKiDaLlaiSi.wav\n', 'TW_22_18LaLiZoKo.wav\n', 'TW_22_19LaNuKoDan.wav\n', 'TW_22_20Balen.wav\n', 'TW_22_21ChantDeReunion.wav\n', 'TW_22_22ChantDeLouange.wav\n', 'TW_22_23ChantDEnfants.wav\n', 'TW_22_24ChantAlterne.wav\n', 'TW_22_25ChantDAdieu.wav\n', 'ID_24_01TabuhGari.wav\n', 'ID_24_02Gambang.wav\n', 'ID_24_03TabuhPisan.wav\n', 'ID_24_04Barong.wav\n', 'ID_24_05SinomLadrang.wav\n', 'ID_24_06LegongKraton_Playon.wav\n', 'ID_25_01Ketawang_Puspawarna.wav\n', 'ID_25_02Gending_TeDJanata_LadrangSemb.wav\n', 'ID_25_03Gending_Mandulpati_LadrangAgu.wav\n', 'ID_25_04Bubaran_NudanMas.wav\n', 'ID_26_01Sambasunda.wav\n', 'ID_26_02AnomanObong.wav\n', 'ID_26_03KaretaMalam.wav\n', 'ID_26_04Begadang.wav\n', 'ID_26_05JerukManis.wav\n', 'ID_26_06DarDerDor.wav\n', 'ID_26_07LosQuinTallu-Tallu.wav\n', 'ID_26_08CeurikRahwana.wav\n', 'ID_26_09Sumbawa.wav\n', 'ID_26_10Rentak106.wav\n', 'ID_26_11JogedLaksmanaMatiRadenDitemba.wav\n', 'ID_26_12PageSakarimpang.wav\n', 'ID_26_13Kucap-Kicup.wav\n', 'ID_26_14BolehBersukaRia.wav\n', 'ID_26_15BengawanSolo.wav\n', 'JM_27_01Ragnampiza.wav\n', 'JM_27_02JahShowThemTheWay.wav\n', 'JM_27_03Cb200.wav\n', 'JM_27_04CokaneInMyBrain.wav\n', 'JM_27_05DreadCalledFred.wav\n', 'JM_27_06FlatFootHustling.wav\n', 'JM_27_07TheGeneral.wav\n', 'JM_27_08DaylightSavingTime.wav\n', 'JM_27_09ItalFighting.wav\n', 'JM_27_10SoLongRastafari.wav\n', 'JM_27_11CrashieFirstSocialist.wav\n', 'JM_27_12BionicDread.wav\n', 'JM_27_13RepatriationTime.wav\n', 'JM_27_14Cornbread.wav\n', 'JM_27_15MarijuanaInMyBrain.wav\n', 'JM_27_16CupOfTea.wav\n', 'JM_27_17IThirst-Pt.2.wav\n', 'JM_27_18ISawESaw.wav\n', 'JM_27_19PlantationHeights.wav\n', 'JM_27_20MeltingPot.wav\n', 'JM_27_21WarIsOver.wav\n', 'JM_27_22NattyB.Sc..wav\n', 'PK_28_01YaarKoHamneJaBajaDekha.wav\n', 'PK_28_02ZahidNe.wav\n', 'PK_28_03IshqMeinTere.wav\n', 'PK_28_04RoshanJamaal-e-Yaar.wav\n', 'PK_28_05JiChahe.wav\n', 'PK_28_06MujheBekhudi.wav\n', 'PK_28_07JalwaBaQadra.wav\n', 'MA_29_01Mashaliya.wav\n', 'MA_29_02Tuishya.wav\n', 'MA_29_03Sana_KalaLi_.wav\n', 'MA_29_04Taqsim_Ud.wav\n', 'MA_29_05Tuishya.wav\n', 'MA_29_06Sana_MaKuntuHadri_.wav\n', 'MA_29_07Inshad.wav\n', 'MA_29_08Tuishya.wav\n', 'MA_29_09Sana_YaWahida_.wav\n', 'MA_29_10Sana_NeddememWaNakhda_.wav\n', 'MA_29_11TaqsimQanun.wav\n', 'MA_29_12Mawal.wav\n', 'MA_29_13Taqsim_Ud.wav\n', 'MA_29_14Mawal.wav\n', 'MA_29_15InsirafFromNubaRasdEd-Dhil.wav\n', 'MA_29_16BintBladi.wav\n', 'MA_29_17HabibaUJarrahtini.wav\n', 'UK_32_05LeavingArdtornish_TheGeesein.wav\n', 'UK_32_06TheSwallowtailedCoatTheMallo.wav\n', 'UK_32_07LordAlexanderKennedy_Tulloch.wav\n', 'UK_32_08DuncanJohnstone_FarewelltoNi.wav\n', 'UK_32_13TheDesperateBattleoftheBirds.wav\n', 'MA_33_07YedidimHiouZehirim.wav\n', 'MA_33_08Hijra[TraditionalMix].wav\n', 'MA_33_11KhaliouLoudidLamimtou.wav\n', 'ET_34_04EnkenYelelebesh.wav\n', 'ET_34_05EwnetYetLagegnesh.wav\n', 'ET_34_09KulunMankwalesh.wav\n', 'ET_34_09TcheroAdariNegn.wav\n', 'ET_34_10Shellela.wav\n', 'ET_34_10TelantenaZare.wav\n', 'ET_34_11MelaMela.wav\n', 'ET_34_11MuziqawiSilt.wav\n', 'ET_34_12AtawuruleguLela.wav\n', 'ET_34_12Gedawo.wav\n', 'ET_34_13FetsumDenqLedjNesh.wav\n', 'ET_34_13TchuhetenBetsemu.wav\n', 'ET_34_14AbatatchenHoyPaterNoster.wav\n', 'ET_34_14Tezeta.wav\n', 'EG_35_03Alam.wav\n', 'EG_35_04QalbiYuhaddithuni.wav\n', 'EG_35_09Alasfur.wav\n', 'EG_35_10GhayrialS-SulwanQadir-Sama.wav\n', 'IR_35_07ShahKhoshini.wav\n', 'MA_35_05SabaAtuRijal.wav\n', 'PK_35_02AzHoosneMaliheKhud.wav\n', 'PK_35_06TereIshqNachaaya.wav\n', 'PK_35_11RahwayWasdiJhokFaridanDi.wav\n', 'SN_35_08Dembe.wav\n', 'TR_35_01FerahfezaPesrev.wav\n', 'PK_36_01YaarThaGulzarTha.wav\n', 'PK_36_02YehMojezaBhi.wav\n', 'PK_36_03AandhiChaliTo.wav\n', 'PK_36_04TereGhamKo.wav\n', 'PK_37_01AllahHooAllahHoo.wav\n', 'PK_37_02TereIshqNeNachaya.wav\n', 'PK_37_03AajRangHai.wav\n', 'PK_37_04DumaDumMastQalandar.wav\n', 'PK_37_05YaardiGharoli-GhoomCharakra.wav\n', 'PK_37_06MainJagiPiyaKeSangh.wav\n', 'PK_37_07SadeVerheAayaKar.wav\n', 'PK_38_01YaHayyoYaQayyum.wav\n', 'PK_38_02DamHamaDamAliAli.wav\n', 'PK_38_03NamiDanamChiManzilBudShabJa.wav\n', 'PK_38_04HazratKhwajaSanghKheliyeDhama.wav\n', 'PK_38_05MeraYehCharkha.wav\n', 'PK_38_06BohaAesWeleKineKharkaya.wav\n', 'PK_38_07MeraSohnaSajan.wav\n', 'PK_38_08DamMastQalandar.wav\n', 'TR_39_01BirBaharAksami.wav\n', 'TR_39_02AdaSahillerinde.wav\n', 'TR_39_03VardarOvasi.wav\n', 'TR_39_04BirIhtimalDahaVar.wav\n', 'TR_39_05DokZulfunuMeydanaGel.wav\n', 'TR_39_06KizSenGeldinCerkezden.wav\n', 'TR_39_07AmanAvciVurmaBeni.wav\n', 'TR_39_08YemeniBaglamisTelliBasina.wav\n', 'TR_39_09OlmazIlacSigneyiSatPagreme.wav\n', 'TR_39_10SeniHerDemAniyorum.wav\n', 'TR_39_11Karam.wav\n', 'TR_39_12NihansinDideden.wav\n', 'TR_39_13YineBirGulNihal.wav\n', 'TR_39_14BeyoglundaGezersin.wav\n', 'TR_39_15DarildinmiCicimBana.wav\n', 'TR_39_16YemenindeHareVar.wav\n', 'TR_40_01Sar.wav\n', 'TR_40_05FeraceninUcuS.wav\n', 'TR_40_06SetreminD.wav\n', 'TR_40_07Ormanc.wav\n', 'TR_40_08Denizin.wav\n', 'TR_40_09CevizinYapra.wav\n', 'TR_40_10GesiBa.wav\n', 'TR_40_11BodrumHakimi.wav\n', 'TR_41_01G.wav\n', 'TR_41_02SenAllahinBirL.wav\n', 'TR_41_03Padi.wav\n', 'TR_41_04BenTabiiKi.wav\n', 'TR_41_05Sultanim.wav\n', 'TR_41_06DileKolay.wav\n', 'TR_41_07HaydiKolkola.wav\n', 'TR_41_09HijazRaks.wav\n', 'TR_41_10BendekiYaralar.wav\n', 'TR_42_01Nat.wav\n', 'TR_42_02BayatiTaksim_NiyziSayin.wav\n', 'TR_42_03BayatiPe.wav\n', 'TR_42_04BirinciSelam.wav\n', 'TR_42_05IkinciSelam.wav\n', 'TR_42_06.wav\n', 'TR_42_07D.wav\n', 'TR_42_08TamburTaksimi_NecdetYa.wav\n', 'TR_42_09NiyazIlahisi.wav\n', 'TR_42_10SonTaksim_AkaG.wav\n', 'EG_43_01EiYaani.wav\n', 'EG_43_02Besma.wav\n', 'EG_43_03Masakeen.wav\n', 'EG_43_04SifSafaa.wav\n', 'EG_43_05BalsamShafee.wav\n', 'EG_43_06YaRamal.wav\n', 'EG_43_07ElliShatrEnhaaTgannen.wav\n', 'EG_43_08KitabHayarti.wav\n', 'EG_43_09YaDunnyaLey.wav\n', 'EG_43_10YalleKhadakHabibi.wav\n', 'EG_43_11AkharSaah.wav\n', 'EG_43_12MishHaseebak.wav\n', 'DZ_44_01AnaAachkiBahloul.wav\n', 'DZ_44_02LazragSa.wav\n', 'DZ_44_03NTouma.wav\n', 'DZ_44_04MoulElBar.wav\n', 'DZ_44_05MoulayIbrahim.wav\n', 'DZ_44_06GuendouziMama.wav\n', 'DZ_44_07NedihaGaouria.wav\n', 'DZ_44_08Consulat.wav\n', 'DZ_44_09ShabElBaroud.wav\n', 'DZ_44_10MenghirekEntiaFiDounia.wav\n', 'DZ_44_11YaLoualid.wav\n', 'DZ_44_12LaVerit.wav\n', 'GM_45_05Bitillo.wav\n', 'GM_45_06Salimata.wav\n', 'GM_45_09KairabaJabi.wav\n', 'GM_45_12Aminatta.wav\n', 'SN_45_02Nguisstal.wav\n', 'SN_45_03Loodo.wav\n', 'SN_45_04MouhamadouBamba.wav\n', 'SN_45_07Letter.wav\n', 'SN_45_08WangoArti.wav\n', 'SN_45_10DiamanoBifoula_HalMaTiWouna.wav\n', 'SN_45_11TaarDoucey.wav\n', 'SN_45_13Yelayo.wav\n', 'SN_46_01MouhamadouBamba.wav\n', 'SN_46_02Boulmamine.wav\n', 'SN_46_03Ndiawolou.wav\n', 'SN_46_04DoomouBaaye.wav\n', 'SN_46_05Gnawou.wav\n', 'SN_46_06BonBonI.wav\n', 'SN_46_07Autorail.wav\n', 'SN_46_08SouSedhiou.wav\n', 'SN_46_09Ndiambaane.wav\n', 'SN_46_10SibouOdia.wav\n', 'IN_48_01TwoLovers.wav\n', 'IN_48_02GardenOfDreamsMadhuMalati.wav\n', 'IN_48_03TheEmperorDarbariKanra.wav\n', 'IN_48_04PowerOfJoyKaushiKanra.wav\n', 'IN_48_05WaterLadyPanihari.wav\n', 'IN_48_06IndiaBlueDhani.wav\n', 'IN_48_07BlessingsOfTheHeartPt.1ImanKalyan.wav\n', 'IN_48_08BlessingsOfTheHeartPt.2ImanKalyan.wav\n', 'IN_48_09MotherGoddessBhairavi.wav\n', 'IN_49_01ComeBackMyLove.wav\n', 'IN_49_02Fantasy.wav\n', 'IN_49_04Anticipation.wav\n', 'IN_49_05Farewell.wav\n', 'IN_49_06Journey.wav\n', 'IN_49_07CarnivalOfMotherKali.wav\n', 'IN_49_08TempleMusic.wav\n', 'IN_49_09MorningMeditation.wav\n', 'ML_58_01Erdi.wav\n', 'ML_58_02YerBoundaFara.wav\n', 'ML_58_03Beto.wav\n', 'ML_58_04Savane.wav\n', 'ML_58_05Soya.wav\n', 'ML_58_06PendaYoro.wav\n', 'ML_58_07Machengoidi.wav\n', 'ML_58_08LediCoumbe.wav\n', 'ML_58_09Hanana.wav\n', 'ML_58_10Soko.wav\n', 'ML_58_11Gambari.wav\n', 'ML_58_12Banga.wav\n', 'ML_58_13Njarou.wav\n', 'GN_59_04LanNaya.wav\n', 'GN_59_05Bassa.wav\n', 'GN_59_08Sara70.wav\n', 'GN_59_09Haidara.wav\n', 'GN_59_13Damensna.wav\n', 'ML_59_01Alasidi.wav\n', 'ML_59_02Balani.wav\n', 'ML_59_06Fanadugule.wav\n', 'ML_59_07AllahUya.wav\n', 'ML_59_10Duga.wav\n', 'ML_59_11Sounafi.wav\n', 'ML_59_12MaliTwist.wav\n', 'KG_64_01IzdepJrm.wav\n', 'KG_64_02KoychulardynKongurK.wav\n', 'KG_64_03TangBulbulu.wav\n', 'KG_64_04Paravoz.wav\n', 'KG_64_05Bozoygho.wav\n', 'KG_64_06ChopoChoor.wav\n', 'KG_64_07MashBotoy.wav\n', 'KG_64_08JolughabuzAzKu\xcc\x88ndo\xcc\x88.wav\n', 'KG_64_09Sybyzgy.wav\n', 'KG_64_10KoshKayruk.wav\n', 'KG_64_11Kambarkan.wav\n', 'KG_64_12JygachOozComuz.wav\n', 'KG_64_13Saghunganda.wav\n', 'KG_64_14KichineChogoynoChoor.wav\n', 'KG_64_15BozSolkyn.wav\n', 'KG_64_16SoloChogoynoChoor.wav\n', 'KG_64_17O\xcc\x88zu\xcc\x88ngBil.wav\n', 'KG_64_18SashTilek.wav\n', 'KG_64_19AlumSabak.wav\n', 'KG_64_20MenAshyk.wav\n', 'KG_64_21ErkeSary.wav\n', 'KG_64_22AppakSyTartuulaym.wav\n', 'KG_64_23Kenesh.wav\n', 'KG_64_24KuzKuyal.wav\n', 'KG_64_25SeneOilosom.wav\n', 'KE_66_01NduragaNgwetereire.wav\n', 'KE_66_02TingBadiMalo.wav\n', 'KE_66_03Chereko.wav\n', 'KE_66_04MamaSofiPt.2.wav\n', 'KE_66_05Muhogo.wav\n', 'KE_66_06Kisumu100.wav\n', 'KE_66_07HasidiHanaSababu.wav\n', 'KE_66_08YamalaResponsibility.wav\n', 'KE_66_09Beatrice#4.wav\n', 'KE_66_10Tweta.wav\n', 'KE_66_11MamaSofiPt.1.wav\n', 'KE_66_12OburaJabilo.wav\n', 'IR_69_01AfsoongarGlamorous.wav\n', 'IR_69_02DekayAmbar,DekayAuber.wav\n', 'IR_69_03SariGalin.wav\n', 'IR_69_04Yazdah.wav\n', 'IR_69_05DaramadHomayoun.wav\n', 'IR_69_06Dashti.wav\n', 'IR_69_07SazVaAvaz.wav\n', 'IR_69_08Showgh.wav\n', 'IR_69_09Lullaby.wav\n', 'IR_69_10MisriKoroglu.wav\n', 'IR_69_11DarHarRageManWithinEachOfMyVeins.wav\n', 'IR_69_12ZrenjiHossainYr.wav\n', 'IR_69_13YGhows.wav\n', 'IR_69_14DardeEshgh.wav\n', 'IR_69_15Torkaman.wav\n', 'IR_70_01DastgahShur.wav\n', 'IR_70_02DastgahHomayoun.wav\n', 'IR_70_03DastgahSegah.wav\n', 'IR_70_04ZarbSolo.wav\n', 'IR_70_05DastgahChahargah.wav\n', 'IR_70_06DastgahMahour.wav\n', 'IT_71_01TenoresDiBitti&Mialinu-SuCojoviuNovuBalluLestru.wav\n', 'IN_50_02Tori.wav\n', 'IN_50_03Pluck.wav\n', 'IT_71_02SosCantoresDeGarteddi-Miserere.wav\n', 'IN_50_05JungleSymphony.wav\n', 'BZ_85_12.wav\n', 'IT_71_03DuoG.M.Faedda&N.Manca-MamaImmaculadaMuttos.wav\n', 'IN_50_06Betelnutters.wav\n', 'IN_50_07Tanusree.wav\n', 'IT_71_04FiorassiuInLa.wav\n', 'IN_50_08ThrowDown.wav\n', 'IT_71_05SuBolueSastore.wav\n', 'IN_50_09Love&Passion.wav\n', 'IT_71_06AGonare.wav\n', 'IN_50_10Reverse.wav\n', 'IT_71_07SuPastori.wav\n', 'IN_51_01Gorband.wav\n', 'IT_71_08CuntrattuESeneghe-Seneghe.wav\n', 'IN_50_11StreetsOfCalcutta.wav\n', 'IT_71_09NannedduMeu.wav\n', 'IT_71_10AveMaria.wav\n', 'IN_51_02Lavarji.wav\n', 'IT_71_11ASandira.wav\n', 'IT_71_12DuoG.M.Faedda&N.Manca-Corsicana.wav\n', 'IN_51_03Maniharo.wav\n', 'IT_71_13NonPothoReposare.wav\n', 'IT_71_14DuoM.Muntoni&A.Marongiu-SerenadaARosaCantoInRe.wav\n', 'IN_51_04InstrumentalMusic.wav\n', 'IT_71_15AveMariaCatalana.wav\n', 'IT_71_16S.Ladu,B.Agus&TenoresDiUlaTirso-PadreChircanteeFeminaAvara.wav\n', 'IN_51_05Hichaki.wav\n', 'IT_71_17VilghiniBeddhaTasgja.wav\n', 'IN_51_06MehndiMalir.wav\n', 'IT_71_18CoroIsconsoladuFaDiesis.wav\n', 'IT_71_19BalluePrazza.wav\n', 'IN_51_08RadhaRani.wav\n', 'IT_71_20TenoresDeGoine-BalluAPassuTorrau.wav\n', 'IN_51_07InstrumentalMusic.wav\n', 'IT_71_01Filugnana.wav\n', 'IT_71_02Trumas.wav\n', 'IN_51_09Nimbuda.wav\n', 'IT_71_03MelagranadaRuja.wav\n', 'IT_71_04PassuTorrauDeTruddasInCoro.wav\n', 'IT_71_05Naskida.wav\n', 'IN_52_01RagaNandKalyan.wav\n', 'IT_71_06BaddeLontana.wav\n', 'IN_52_03Dhun.wav\n', 'IT_71_07NinnaNanna.wav\n', 'IT_71_08Banderas.wav\n', 'PK_53_01KhwajaKiDiwani.wav\n', 'IT_71_09OltreIlMare.wav\n', 'PK_53_02Dayare-e-Nabi.wav\n', 'IT_71_10LAde\xcc\x80u.wav\n', 'PK_53_03Salaam.wav\n', 'IT_71_11Mama.wav\n', 'IT_71_12SandroFresi&SusannaFanti-ComuStellaDorienti.wav\n', 'IN_51_10InstrumentalMusic.wav\n', 'IT_71_13SuBallittuCadenzadu.wav\n', 'IT_71_14PaoloCarrus&PaoloFresu-Tres.wav\n', 'IT_71_15MinyonaMorena.wav\n', 'IN_52_02RagaShankaraBihag.wav\n', 'IT_71_16TancaRuja-SoniaSonette.wav\n', 'IT_71_17Pratobello.wav\n', 'IN_54_01RagaPalasKafi.wav\n', 'IT_71_18MarinoDerosas-Scottis.wav\n', 'IT_71_19Isentales-DeoNoIsco.wav\n', 'IN_54_02RagaBilashkaniTodi.wav\n', 'IN_55_01SufiBhakti.wav\n', 'IN_55_02AmritAnand.wav\n', 'IN_55_03Nivedan.wav\n', 'IN_55_04GangaKinare.wav\n', 'IN_55_05GypsyAnandi.wav\n', 'IN_55_06Rasika.wav\n', 'IN_55_07Aviskaar.wav\n', 'IN_55_08KolkatatoKanyakumari.wav\n', 'IN_55_09Maya.wav\n', 'IN_56_01SalaamNamaste.wav\n', 'IN_56_02MyDilGoesMmmm.wav\n', "IN_56_03What'sGoin'On.wav\n", 'IN_56_04TuJahaan.wav\n', 'IN_56_05MyDilGoesMmmm(EnglishClubMix).wav\n', 'IN_56_06SalaamNamaste(DholMix).wav\n', 'IN_56_07MyDilGoesMmmm(Instrumental).wav\n', 'IN_57_01Track01.wav\n', 'IN_57_02Track02.wav\n', 'IN_57_03Track03.wav\n', 'IN_57_04Track04.wav\n', 'IN_57_05Track05.wav\n', 'IN_57_06Track06.wav\n', 'ML_60_01Bobo.wav\n', 'ML_60_02Laban.wav\n', 'ML_60_03Calculer.wav\n', 'ML_60_04Dery.wav\n', 'ML_60_05Ladji.wav\n', 'ML_60_06Kamoukie.wav\n', 'ML_60_07Yambo.wav\n', 'ML_60_08TuVasMeManquer.wav\n', "ML_60_09M'Bemba.wav\n", 'ML_60_10Moriba.wav\n', 'ML_61_01ClerAchel.wav\n', 'ML_61_02ManoDayak.wav\n', 'ML_61_03MatadjemYinmixan.wav\n', 'ML_61_04Ahimana.wav\n', 'ML_61_05SoixanteTrois.wav\n', 'ML_61_06Toumast.wav\n', 'ML_61_07ImidiwanWinakalin.wav\n', 'ML_61_08AwadIdjen.wav\n', 'ML_61_09IkyadarDim.wav\n', 'ML_61_10TamatantTilay.wav\n', 'ML_61_11Assouf.wav\n', 'ML_61_12IzarharhTenere.wav\n', 'ML_62_01TabaliTe.wav\n', 'ML_62_02Bassekou.wav\n', 'ML_62_03Jonkoloni.wav\n', 'ML_62_04JuruNani.wav\n', 'ML_62_05Mbowdi.wav\n', 'ML_62_06TheRiverTune.wav\n', "ML_62_07Andra'sSong.wav\n", 'ML_62_08NgoniFola.wav\n', 'ML_62_09Banani.wav\n', 'ML_62_10Bala.wav\n', 'ML_62_11SeguTonjon.wav\n', 'ML_62_12Sinsani.wav\n', 'ML_62_13LamentForAliFarka.wav\n', 'ML_62_14SeguBlue.wav\n', 'KG_65_06AktamakKoktamak.wav\n', 'KZ_65_01Adai.wav\n', 'KZ_65_09Sary-Arqa.wav\n', 'KZ_65_10Akku.wav\n', 'KZ_65_15Zhez-Kiik.wav\n', 'TJ_65_05DevonahShaw.wav\n', 'TJ_65_08YodKardam.wav\n', 'TJ_65_11AzGhamiTu.wav\n', 'TM_65_04FromTheStationToTheMill.wav\n', 'TM_65_13GongurbashMukamy.wav\n', 'TM_65_14SongOfKarkara.wav\n', 'UZ_65_02FerganaTanovar.wav\n', 'UZ_65_03Adolatingman.wav\n', 'UZ_65_16Ozbegim.wav\n', 'UZ_65_17GarduniDugah.wav\n', 'UZ_65_18Untitled.wav\n', 'UZ_65_19BulBulZaman.wav\n', 'KE_67_01Shani.wav\n', 'KE_67_02BadoBasi.wav\n', 'KE_67_03Safari.wav\n', 'KE_67_04Singetema.wav\n', 'KE_67_05KisuChako.wav\n', 'KE_67_06HumvuiAlovikwa.wav\n', 'KE_67_07Parare.wav\n', 'KE_67_08JinoLaPembe.wav\n', 'KE_67_09NaliaNaJito.wav\n', 'KE_67_10Mdudu.wav\n', 'KE_68_01MtindoWaMombasa.wav\n', 'KE_68_02ManenoTisiya.wav\n', 'KE_68_03WanawakeWaKiamu.wav\n', 'KE_68_04TaksimBayati.wav\n', 'KE_68_05BainaMachoNaMoyo.wav\n', 'KE_68_06MwibaWaKujitoma.wav\n', 'KE_68_07BintiMombasa.wav\n', 'KE_68_08NatakaRafiki.wav\n', 'KE_68_09MwanaHasahauMama.wav\n', 'KE_68_10TaksimJirka.wav\n', 'IT_72_01Track01.wav\n', 'IT_72_02Track02.wav\n', 'IT_72_03Track03.wav\n', 'IT_72_04Track04.wav\n', 'IT_72_05Track05.wav\n', 'IT_72_06Track06.wav\n', 'IT_72_07Track07.wav\n', 'IT_72_08Track08.wav\n', 'IT_72_09Track09.wav\n', 'IT_72_10Track10.wav\n', 'GR_73_01LittleIguana.wav\n', 'GR_73_02Kastrinos.wav\n', 'GR_73_03Pikrodafni.wav\n', 'GR_73_04SimeraGamosGinete.wav\n', 'GR_73_05Ballos.wav\n', 'GR_73_06ArabisPerna.wav\n', 'GR_73_07ThaSpasoKoupes.wav\n', 'GR_73_08GalataManes.wav\n', 'GR_73_09OProsfigas.wav\n', 'GR_73_10PigaSeMagisses.wav\n', 'GR_73_11TrelliKiAdespoti.wav\n', 'GR_73_12PareTAhnariaMou.wav\n', 'GR_73_13Zeibekiko.wav\n', 'GR_73_14SanErthounManaIFiliMou.wav\n', 'GR_73_15TinKardiaMtinKlidomeni.wav\n', 'GR_73_16Leventikos.wav\n', 'GR_73_17ApoToParkoStimirovolo.wav\n', 'GR_73_18ToTrizoni.wav\n', 'GR_73_19OreaKimoneni.wav\n', 'GR_73_20IpnePouPernisTaPedia.wav\n', 'GR_74_01HaniotikosSirtos.wav\n', 'GR_74_02SitiakesKondilies.wav\n', 'GR_74_03RethemniotikosHoros.wav\n', 'GR_74_04Pentozalis.wav\n', 'GR_74_05MiaziIZoiMouOniro.wav\n', 'GR_74_06PoteThaKamiXasteria.wav\n', 'GR_74_07Sousta.wav\n', 'GR_74_08ToXirosterianoNero.wav\n', 'GR_74_09Erotokritos.wav\n', 'GR_74_10PoteMouNaMiPioKrasi.wav\n', 'GR_74_11TragoudiTouGamou.wav\n', 'GR_74_12MaleviziotikosChoros.wav\n', 'GR_74_13AgrimiaKiAgrimakiaMou.wav\n', 'GR_74_14SirtoRodinou.wav\n', 'GR_75_01SoseMeGiatreMou.wav\n', 'GR_75_02AftoschediasmiMeLyra.wav\n', 'GR_75_03SoloLauto.wav\n', 'GR_75_04Sousta.wav\n', 'GR_75_05RethemniotikoaSirta.wav\n', 'GR_75_06MalevizotikosHoros.wav\n', "GR_75_07EskeftikaNaS'arnitho.wav\n", 'GR_75_08NaKamoTheliTarahi.wav\n', 'GR_75_09Kondilies.wav\n', 'GR_75_10Pentozalis.wav\n', 'GR_75_11AnogianaSirta.wav\n', 'GR_75_12SoloLyra.wav\n', 'BR_77_01BraseiraArdia.wav\n', 'BR_77_02Beija-Flor.wav\n', 'BR_77_03Mulate\xcc\x82DoBunde\xcc\x82.wav\n', 'BR_77_04CantoProMar.wav\n', 'BR_77_05ToqueDeTimbaleiro.wav\n', 'BR_77_06SeVoce\xcc\x82SeFor.wav\n', 'BR_77_07FricoteDaTerezinha.wav\n', 'BR_77_08MimarVoce\xcc\x82.wav\n', 'BR_77_09Ai.wav\n', 'BR_77_10Ana\xcc\x81gua.wav\n', 'BR_77_11ALatinha.wav\n', 'BR_77_12A\xcc\x81guaMineral.wav\n', 'BR_77_13Papa\xcc\x81Papet[Live].wav\n', 'BR_77_14MargaridaPerfumada[Live].wav\n', 'BR_78_01Motumba.wav\n', 'BR_78_02TakeSarava.wav\n', 'BR_78_03SwingdaCor-DanielaMercuryfe.wav\n', 'BR_78_04AVidaBoa.wav\n', 'BR_78_05PitadadeTabaco-Riachaofeatur.wav\n', 'BR_78_06GingadaBale.wav\n', 'BR_78_07DeusadoEbano-IleAiyefeaturi.wav\n', 'BR_78_08ComMuzenzaEuVou.wav\n', 'BR_78_09CoracaodeBola.wav\n', 'BR_78_10MeninodoPelo.wav\n', 'BR_78_11LifeGods.wav\n', 'BR_78_12Curiosidade.wav\n', 'BR_78_13Linda.wav\n', 'BR_78_14HempeFesta.wav\n', 'BR_78_15MamaeQuerida.wav\n', 'BR_78_16ExuAnan.wav\n', 'CV_79_01DorDiAmor.wav\n', 'CV_79_02FalsoTestemunho.wav\n', 'CV_79_03Danc\xcc\xa7aMaMiCriola.wav\n', 'CV_79_04PapaJoachinParis.wav\n', 'CV_79_05Toy.wav\n', 'CV_79_06AfricaUmDia.wav\n', 'CV_79_07NhaFiDJo.wav\n', 'CV_79_08Cornologia.wav\n', 'CV_79_09GritoMagoado.wav\n', 'CV_79_10Chape\xcc\x81uDiPalha.wav\n', 'CV_79_11Filosofia.wav\n', 'CV_79_12Rabecadai.wav\n', 'CV_79_13FundoBaxo.wav\n', 'CV_79_14CPLP.wav\n', 'CV_79_15CorDiRosa.wav\n', 'CV_79_16Sarapilhe\xcc\x82ra.wav\n', 'CV_79_17DorDiNhAlma.wav\n', 'CV_80_02ValsaAzul.wav\n', 'CV_80_03GuerraFria.wav\n', 'CV_80_04Odjudagu.wav\n', 'CV_80_06Homi.wav\n', 'CV_80_08Lamentodeumemigrante.wav\n', 'CV_80_09Simentera-Aza\xcc\x81gua.wav\n', 'UZ_82_01Kelmady.wav\n', 'CV_80_12Rai\xcc\x81zIITributetoSouthAfricanPeople.wav\n', 'CV_80_13Equilibrio.wav\n', 'CV_80_14Cretcheu.wav\n', 'CV_80_15NhaRiqueza.wav\n', 'CV_80_01Dordiamor.wav\n', 'CV_80_10Landudiamor.wav\n', 'CV_80_11Cola\xcc\x81BoiTributoailhadeSantoAnta\xcc\x83o.wav\n', 'CV_80_05TributoaSantiago.wav\n', 'CV_80_07Tchape\xcc\x81udiPadja.wav\n', 'UZ_82_03Bachor.wav\n', 'UZ_82_04GunchaYanglik.wav\n', 'UZ_82_05Savt-IDugah.wav\n', 'UZ_82_06LalyYaman.wav\n', 'UZ_82_07OmonyYer.wav\n', 'UZ_82_08RanolanMansun.wav\n', 'UZ_82_09Ey.DilbaryDjononim.wav\n', 'UZ_82_10AjamTaronalary.wav\n', 'UZ_82_11GaldyrTalqinchasy.wav\n', 'UZ_82_12Ey.Gyl.wav\n', 'UZ_82_13FerghanachaDjonon.wav\n', 'AU_83_01Saltwater.wav\n', 'AU_83_02KurongkBoy,KurongkGirl.wav\n', 'AU_83_03NativeBorn.wav\n', 'AU_83_04TjapukaiSunset.wav\n', 'AU_83_05WonggaInitiationSong.wav\n', 'AU_83_06Bullima.wav\n', 'AU_83_07KavaSong.wav\n', 'AU_83_08DragNet.wav\n', 'AU_83_09HeartOfMyPeople.wav\n', 'AU_83_10SikO.wav\n', 'AU_83_11Nyindi-Yindi.wav\n', 'AU_83_12Celebration.wav\n', 'AU_83_13Bushfire.wav\n', 'AU_83_14Black.wav\n', 'JP_84_01Makura.wav\n', 'JP_84_02KakinOndo.wav\n', 'JP_84_03FukkoBushi.wav\n', 'JP_84_04NikataBushi.wav\n', 'JP_84_05TakiosSoranBushi.wav\n', 'JP_84_06AmagoiBushi.wav\n', 'JP_84_07MangetsuNoYube.wav\n', 'JP_84_08HiyamiKachiBushi.wav\n', 'JP_84_09MojiBananaNoTatakiuri.wav\n', 'JP_84_10Utuwaskarap.wav\n', 'JP_84_11NyoraiShizune.wav\n', 'JP_84_12Ubue.wav\n', 'JP_84_13AsadoyaYunta.wav\n', 'JP_84_14JamesBondTheme.wav\n', 'JP_84_15HaisaiOjisan.wav\n', 'JP_84_16AgariJo.wav\n', 'JP_84_17HaNaMi.wav\n', 'JP_84_18Utage.wav\n', 'JP_84_19ShiChome.wav\n', 'BZ_85_01Watina.wav\n', 'BZ_85_02WeyuLaarigiWeyu.wav\n', 'BZ_85_03Miami.wav\n', 'BZ_85_04Baba.wav\n', 'BZ_85_05LidanAban.wav\n', 'BZ_85_06Gagaabadibaa.wav\n', 'BZ_85_07BeibaGoAway.wav\n', 'BZ_85_08SinPrecioWorthless.wav\n', 'BZ_85_09YaganeMyCanoe.wav\n', 'BZ_85_10AyuhaNiduuenu.wav\n', 'BZ_85_11Ayo.wav\n', 'TZ_86_01Amana.wav\n', 'TZ_86_02MpendeAnaekupenda.wav\n', 'TZ_86_03NimekujaPasiHaya.wav\n', 'TZ_86_04ChoziLanitoka.wav\n', 'TZ_86_05HisaniNakuusiya.wav\n', 'TZ_86_06EnyiWanadamu.wav\n', 'TZ_86_07Nazi.wav\n', 'TZ_86_08Duniani.wav\n', 'TZ_86_09MnaziMkinda.wav\n', 'TZ_86_10NiniDawaYaMahaba.wav\n', 'TZ_86_11Bunduki.wav\n', 'TZ_86_12Rehema.wav\n', 'DZ_87_06SHabiStereomoversRemix.wav\n', 'LB_87_10Tango.wav\n', 'MA_87_01AMueyAMuey.wav\n', 'MA_87_05Dourbiha.wav\n', 'MA_87_11AalashKwawna.wav\n', 'UK_89_01Hi\xcc\x80RiRiORaIllO\xcc\x80.wav\n', 'UK_89_02ANigheannanGeugTaladh.wav\n', 'UK_89_03Puirt-a-Beul_Thoira-nallAilean.wav\n', "UK_89_04SoiridhLeisa'BhreacanR.wav\n", 'UK_89_05IomairThusa,ChoinnichChridhe.wav\n', 'UK_89_06Ca\xcc\x80nannanGa\xcc\x80idheal.wav\n', "UK_89_07'SFliuchanOidhche.wav\n", 'UK_89_08OrananIolaire.wav\n', "UK_89_09Cearcalla'Chuain.wav\n", 'UK_89_10Puirt-a-Beul_ThaBeanAgam_Tha.wav\n', 'UK_89_11AnAtaireachdArd.wav\n', 'GE_90_02HelaMegruli-ChelaWaggonerSSon.wav\n', 'GE_90_03FalosXelxvaviGuruli-KAlosKhel.wav\n', 'GE_90_04FalospiruliFaxuri-KAlospIruli.wav\n', 'GE_90_05Tuwuri-TushuriPastoralMelodies.wav\n', 'GE_90_06AslanuriMravalkamieri-AslanuriM.wav\n', 'GE_90_07Cincqaro-FaxuriTsIntsQaroLyri.wav\n', 'GE_90_08MeRustveli-GuruliMeRustveliTa.wav\n', 'GE_90_09JveliFuhxiBedineriMegruli-SiK.wav\n', 'GE_90_10SiKoulBayaMegruli-SiKoulBat.wav\n', 'GE_90_11GarefaxuriSahidao-GarekAkhuriS.wav\n', 'GE_90_12CmindaoGmerto-TsmindaoGhmertoL.wav\n', 'GE_90_13DaVitarcaMeupisa-DaVitartsaMe.wav\n', 'GE_90_14WenXarVenaxi-ShenKharVenakhi.wav\n', 'GE_90_15SiqvarulmaMogviqvana-Siqvarulma.wav\n', 'GE_90_16KamtaDeCelta-ZhamtaDeTsElta.wav\n', 'GE_90_17RomelniKerubimta-RomelniKerubin.wav\n', 'GE_90_18ImeruliSakorciloMgzavruli-Imeru.wav\n', 'GE_90_19ImeruliCxenosnuriMgzavruli-Imer.wav\n', 'GE_90_20GarefaxuriLawkruli-GarekAkhuri.wav\n', 'GE_90_21LakgvawiSvanuri-LazhghvashiRitu.wav\n', 'GE_90_22JveliKartuliSacefvao-DzveliKar.wav\n', 'GE_90_23TuAseYurpaIqavi-TuAseTUrpa.wav\n', 'GE_90_24SaidanMoxvalWenKalo-SaidanMoc.wav\n', 'GE_90_25YawPandura-TAshPanduraDanceT.wav\n', 'GE_90_26XasanbeguraGuruli-KhasanbeguraH.wav\n', 'GE_90_27SisonaiDarhiai-GuruliSisonaiDa.wav\n', 'GE_90_28Daigvianes-DaigvianesLyricalSon.wav\n', 'GE_90_29QansavQipiane-SvanuriQansavQip.wav\n', 'TZ_91_01HujaitimuKusoma_YaSalaam.wav\n', 'GE_90_01OdoiaMegruli-OdoiaWorkSongSam.wav\n', 'TZ_91_02MpewaHapokonyeki.wav\n', 'TZ_91_03SihimiliKukukosa.wav\n', 'TZ_91_04KakukataaBayana_EeNalia_Dunia.wav\n', 'TZ_91_05UmboLanguDawa.wav\n', 'TZ_91_06Nimeghilibika_HisalimieMama_Ni.wav\n', 'TZ_91_07SasaSinaya.wav\n', 'TZ_91_08MabibiNaMabwana.wav\n', 'KH_92_01Sathouka.wav\n', 'KH_92_02TrachToch.wav\n', 'KH_92_03KamanPrathom.wav\n', 'KH_92_04LarSmeurRou.wav\n', 'KH_92_05KravnayChornChup.wav\n', 'KH_92_06Pyadeun.wav\n', 'KH_92_07SompougnKlay.wav\n', 'KH_92_08KlangChanat.wav\n', 'KH_92_09TrapeangPay.wav\n', 'KH_92_10Lam(srlaysolo).wav\n', 'KH_92_11Somplov.wav\n', 'KH_92_12Lam(Part1).wav\n', 'KH_92_13Lam(Part2).wav\n', 'KH_92_14NeangMeo.wav\n', 'AM_2_14LetTheFactoriesOpen.wav\n', 'BR_2_10TiveRazao(IWasRight).wav\n', 'CD_2_09LufualaNdonga(Edit).wav\n', 'CI_2_11Abiani.wav\n', 'CV_2_12MundoENos.wav\n', 'DZ_2_05Inspiration(Ilham).wav\n', 'DZ_2_12HajtiFiGurini.wav\n', 'DZ_2_16Tekitoi(WhoAreYou).wav\n', 'FI_2_10Optikus(Edit).wav\n', 'IN_2_02EktaDeshlaiKathiJwalao.wav\n', 'IQ_2_13Baghdad.wav\n', 'IT_2_06CarryTheSunInside.wav\n', 'ML_2_01AiGaBani.wav\n', 'ML_2_02Ladji.wav\n', 'ML_2_04Artistiya.wav\n', 'PK_2_03AuquhianRahwan.wav\n', 'PK_2_15AkhianUdikdian.wav\n', 'RO_2_07Alili.wav\n', 'RU_2_13HerEyesAreABlueMillionMiles.wav\n', 'SD_2_05Elengwen.wav\n', 'SN_2_04Woyatina(IAmTalkingToYou).wav\n', 'TN_2_16Yabay.wav\n', 'TR_2_11Ab-iLal.wav\n', 'CN_5_12InTheSettingOfTheSun.wav\n', 'CO_5_01LagartijaAzul.wav\n', 'DZ_5_08OhMaBelle.wav\n', 'DZ_5_15EshDaniAlahMshitConstant.wav\n', 'ES_5_03SultanasDeMerkaillo.wav\n', 'ES_5_13KomBinaHanaAlHumaya.wav\n', 'ET_5_08BalomiBenna.wav\n', 'FR_5_01TaDouleur.wav\n', 'IL_5_04ChaCha.wav\n', 'IN_5_05Aanandam.wav\n', 'IN_5_16Naked.wav\n', 'IQ_5_16Khadri.wav\n', 'ML_5_05Single.wav\n', 'ML_5_06PendaYoro.wav\n', 'MX_5_10LaCumbiaDelMole.wav\n', 'NE_5_14Surbajo.wav\n', 'NZ_5_14ThisRoom.wav\n', 'SN_5_02Cigil.wav\n', 'TR_5_09Napas.wav\n', 'UK_5_11Jordan.wav\n', 'US_5_17BetterWayWarMix.wav\n', 'ZA_5_02KuraUone.wav\n', 'CM_1_03PygmyDivorce.wav\n', 'CU_1_01ElCapitan.wav\n', 'EG_1_07Ashshimtini.wav\n', 'IL_1_08BlessingsForTheNewYear.wav\n', 'IN_1_02CaptainBhangreDa.wav\n', 'IN_1_09ChandniOMeriChandni.wav\n', 'MT_1_10NeverGiveUp.wav\n', 'PR_1_05Prakatun.wav\n', 'AL_7_15DoMareCiften.wav\n', 'BA_7_04ULijepomStaromGraduVisegradu.wav\n', 'BG_7_10Belmont.wav\n', 'BG_7_12APirinMelody.wav\n', 'HR_7_02PetJeKumi.wav\n', 'HR_7_13Taranjkanje.wav\n', 'MK_7_05NesatovaSa-Sa.wav\n', 'MK_7_07DiskoDzummbus.wav\n', 'RO_7_03AsfaltTango.wav\n', 'RO_7_08HoraDeLaBolintin.wav\n', 'RS_7_01DJeliMara.wav\n', 'TR_7_11Jarnana.wav\n', 'XK_7_09KarafiliEdheZamaki.wav\n', 'AL_8_01KabaMe\xcc\x88Klarinete\xcc\x88.wav\n', 'AL_8_02KabaMe\xcc\x88Violine\xcc\x88.wav\n', 'AL_8_03QerbelaKerbela.wav\n', 'AL_8_04Dalle\xcc\x88ndysheEVoge\xcc\x88l.wav\n', 'AL_8_05Ezmerke\xcc\x88Me\xcc\x88Ishe.wav\n', 'AL_8_06KurDolaJashte\xcc\x88.wav\n', 'AL_8_07MelodiGajdexhiut.wav\n', 'AL_8_08ValljaEVajzave.wav\n', 'AL_8_09ValljaEOsmanTake\xcc\x88s.wav\n', 'AL_8_10C\xcc\xa7obankat.wav\n', 'AL_8_11LonteBeuMeHankon.wav\n', 'AL_8_12ValleEKebduarArumune.wav\n', 'AL_8_13MotraDheVe\xcc\x88llai.wav\n', 'AL_8_14AjkunaQanOmerin_Ke\xcc\x88nge\xcc\x88Kreshnike.wav\n', "AL_8_15Shepherd'sSongontheFlute.wav\n", 'AL_8_16Vajtim.wav\n', 'AL_8_17ToTraketiMeklino_Ke\xcc\x88nge\xcc\x88Kurbeti.wav\n', 'AL_8_18Malkimi.wav\n', 'AL_8_19Pogonishte\xcc\x88.wav\n', 'AL_8_20Emina.wav\n', 'EG_12_01LeihSebtaha.wav\n', 'EG_12_02AktarWahedBeyhebak.wav\n', 'EG_12_03AnaBaashaqElBahr.wav\n', 'EG_12_04HayartAlbiMaak.wav\n', 'EG_12_05Henna.wav\n', 'EG_12_06SalaFiSerriWeGahri.wav\n', 'EG_12_07TedhakAlaia.wav\n', 'EG_12_08AdiniRegeatelek.wav\n', 'EG_12_09JafnohoAllamaElGhazal.wav\n', 'EG_12_10WalawEnnakYaHabibiBeied.wav\n', 'EG_12_11Nabra(GoldOre).wav\n', 'EG_12_12AhLawTearaf.wav\n', 'EG_12_13Ahwak.wav\n', 'MM_13_01SaddanAiThar(EnchantingLakeo.wav\n', 'MM_13_02MaBayDar(YoungMissWaterlily).wav\n', 'MM_13_03ShweKaNyar(BeautifulGirlofG.wav\n', 'MM_13_04HlyatPanKhwayNwe(PowerfulKin.wav\n', 'MM_13_05ShweMaungThan_AungBarZay(T.wav\n', 'MM_13_06OatAwThanAye(TheLittleBird.wav\n', 'MM_13_07TayHtatKwetSun(NewViewofOl.wav\n', 'MM_13_08AhPay,AhYou(GiveandTake).wav\n', 'MM_13_09PatWaingLetSwanPya(Improvisa.wav\n', 'PK_30_01MeraIsqhBhiTu.wav\n', 'PK_30_02YaarDiGharoli.wav\n', 'PK_30_03PopularMelodies.wav\n', 'PK_30_04AajJaneKiZidNaKaro.wav\n', 'PK_30_05TraditionalPashtounSong.wav\n', 'PK_30_06ThumriInRaagDesh.wav\n', 'PK_30_07GuzrayZamaneyWaley.wav\n', 'PK_30_08JhullayLal.wav\n', 'PK_30_09DilNaLagay.wav\n', 'PK_30_10LiftKaraDe.wav\n', 'PK_30_11JisDinSePiya.wav\n', 'PK_30_12AjRangHaiHaiMaa.wav\n', 'LT_31_01Tutututututis.wav\n', 'LT_31_02Ratuiratubitelratu.wav\n', 'LT_31_03Salavijasauga.wav\n', 'LT_31_04Skurdute.wav\n', 'LT_31_05Septyniosarbauntyte.wav\n', 'LT_31_06Kapalinkaiberzeli.wav\n', 'LT_31_07Tutojsadutasadutojoituta.wav\n', 'LT_31_08Treptrepomartela.wav\n', 'LT_31_09Pasisecialineliu.wav\n', 'LT_31_10Sesiose.wav\n', 'LT_31_11Okasprazyda.wav\n', 'LT_31_12Salniuintakas.wav\n', 'LT_31_13Assodelystovejauigeguteziurejau.wav\n', 'LT_31_14Mesbuviemotuto.wav\n', 'LT_31_15Teveliskalnelystoveja.wav\n', 'LT_31_16Baksenutututis.wav\n', 'LT_31_17Untutis.wav\n', 'LT_31_18Augodygodobilelistarptrijulazdynu.wav\n', 'LT_31_19Liajseseliajpana.wav\n', 'LT_31_20Dobiliodobilelikaslaukeliujoja.wav\n', 'LT_31_21Girsteikiskiukate.wav\n', 'LT_31_22Gegutesodesodekukavo.wav\n', 'LT_31_23Katubitela.wav\n', 'LT_31_24Dobilelikurtuaugai.wav\n', 'LT_31_25Deveniuuntyte.wav\n', 'LT_31_26Sakinejazvirblalispapievu.wav\n', 'LT_31_27Issivedziaozelitatatela.wav\n', 'LT_31_28Katearbatolikate.wav\n', 'TR_40_02.wav\n', 'TR_40_03.wav\n']
3826.81113405
3798.12049453
3729.95416
3718.31145662
3689.72120797
3642.53306138
