MUSICAL DISTANCES
BG_4_10Fairground
ES_3_08E 
IT_4_05D 
CV_3_07M 
PK_4_14L 
GN_6_10S 
AF_6_05LaloLalo
ML_6_3Fu 
BR_4_04A 
ES_4_11R 
TR_3_03N 
IL_6_07T 
BR_3_01SantaMassaChegou
IN_4_01R 
CU_6_11C 
UZ_14_03 
MX_4_06V 
MX_6_09S 
BR_3_07NoPrego
SN_3_04B 
PK_4_14L 
GN_6_10S 
CV_3_07M 
ES_3_08E 
BR_3_11VelhaInfancia
SN_4_03T 
TR_6_08S 
UK_3_02T 
ET_3_12G 
UZ_14_04 
BR_3_16CucurrucucuPaloma
HR_3_04C 
LB_4_02A 
IL_6_07T 
PE_6_03S 
PL_3_14D 
CU_3_06HayQueEntrarleAPalosAEse
DZ_4_04Y 
GN_6_10S 
ES_3_08E 
MA_6_12M 
BR_3_07N 
CU_6_11Chiquichaca
DZ_3_01B 
UK_6_04P 
ML_6_01M 
RU_3_12A 
GN_4_07W 
CV_3_07MonteCara
IT_4_05D 
ES_3_08E 
PK_4_14L 
TV_6_11A 
GN_6_10S 
ML_6_3Fununkeesaya
BR_4_04A 
ES_4_11R 
TR_3_03N 
AF_6_05L 
UK_4_11S 
DZ_3_09RabaRaba
ES_6_06Q 
SN_4_03T 
AR_4_09T 
UZ_14_04 
EG_6_03S 
EG_6_03SagalKo(Honorher)_TuDois
ML_4_12S 
ET_3_12G 
ES_6_06Q 
DZ_4_06G 
ML_3_05Y 
ES_3_08ElliYeddiHaqEnnas
IT_4_05D 
CV_3_07M 
MA_6_12M 
TV_6_11A 
DZ_4_04Y 
ES_3_09TiempodeSoleaaDJPankoRemix
RU_4_13A 
SN_3_04B 
SN_6_10J 
UZ_14_01 
PK_4_14L 
ES_6_06QuienEnganaNoGana
AR_4_09T 
DZ_3_09R 
EG_6_03S 
ML_4_12S 
UZ_3_10Y 
ET_3_12Gedawo
BR_3_11V 
EG_6_03S 
ML_4_12S 
SN_4_03T 
UZ_14_15 
FI_6_01Kaluaja
BR_3_16C 
HR_3_04C 
MX_6_09S 
PL_3_14D 
LB_4_02A 
GN_6_10Sabou
PK_4_14L 
CU_3_06H 
BR_3_07N 
CV_3_07M 
ES_3_08E 
HR_3_04Cansoneita
LB_4_02A 
BR_3_16C 
PE_6_03S 
IL_6_07T 
MX_6_09S 
IL_6_07ThroughTheMistOfYourEyes
LB_4_02A 
HR_3_04C 
AF_6_05L 
TR_3_03N 
ES_4_11R 
IN_6_05PyarKaMatlab
PL_3_13C 
ES_4_09E 
TR_4_12A 
NG_6_04E 
UZ_14_09 
IQ_3_06YaNas
SN_4_03T 
UK_3_02T 
UZ_14_04 
BR_3_11V 
DZ_4_06G 
IR_6_06TheReturn
ZA_4_05L 
UZ_14_09 
UZ_3_10Y 
ML_4_12S 
AR_4_09T 
MA_6_12MinYoumi(SinceAlways)
ES_3_08E 
DZ_4_04Y 
UZ_14_08 
CU_3_06H 
IT_4_05D 
ML_3_03KoteDon
ML_4_12S 
EG_6_03S 
ZA_4_05L 
ET_3_12G 
ES_6_06Q 
ML_3_05Yala
EG_6_03S 
UZ_3_10Y 
ES_6_06Q 
DZ_4_06G 
ML_4_12S 
ML_6_01Madan
GN_4_07W 
UZ_4_02Y 
DZ_3_01B 
CU_6_11C 
AR_4_09T 
MX_6_07Sr.Judas
UK_3_02T 
TR_6_08S 
UZ_14_13 
DZ_4_06G 
UZ_14_07 
MX_6_09SaleSobrando
UZ_14_03 
PE_6_03S 
PL_3_14D 
MX_4_06V 
BR_4_04A 
NG_6_04Eparapo
ES_4_09E 
AR_4_09T 
ES_6_06Q 
UZ_3_10Y 
UZ_14_09 
PE_6_03SeMeVanLosPies
HR_3_04C 
LB_4_02A 
ES_4_11R 
MX_6_09S 
IL_6_07T 
PL_3_13Childhood
AR_4_09T 
IN_6_05P 
MX_4_06V 
ES_4_09E 
NG_6_04E 
PL_3_14DoCiebieKasiuni(ToYouKasiuni
IS_4_14W 
UZ_14_03 
UZ_3_10A 
BR_4_04A 
MX_6_09S 
RU_3_12AaShuuDeKei-OoLive
UK_6_04P 
SN_6_10J 
UZ_14_01 
ET_3_12G 
UZ_14_14 
RU_6_12DancingVoices
ES_6_06Q 
UZ_14_09 
ZA_4_05L 
DZ_3_09R 
AR_4_09T 
SN_3_04Boomerang
BR_3_07N 
RU_4_13A 
ES_3_09T 
PK_4_14L 
CV_3_07M 
SN_6_10JiinMaJiinMa
ES_3_09T 
EG_6_03S 
UZ_14_01 
UZ_14_14 
RU_4_13A 
TR_3_03Nar-INey
BR_4_04A 
ES_4_11R 
ML_6_3Fu 
UK_4_11S 
TR_4_12A 
TR_6_08Shinanay
BR_3_11V 
UZ_14_06 
UZ_14_13 
SN_4_03T 
UZ_14_05 
TV_6_11Alamagoto
IT_4_05D 
CV_3_07M 
ES_3_08E 
PK_4_14L 
UZ_14_08 
UK_3_02TheOutlandishKnight
DZ_4_06G 
BR_3_11V 
IQ_3_06Y 
TR_6_08S 
UZ_14_04 
UK_6_04PrettyPloughboy
CU_6_11C 
RU_3_12A 
DZ_3_01B 
UZ_14_14 
RU_6_12D 
UZ_14_01SchochVaGado
SN_6_10J 
RU_4_13A 
ES_3_09T 
UZ_14_14 
EG_6_03S 
AR_4_09TierraColoradaRedLand
ES_6_06Q 
NG_6_04E 
DZ_3_09R 
PL_3_13C 
UZ_3_10Y 
BR_4_04Aganju
TR_3_03N 
ES_4_11R 
ML_6_3Fu 
AF_6_05L 
PL_3_13C 
UZ_14_03Bahor
MX_6_09S 
PL_3_14D 
MX_4_06V 
IN_6_05P 
TR_4_12A 
DZ_4_04YaGalbi
CU_3_06H 
MA_6_12M 
ES_3_08E 
GN_6_10S 
IT_4_05D 
UZ_14_04IWishYouWereHere
DZ_4_06G 
UZ_14_15 
TR_6_08S 
BR_3_11V 
IQ_3_06Y 
DZ_4_06GhirEntaIOnlyLoveYou
UZ_14_04 
UK_3_02T 
IQ_3_06Y 
UZ_14_15 
UZ_3_10Y 
UZ_14_05KizilAlma
UZ_14_12 
TR_6_08S 
UZ_14_06 
UZ_14_13 
MX_6_07S 
ES_4_09EnAlgunLugar
NG_6_04E 
AR_4_09T 
IN_6_05P 
PL_3_13C 
ES_6_06Q 
UZ_14_06JeliJeli
TR_6_08S 
UZ_14_05 
SN_4_03T 
UZ_14_13 
UZ_14_12 
ES_4_11Rememorix
BR_4_04A 
TR_3_03N 
ML_6_3Fu 
AF_6_05L 
PL_3_13C 
UZ_14_07Ona
UZ_14_11 
UZ_14_13 
UZ_14_04 
UZ_14_16 
MX_6_07S 
GN_4_07Wawata
UZ_4_02Y 
ML_6_01M 
UK_4_11S 
IR_6_06T 
ZA_4_05L 
UZ_14_08Onajon
MA_6_12M 
IT_4_05D 
TV_6_11A 
UZ_14_12 
ES_3_08E 
IS_4_14WhoIsIt
PL_3_14D 
GN_4_07W 
UK_4_11S 
ML_6_3Fu 
IR_6_06T 
UZ_14_09Fergana
UZ_14_04 
RU_6_12D 
ZA_4_05L 
UZ_3_10Y 
NG_6_04E 
IT_4_05DanceWithMe
TV_6_11A 
ES_3_08E 
CV_3_07M 
PK_4_14L 
GN_6_10S 
UZ_14_10Binafscha
UZ_14_09 
SN_4_03T 
IQ_3_06Y 
RU_6_12D 
UZ_14_04 
ML_4_12Sara
ML_3_03K 
EG_6_03S 
ET_3_12G 
UZ_3_10Y 
ES_6_06Q 
UZ_14_11TscheMischod
UZ_14_07 
UZ_14_13 
UZ_14_16 
TR_6_08S 
UZ_14_04 
MX_4_06Viborita
PL_3_13C 
IN_6_05P 
UZ_4_02Y 
TR_4_12A 
AR_4_09T 
UZ_14_12Bolalik
UZ_14_05 
TR_6_08S 
MX_6_07S 
TV_6_11A 
UZ_14_06 
RU_4_13Adimiral
ES_3_09T 
SN_3_04B 
UZ_14_01 
BR_3_11V 
SN_6_10J 
UZ_14_13Jannona
UZ_14_07 
TR_6_08S 
UZ_14_16 
UZ_14_11 
UZ_14_05 
SN_4_03ToubaDaruSalaam
BR_3_11V 
IQ_3_06Y 
TR_6_08S 
UZ_14_04 
DZ_3_09R 
UZ_14_14TukilmaJonim
SN_6_10J 
BR_3_07N 
UZ_14_01 
RU_4_13A 
SN_4_03T 
TR_4_12Ab-ITarab
IN_6_05P 
PL_3_13C 
ZA_4_05L 
TR_3_03N 
ML_6_3Fu 
UZ_14_15Yiglama(Live)
UZ_14_04 
DZ_4_06G 
BR_3_11V 
ET_3_12G 
EG_6_03S 
IN_4_01RagaMisraMand_Thumri
BR_3_01S 
CU_6_11C 
IS_4_14W 
UZ_3_10A 
DZ_3_01B 
UZ_14_16KunglimGuli
UZ_14_13 
UZ_14_11 
UZ_14_07 
UZ_14_05 
TR_6_08S 
ZA_4_05LahlUmlenze
ML_4_12S 
UZ_3_10Y 
ES_6_06Q 
ET_3_12G 
ML_3_03K 
UZ_3_10AdolatTanovari
PL_3_14D 
LB_4_02A 
UK_4_11S 
IS_4_14W 
GN_4_07W 
UZ_3_10Yer-Yer
DZ_4_06G 
ML_4_12S 
ES_6_06Q 
ZA_4_05L 
UZ_14_04 
DZ_3_01BelelMadhiTheGateofthePas
CU_6_11C 
UK_6_04P 
ML_6_01M 
RU_3_12A 
GN_4_07W 
LB_4_02AlNashalTheDayPickpockets
HR_3_04C 
IL_6_07T 
PE_6_03S 
BR_3_16C 
AF_6_05L 
PK_4_14LalShahbazQalandarTheRedF
CV_3_07M 
GN_6_10S 
IT_4_05D 
BR_3_07N 
SN_3_04B 
UK_4_11SofiaTheSaracensDaughter
ML_6_3Fu 
TR_3_03N 
GN_4_07W 
BR_4_04A 
TR_4_12A 
UZ_4_02YallajonimMyDearestSong
GN_4_07W 
PL_3_13C 
MX_4_06V 
AR_4_09T 
ML_6_01M 
REAL DISTANCES
BG_4_10Fairground
HR_3_04C 
TR_3_03N 
TR_3_03N 
TR_3_03N 
IT_4_05D 
AF_6_05LaloLalo
PK_4_14L 
UZ_14_01 
UZ_14_01 
UZ_14_01 
UZ_14_01 
BR_3_01SantaMassaChegou
BR_3_07N 
BR_3_07N 
BR_3_07N 
BR_3_07N 
AR_4_09T 
BR_3_07NoPrego
BR_3_01S 
BR_3_01S 
BR_3_01S 
BR_3_01S 
AR_4_09T 
BR_3_11VelhaInfancia
BR_3_01S 
BR_3_01S 
BR_3_01S 
BR_3_01S 
AR_4_09T 
BR_3_16CucurrucucuPaloma
BR_3_01S 
BR_3_01S 
BR_3_01S 
BR_3_01S 
AR_4_09T 
CU_3_06HayQueEntrarleAPalosAEse
CU_6_11C 
MX_6_07S 
MX_6_07S 
MX_6_07S 
PE_6_03S 
CU_6_11Chiquichaca
CU_3_06H 
MX_6_07S 
MX_6_07S 
MX_6_07S 
PE_6_03S 
CV_3_07MonteCara
SN_3_04B 
SN_3_04B 
SN_3_04B 
GN_6_10S 
GN_6_10S 
ML_6_3Fununkeesaya
ML_3_03K 
ML_3_03K 
ML_3_03K 
ML_3_03K 
GN_6_10S 
DZ_3_09RabaRaba
DZ_4_04Y 
DZ_4_04Y 
DZ_4_04Y 
ES_3_08E 
ES_3_08E 
EG_6_03SagalKo(Honorher)_TuDois
IL_6_07T 
LB_4_02A 
TR_3_03N 
TR_3_03N 
TR_3_03N 
ES_3_08ElliYeddiHaqEnnas
ES_3_09T 
ES_3_09T 
ES_3_09T 
ES_3_09T 
DZ_3_09R 
ES_3_09TiempodeSoleaaDJPankoRemix
ES_3_08E 
ES_3_08E 
ES_3_08E 
ES_3_08E 
DZ_3_09R 
ES_6_06QuienEnganaNoGana
ES_3_08E 
ES_3_08E 
ES_3_08E 
ES_3_08E 
DZ_3_09R 
ET_3_12Gedawo
EG_6_03S 
IL_6_07T 
IQ_3_06Y 
LB_4_02A 
IR_6_06T 
FI_6_01Kaluaja
RU_3_12A 
RU_3_12A 
RU_3_12A 
PL_3_13C 
PL_3_13C 
GN_6_10Sabou
GN_4_07W 
SN_3_04B 
SN_3_04B 
SN_3_04B 
ML_6_3Fu 
HR_3_04Cansoneita
IT_4_05D 
BG_4_10F 
PL_3_13C 
PL_3_13C 
UK_3_02T 
IL_6_07ThroughTheMistOfYourEyes
LB_4_02A 
EG_6_03S 
IQ_3_06Y 
TR_3_03N 
TR_3_03N 
IN_6_05PyarKaMatlab
IN_4_01R 
PK_4_14L 
AF_6_05L 
UZ_14_01 
UZ_14_01 
IQ_3_06YaNas
IR_6_06T 
LB_4_02A 
IL_6_07T 
TR_3_03N 
TR_3_03N 
IR_6_06TheReturn
IQ_3_06Y 
LB_4_02A 
IL_6_07T 
AF_6_05L 
UZ_14_01 
MA_6_12MinYoumi(SinceAlways)
ES_3_08E 
ES_3_08E 
ES_3_08E 
ES_3_08E 
ES_3_08E 
ML_3_03KoteDon
ML_6_3Fu 
ML_6_3Fu 
ML_6_3Fu 
ML_6_3Fu 
GN_6_10S 
ML_3_05Yala
ML_6_3Fu 
ML_6_3Fu 
ML_6_3Fu 
ML_6_3Fu 
GN_6_10S 
ML_6_01Madan
ML_6_3Fu 
ML_6_3Fu 
ML_6_3Fu 
ML_6_3Fu 
GN_6_10S 
MX_6_07Sr.Judas
MX_6_09S 
MX_6_09S 
CU_3_06H 
CU_3_06H 
PE_6_03S 
MX_6_09SaleSobrando
MX_6_07S 
MX_6_07S 
CU_3_06H 
CU_3_06H 
PE_6_03S 
NG_6_04Eparapo
ML_6_3Fu 
ML_6_3Fu 
ML_6_3Fu 
ML_6_3Fu 
ML_6_3Fu 
PE_6_03SeMeVanLosPies
AR_4_09T 
BR_3_01S 
BR_3_01S 
BR_3_01S 
BR_3_01S 
PL_3_13Childhood
PL_3_14D 
HR_3_04C 
FI_6_01K 
BG_4_10F 
RU_3_12A 
PL_3_14DoCiebieKasiuni(ToYouKasiuni
PL_3_13C 
HR_3_04C 
FI_6_01K 
BG_4_10F 
RU_3_12A 
RU_3_12AaShuuDeKei-OoLive
RU_6_12D 
RU_6_12D 
FI_6_01K 
PL_3_13C 
PL_3_13C 
RU_6_12DancingVoices
RU_3_12A 
RU_3_12A 
FI_6_01K 
PL_3_13C 
PL_3_13C 
SN_3_04Boomerang
SN_6_10J 
SN_6_10J 
CV_3_07M 
GN_6_10S 
GN_6_10S 
SN_6_10JiinMaJiinMa
SN_3_04B 
SN_3_04B 
CV_3_07M 
GN_6_10S 
GN_6_10S 
TR_3_03Nar-INey
TR_6_08S 
TR_6_08S 
LB_4_02A 
BG_4_10F 
IL_6_07T 
TR_6_08Shinanay
TR_3_03N 
TR_3_03N 
LB_4_02A 
BG_4_10F 
IL_6_07T 
TV_6_11Alamagoto
MX_6_07S 
MX_6_07S 
MX_6_07S 
CU_3_06H 
CU_3_06H 
UK_3_02TheOutlandishKnight
UK_6_04P 
UK_6_04P 
ES_3_08E 
ES_3_08E 
ES_3_08E 
UK_6_04PrettyPloughboy
UK_3_02T 
UK_3_02T 
ES_3_08E 
ES_3_08E 
ES_3_08E 
UZ_14_01SchochVaGado
UZ_14_03 
UZ_14_03 
UZ_14_03 
UZ_14_03 
UZ_14_03 
AR_4_09TierraColoradaRedLand
BR_3_01S 
BR_3_01S 
BR_3_01S 
BR_3_01S 
BR_3_01S 
BR_4_04Aganju
BR_3_01S 
BR_3_01S 
BR_3_01S 
BR_3_01S 
AR_4_09T 
UZ_14_03Bahor
UZ_14_01 
UZ_14_01 
UZ_14_01 
UZ_14_01 
UZ_14_01 
DZ_4_04YaGalbi
DZ_3_09R 
DZ_3_09R 
DZ_3_09R 
ES_3_08E 
ES_3_08E 
UZ_14_04IWishYouWereHere
UZ_14_01 
UZ_14_01 
UZ_14_01 
UZ_14_01 
UZ_14_01 
DZ_4_06GhirEntaIOnlyLoveYou
DZ_3_09R 
DZ_3_09R 
DZ_3_09R 
ES_3_08E 
ES_3_08E 
UZ_14_05KizilAlma
UZ_14_01 
UZ_14_01 
UZ_14_01 
UZ_14_01 
UZ_14_01 
ES_4_09EnAlgunLugar
ES_3_08E 
ES_3_08E 
ES_3_08E 
ES_3_08E 
DZ_3_09R 
UZ_14_06JeliJeli
UZ_14_01 
UZ_14_01 
UZ_14_01 
UZ_14_01 
UZ_14_01 
ES_4_11Rememorix
ES_3_08E 
ES_3_08E 
ES_3_08E 
ES_3_08E 
DZ_3_09R 
UZ_14_07Ona
UZ_14_01 
UZ_14_01 
UZ_14_01 
UZ_14_01 
UZ_14_01 
GN_4_07Wawata
GN_6_10S 
SN_3_04B 
SN_3_04B 
SN_3_04B 
ML_6_3Fu 
UZ_14_08Onajon
UZ_14_01 
UZ_14_01 
UZ_14_01 
UZ_14_01 
UZ_14_01 
IS_4_14WhoIsIt
UK_3_02T 
UK_3_02T 
UK_3_02T 
FI_6_01K 
PL_3_13C 
UZ_14_09Fergana
UZ_14_01 
UZ_14_01 
UZ_14_01 
UZ_14_01 
UZ_14_01 
IT_4_05DanceWithMe
HR_3_04C 
BG_4_10F 
DZ_3_09R 
DZ_3_09R 
DZ_3_09R 
UZ_14_10Binafscha
UZ_14_01 
UZ_14_01 
UZ_14_01 
UZ_14_01 
UZ_14_01 
ML_4_12Sara
ML_6_3Fu 
ML_6_3Fu 
ML_6_3Fu 
ML_6_3Fu 
GN_6_10S 
UZ_14_11TscheMischod
UZ_14_01 
UZ_14_01 
UZ_14_01 
UZ_14_01 
UZ_14_01 
MX_4_06Viborita
MX_6_07S 
MX_6_07S 
CU_3_06H 
CU_3_06H 
PE_6_03S 
UZ_14_12Bolalik
UZ_14_01 
UZ_14_01 
UZ_14_01 
UZ_14_01 
UZ_14_01 
RU_4_13Adimiral
RU_3_12A 
RU_3_12A 
FI_6_01K 
PL_3_13C 
PL_3_13C 
UZ_14_13Jannona
UZ_14_01 
UZ_14_01 
UZ_14_01 
UZ_14_01 
UZ_14_01 
SN_4_03ToubaDaruSalaam
SN_3_04B 
SN_3_04B 
CV_3_07M 
GN_6_10S 
GN_6_10S 
UZ_14_14TukilmaJonim
UZ_14_01 
UZ_14_01 
UZ_14_01 
UZ_14_01 
UZ_14_01 
TR_4_12Ab-ITarab
TR_3_03N 
TR_3_03N 
LB_4_02A 
BG_4_10F 
IL_6_07T 
UZ_14_15Yiglama(Live)
UZ_14_01 
UZ_14_01 
UZ_14_01 
UZ_14_01 
UZ_14_01 
IN_4_01RagaMisraMand_Thumri
IN_6_05P 
PK_4_14L 
AF_6_05L 
UZ_14_01 
UZ_14_01 
UZ_14_16KunglimGuli
UZ_14_01 
UZ_14_01 
UZ_14_01 
UZ_14_01 
UZ_14_01 
ZA_4_05LahlUmlenze
NG_6_04E 
ET_3_12G 
ML_6_3Fu 
ML_6_3Fu 
ML_6_3Fu 
UZ_3_10AdolatTanovari
UZ_14_01 
UZ_14_01 
UZ_14_01 
UZ_14_01 
UZ_14_01 
UZ_3_10Yer-Yer
UZ_14_01 
UZ_14_01 
UZ_14_01 
UZ_14_01 
UZ_14_01 
DZ_3_01BelelMadhiTheGateofthePas
DZ_3_09R 
DZ_3_09R 
DZ_3_09R 
ES_3_08E 
ES_3_08E 
LB_4_02AlNashalTheDayPickpockets
IL_6_07T 
EG_6_03S 
TR_3_03N 
TR_3_03N 
TR_3_03N 
PK_4_14LalShahbazQalandarTheRedF
AF_6_05L 
IN_6_05P 
IN_6_05P 
UZ_14_01 
UZ_14_01 
UK_4_11SofiaTheSaracensDaughter
UK_3_02T 
UK_3_02T 
ES_3_08E 
ES_3_08E 
ES_3_08E 
UZ_4_02YallajonimMyDearestSong
UZ_14_01 
UZ_14_01 
UZ_14_01 
UZ_14_01 
UZ_14_01 
