BA	1206.538234	1
XK	1307.672316	1
NE	1679.418163	1
AM	1792.005806	1
AF	1837.795575	1
HR	2463.016636	3
FR	2549.852454	1
BG	2705.359172	3
CM	2722.202986	1
CO	2898.455002	1
NG	3211.004443	1
PL	3482.252335	2
GR	3652.77913	46
GE	3836.266355	29
LT	3965.545302	32
CD	4024.107803	1
FI	4486.645806	2
UK	4504.81929	33
ES	4566.508535	7
SD	4830.264439	1
CI	4957.721519	1
MT	4986.081202	1
IQ	5342.727642	3
IS	5564.821856	1
RS	5584.578776	1
IL	5651.436255	3
RO	6273.025168	19
KG	6326.348335	26
AL	6433.836189	21
TN	6739.922033	1
MK	6926.984648	2
DZ	7069.87206	35
ET	7239.994348	30
AR	7415.764143	1
KE	7458.401973	32
KZ	7649.61614	4
TM	7672.740342	3
LB	7702.999442	2
GM	7769.585196	4
PR	7777.762361	1
EG	7890.004072	31
TW	7963.309387	25
TZ	7990.161422	20
PE	7995.493174	1
IR	8108.010738	23
MA	8162.942987	33
TJ	8446.317093	3
IT	8592.0218	51
JM	9029.432657	22
RU	9182.386869	4
PK	9378.442549	47
GN	9632.758309	7
SN	9767.720817	24
ML	9898.134705	66
TH	10054.67102	27
IN	10399.41444	69
US	10644.58661	1
CN	10778.55117	40
TR	11546.10062	64
KH	11568.93331	14
CU	11601.41425	3
UZ	11972.13607	36
BZ	12651.72713	11
ID	12783.5707	25
ZA	13271.5323	2
MM	13814.90907	25
CV	13897.89452	34
MX	15305.74381	4
JP	15628.58498	19
BR	17395.32718	36
NZ	19330.95059	1
TV	19533.03464	1
AU	20087.60752	14
