AF 1837.79557509 1
AL 6433.83618928 21
AM 1792.00580604 1
AR 7415.76414301 1
AU 20087.6075151 14
BA 1206.53823421 1
BG 2705.35917157 3
BR 17395.3271786 36
BZ 12651.7271286 11
CD 4024.1078027 1
CI 4957.72151876 1
CM 2722.2029856 1
CN 10778.5511679 40
CO 2898.45500161 1
CU 11601.4142542 3
CV 13897.894515 34
DZ 7069.87205959 35
EG 7890.00407219 31
ES 4566.50853476 7
ET 7239.99434802 30
FI 4486.64580589 2
FR 2549.85245437 1
GE 3836.26635504 29
GM 7769.5851957 4
GN 9632.75830923 7
GR 3652.77913026 46
HR 2463.01663578 3
ID 12783.5706989 25
IL 5651.43625502 3
IN 10399.4144447 69
IQ 5342.7276422 3
IR 8108.01073794 23
IS 5564.82185628 1
IT 8592.02180034 51
JM 9029.43265734 22
JP 15628.584983 19
KE 7458.40197313 32
KG 6326.34833528 26
KH 11568.933312 14
KZ 7649.61613992 4
LB 7702.99944175 2
LT 3965.54530205 32
MA 8162.94298694 33
MK 6926.98464819 2
ML 9898.13470523 66
MM 13814.9090716 25
MT 4986.08120246 1
MX 15305.7438136 4
NE 1679.41816277 1
NG 3211.0044425 1
NZ 19330.9505895 1
PE 7995.49317399 1
PK 9378.4425487 47
PL 3482.2523345 2
PR 7777.76236111 1
RO 6273.02516823 19
RS 5584.5787763 1
RU 9182.38686932 4
SD 4830.26443939 1
SN 9767.72081708 24
TH 10054.6710197 27
TJ 8446.31709289 3
TM 7672.74034184 3
TN 6739.92203276 1
TR 11546.1006175 64
TV 19533.0346427 1
TW 7963.30938695 25
TZ 7990.16142172 20
UK 4504.81928993 33
US 10644.5866116 1
UZ 11972.1360673 36
XK 1307.67231634 1
ZA 13271.5322982 2
