% Created by Marsyas
@relation musak.arff
@attribute Mean_Acc1000_Mean_Mem40_ZeroCrossings_HopSize512_WinSize512_AudioCh0 real
@attribute Mean_Acc1000_Mean_Mem40_HopSize512_WinSize512_AudioCh1 real
@attribute Mean_Acc1000_Mean_Mem40_Centroid_Power_powerFFT_WinHamming_HopSize512_WinSize512_AudioCh0 real
@attribute Mean_Acc1000_Mean_Mem40_WinHamming_HopSize512_WinSize512_AudioCh1 real
@attribute Mean_Acc1000_Mean_Mem40_Rolloff_Power_powerFFT_WinHamming_HopSize512_WinSize512_AudioCh0 real
@attribute Mean_Acc1000_Mean_Mem40_WinHamming_HopSize512_WinSize512_AudioCh1 real
@attribute Mean_Acc1000_Mean_Mem40_Flux_Power_powerFFT_WinHamming_HopSize512_WinSize512_AudioCh0 real
@attribute Mean_Acc1000_Mean_Mem40_WinHamming_HopSize512_WinSize512_AudioCh1 real
@attribute Mean_Acc1000_Mean_Mem40_MFCC0_Power_powerFFT_WinHamming_HopSize512_WinSize512_AudioCh0 real
@attribute Mean_Acc1000_Mean_Mem40_MFCC1_Power_powerFFT_WinHamming_HopSize512_WinSize512_AudioCh0 real
@attribute Mean_Acc1000_Mean_Mem40_MFCC2_Power_powerFFT_WinHamming_HopSize512_WinSize512_AudioCh0 real
@attribute Mean_Acc1000_Mean_Mem40_MFCC3_Power_powerFFT_WinHamming_HopSize512_WinSize512_AudioCh0 real
@attribute Mean_Acc1000_Mean_Mem40_MFCC4_Power_powerFFT_WinHamming_HopSize512_WinSize512_AudioCh0 real
@attribute Mean_Acc1000_Mean_Mem40_MFCC5_Power_powerFFT_WinHamming_HopSize512_WinSize512_AudioCh0 real
@attribute Mean_Acc1000_Mean_Mem40_MFCC6_Power_powerFFT_WinHamming_HopSize512_WinSize512_AudioCh0 real
@attribute Mean_Acc1000_Mean_Mem40_MFCC7_Power_powerFFT_WinHamming_HopSize512_WinSize512_AudioCh0 real
@attribute Mean_Acc1000_Mean_Mem40_MFCC8_Power_powerFFT_WinHamming_HopSize512_WinSize512_AudioCh0 real
@attribute Mean_Acc1000_Std_Mem40_ZeroCrossings_HopSize512_WinSize512_AudioCh0 real
@attribute Mean_Acc1000_Std_Mem40_HopSize512_WinSize512_AudioCh1 real
@attribute Mean_Acc1000_Std_Mem40_Centroid_Power_powerFFT_WinHamming_HopSize512_WinSize512_AudioCh0 real
@attribute Mean_Acc1000_Std_Mem40_WinHamming_HopSize512_WinSize512_AudioCh1 real
@attribute Mean_Acc1000_Std_Mem40_Rolloff_Power_powerFFT_WinHamming_HopSize512_WinSize512_AudioCh0 real
@attribute Mean_Acc1000_Std_Mem40_WinHamming_HopSize512_WinSize512_AudioCh1 real
@attribute Mean_Acc1000_Std_Mem40_Flux_Power_powerFFT_WinHamming_HopSize512_WinSize512_AudioCh0 real
@attribute Mean_Acc1000_Std_Mem40_WinHamming_HopSize512_WinSize512_AudioCh1 real
@attribute Mean_Acc1000_Std_Mem40_MFCC0_Power_powerFFT_WinHamming_HopSize512_WinSize512_AudioCh0 real
@attribute Mean_Acc1000_Std_Mem40_MFCC1_Power_powerFFT_WinHamming_HopSize512_WinSize512_AudioCh0 real
@attribute Mean_Acc1000_Std_Mem40_MFCC2_Power_powerFFT_WinHamming_HopSize512_WinSize512_AudioCh0 real
@attribute Mean_Acc1000_Std_Mem40_MFCC3_Power_powerFFT_WinHamming_HopSize512_WinSize512_AudioCh0 real
@attribute Mean_Acc1000_Std_Mem40_MFCC4_Power_powerFFT_WinHamming_HopSize512_WinSize512_AudioCh0 real
@attribute Mean_Acc1000_Std_Mem40_MFCC5_Power_powerFFT_WinHamming_HopSize512_WinSize512_AudioCh0 real
@attribute Mean_Acc1000_Std_Mem40_MFCC6_Power_powerFFT_WinHamming_HopSize512_WinSize512_AudioCh0 real
@attribute Mean_Acc1000_Std_Mem40_MFCC7_Power_powerFFT_WinHamming_HopSize512_WinSize512_AudioCh0 real
@attribute Mean_Acc1000_Std_Mem40_MFCC8_Power_powerFFT_WinHamming_HopSize512_WinSize512_AudioCh0 real
@attribute Std_Acc1000_Mean_Mem40_ZeroCrossings_HopSize512_WinSize512_AudioCh0 real
@attribute Std_Acc1000_Mean_Mem40_HopSize512_WinSize512_AudioCh1 real
@attribute Std_Acc1000_Mean_Mem40_Centroid_Power_powerFFT_WinHamming_HopSize512_WinSize512_AudioCh0 real
@attribute Std_Acc1000_Mean_Mem40_WinHamming_HopSize512_WinSize512_AudioCh1 real
@attribute Std_Acc1000_Mean_Mem40_Rolloff_Power_powerFFT_WinHamming_HopSize512_WinSize512_AudioCh0 real
@attribute Std_Acc1000_Mean_Mem40_WinHamming_HopSize512_WinSize512_AudioCh1 real
@attribute Std_Acc1000_Mean_Mem40_Flux_Power_powerFFT_WinHamming_HopSize512_WinSize512_AudioCh0 real
@attribute Std_Acc1000_Mean_Mem40_WinHamming_HopSize512_WinSize512_AudioCh1 real
@attribute Std_Acc1000_Mean_Mem40_MFCC0_Power_powerFFT_WinHamming_HopSize512_WinSize512_AudioCh0 real
@attribute Std_Acc1000_Mean_Mem40_MFCC1_Power_powerFFT_WinHamming_HopSize512_WinSize512_AudioCh0 real
@attribute Std_Acc1000_Mean_Mem40_MFCC2_Power_powerFFT_WinHamming_HopSize512_WinSize512_AudioCh0 real
@attribute Std_Acc1000_Mean_Mem40_MFCC3_Power_powerFFT_WinHamming_HopSize512_WinSize512_AudioCh0 real
@attribute Std_Acc1000_Mean_Mem40_MFCC4_Power_powerFFT_WinHamming_HopSize512_WinSize512_AudioCh0 real
@attribute Std_Acc1000_Mean_Mem40_MFCC5_Power_powerFFT_WinHamming_HopSize512_WinSize512_AudioCh0 real
@attribute Std_Acc1000_Mean_Mem40_MFCC6_Power_powerFFT_WinHamming_HopSize512_WinSize512_AudioCh0 real
@attribute Std_Acc1000_Mean_Mem40_MFCC7_Power_powerFFT_WinHamming_HopSize512_WinSize512_AudioCh0 real
@attribute Std_Acc1000_Mean_Mem40_MFCC8_Power_powerFFT_WinHamming_HopSize512_WinSize512_AudioCh0 real
@attribute Std_Acc1000_Std_Mem40_ZeroCrossings_HopSize512_WinSize512_AudioCh0 real
@attribute Std_Acc1000_Std_Mem40_HopSize512_WinSize512_AudioCh1 real
@attribute Std_Acc1000_Std_Mem40_Centroid_Power_powerFFT_WinHamming_HopSize512_WinSize512_AudioCh0 real
@attribute Std_Acc1000_Std_Mem40_WinHamming_HopSize512_WinSize512_AudioCh1 real
@attribute Std_Acc1000_Std_Mem40_Rolloff_Power_powerFFT_WinHamming_HopSize512_WinSize512_AudioCh0 real
@attribute Std_Acc1000_Std_Mem40_WinHamming_HopSize512_WinSize512_AudioCh1 real
@attribute Std_Acc1000_Std_Mem40_Flux_Power_powerFFT_WinHamming_HopSize512_WinSize512_AudioCh0 real
@attribute Std_Acc1000_Std_Mem40_WinHamming_HopSize512_WinSize512_AudioCh1 real
@attribute Std_Acc1000_Std_Mem40_MFCC0_Power_powerFFT_WinHamming_HopSize512_WinSize512_AudioCh0 real
@attribute Std_Acc1000_Std_Mem40_MFCC1_Power_powerFFT_WinHamming_HopSize512_WinSize512_AudioCh0 real
@attribute Std_Acc1000_Std_Mem40_MFCC2_Power_powerFFT_WinHamming_HopSize512_WinSize512_AudioCh0 real
@attribute Std_Acc1000_Std_Mem40_MFCC3_Power_powerFFT_WinHamming_HopSize512_WinSize512_AudioCh0 real
@attribute Std_Acc1000_Std_Mem40_MFCC4_Power_powerFFT_WinHamming_HopSize512_WinSize512_AudioCh0 real
@attribute Std_Acc1000_Std_Mem40_MFCC5_Power_powerFFT_WinHamming_HopSize512_WinSize512_AudioCh0 real
@attribute Std_Acc1000_Std_Mem40_MFCC6_Power_powerFFT_WinHamming_HopSize512_WinSize512_AudioCh0 real
@attribute Std_Acc1000_Std_Mem40_MFCC7_Power_powerFFT_WinHamming_HopSize512_WinSize512_AudioCh0 real
@attribute Std_Acc1000_Std_Mem40_MFCC8_Power_powerFFT_WinHamming_HopSize512_WinSize512_AudioCh0 real


@data
% filename musak/AF_6_05LaloLalo.wav
0.040302,0.042770,0.067076,0.074420,-82.685414,7.347152,-0.805931,0.335533,0.690807,0.293867,0.086103,0.334479,-0.677752,0.606674,0.855980,0.786622,0.754874,0.011290,0.018361,0.036237,0.031196,5.737931,1.399076,0.904694,0.651376,0.627598,0.695167,0.640037,0.675997,0.593064,0.514202,0.420679,0.446957,0.482944,0.009612,0.034412,0.066152,0.008217,8.442663,1.714279,0.884619,0.433025,0.382675,0.467938,0.342436,0.344032,0.369608,0.229801,0.343681,0.208732,0.254017,0.005105,0.046093,0.082313,0.015408,10.687296,0.404285,0.197772,0.145969,0.182255,0.119928,0.090232,0.149440,0.127720,0.111851,0.093834,0.078353,0.082942,69.133333
% filename musak/BR_3_01SantaMassaChegou.wav
0.293480,0.291863,0.499522,0.086922,-86.375084,1.510924,1.048820,0.485115,1.850746,0.496109,0.353943,1.322630,1.118599,0.778969,-0.023612,0.637975,0.387757,0.107536,0.126642,0.197968,0.043955,5.482845,1.456355,1.223243,0.768141,0.796767,0.486993,0.787119,0.482318,0.687118,0.493504,0.533930,0.471935,0.480881,0.094930,0.161853,0.156644,0.009735,18.095655,1.244476,0.964241,0.578338,0.726492,0.373153,0.258876,0.324093,0.494296,0.184693,0.430304,0.250430,0.246981,0.041214,0.062391,0.078127,0.031540,5.678132,0.600371,0.303357,0.121994,0.175301,0.062640,0.170083,0.087732,0.131916,0.074023,0.094455,0.072766,0.072175,-47.95
% filename musak/BR_3_07NoPrego.wav
0.071488,0.064655,0.109275,0.082045,-67.310137,5.298791,-0.372748,1.564595,0.371567,0.850560,0.362849,0.727660,0.254686,0.261753,0.177937,0.395988,0.329894,0.026596,0.030673,0.045818,0.033718,3.463881,0.768017,0.644306,0.626382,0.558179,0.553208,0.559931,0.584172,0.530149,0.517739,0.529358,0.513000,0.503378,0.074053,0.105752,0.125774,0.011577,10.514241,1.238200,0.382390,0.437645,0.238324,0.254508,0.288010,0.312758,0.327826,0.233268,0.355835,0.203952,0.255052,0.051490,0.079964,0.086082,0.033818,8.138299,0.362717,0.150711,0.106101,0.119115,0.086539,0.079846,0.105578,0.090223,0.062466,0.110436,0.122617,0.151895,-47.95
% filename musak/BR_3_11VelhaInfancia.wav
0.059472,0.050112,0.140639,0.091816,-72.275619,5.784921,1.574306,1.634400,0.738974,0.812542,0.404631,0.575053,0.407173,0.502094,0.854027,0.484917,0.508636,0.048514,0.044628,0.192919,0.040288,5.641264,1.504369,0.835236,0.825979,0.632551,0.631176,0.584133,0.536499,0.525772,0.509633,0.481595,0.512142,0.445423,0.071276,0.106548,0.156266,0.009691,8.624195,0.859991,0.522571,0.402064,0.382742,0.498498,0.414223,0.261044,0.327540,0.416036,0.429118,0.377707,0.334233,0.051641,0.082650,0.134844,0.032544,8.462403,0.468117,0.138303,0.166700,0.101642,0.105751,0.126106,0.082750,0.093003,0.095763,0.071104,0.106151,0.064928,-47.95
% filename musak/BR_3_16CucurrucucuPaloma.wav
0.036749,0.036018,0.190525,0.076922,-93.544396,7.604259,2.261437,2.873431,1.670132,0.959015,1.142632,0.730255,0.205367,0.664489,0.755358,0.887004,0.558031,0.024485,0.024944,0.288087,0.029016,4.837544,1.200832,0.661297,0.547885,0.475036,0.504893,0.468836,0.456407,0.458784,0.516218,0.393423,0.426816,0.461852,0.079009,0.108252,0.176778,0.010125,6.013751,1.332882,0.509075,0.434258,0.302230,0.272307,0.265626,0.183451,0.226781,0.300918,0.269626,0.286185,0.310790,0.055375,0.080962,0.168640,0.034430,6.638445,0.571277,0.124919,0.128711,0.087497,0.085982,0.079158,0.065283,0.081048,0.111195,0.062050,0.074948,0.081933,-47.95
% filename musak/CU_3_06HayQueEntrarleAPalosAEse.wav
0.070690,0.054874,0.120871,0.078960,-63.189825,4.345407,0.415741,1.466151,0.339875,0.913995,0.086610,0.616498,0.468927,0.604802,0.598246,0.391769,0.559449,0.035960,0.035386,0.126849,0.031344,4.738498,0.895040,0.904771,0.861316,0.673593,0.622462,0.644986,0.607399,0.578551,0.532403,0.510195,0.524302,0.467693,0.074681,0.097022,0.116381,0.009408,11.171953,0.731472,0.662644,0.603194,0.596593,0.335840,0.584216,0.360879,0.280929,0.222437,0.190593,0.248166,0.160903,0.067540,0.087359,0.127012,0.033994,6.935078,0.494421,0.198516,0.251543,0.149744,0.108840,0.143748,0.110822,0.090257,0.087070,0.056751,0.071726,0.058366,-82.383333
% filename musak/CU_6_11Chiquichaca.wav
0.098634,0.084454,0.190519,0.081086,-78.764282,4.565458,1.400802,0.963156,0.812667,0.466775,0.577845,0.503531,0.509842,0.423557,0.518272,0.442234,0.499163,0.037479,0.040733,0.103868,0.030964,3.059748,0.814021,0.740527,0.683345,0.602249,0.587949,0.576205,0.567490,0.549351,0.508986,0.509418,0.488598,0.468538,0.042654,0.087011,0.174267,0.009546,17.700025,1.198819,1.176498,0.345685,0.380881,0.237139,0.250232,0.163872,0.198841,0.169872,0.180298,0.192495,0.169031,0.025355,0.044818,0.071800,0.034297,6.719593,0.274567,0.138161,0.119040,0.100031,0.063361,0.079314,0.068433,0.080780,0.053060,0.063272,0.071725,0.055546,-82.383333
% filename musak/CV_3_07MonteCara.wav
0.064483,0.050908,0.087639,0.083478,-66.229537,6.235664,0.221489,0.750269,0.697785,0.697038,0.429164,0.645912,0.326200,0.429422,-0.213211,0.380886,0.641298,0.038545,0.036232,0.085751,0.033109,5.756460,1.051043,0.761089,0.716845,0.590011,0.575652,0.626448,0.595553,0.590104,0.600553,0.631256,0.571718,0.553175,0.061276,0.085712,0.110032,0.010409,8.349963,1.168786,0.630107,0.740210,0.405986,0.440172,0.388711,0.398470,0.607248,0.528170,0.438929,0.322776,0.348893,0.046456,0.078226,0.096769,0.033683,8.101982,0.412060,0.194338,0.205249,0.107924,0.121932,0.123429,0.137046,0.132920,0.169794,0.217842,0.126187,0.213477,-23.516667
% filename musak/ML_6_3Fununkeesaya.wav
0.034163,0.038035,0.066034,0.088553,-81.347723,7.404641,0.834791,0.910626,-0.387540,-0.276970,-0.091555,0.032124,-0.383474,0.292384,0.355938,0.895153,0.758111,0.013255,0.019465,0.048577,0.037878,5.776258,1.354886,0.695148,0.686080,0.625162,0.618452,0.635367,0.661653,0.689131,0.613495,0.684764,0.671389,0.603469,0.009005,0.042286,0.117202,0.009220,7.794777,1.603972,0.582445,0.698815,0.822397,0.576100,0.635141,0.693679,0.832604,0.596286,0.717391,0.673496,0.463231,0.007570,0.047702,0.094722,0.033002,7.600142,0.534174,0.137262,0.136157,0.137117,0.113616,0.158424,0.158572,0.296137,0.208348,0.287535,0.227425,0.192714,-8
% filename musak/DZ_3_09RabaRaba.wav
0.052033,0.047915,0.092035,0.081823,-74.074681,5.947254,0.411061,1.408100,0.390115,0.573728,0.117295,0.822486,0.455944,0.679875,0.328899,0.565864,0.591112,0.029426,0.032888,0.100578,0.036385,7.828985,1.042261,0.642133,0.628781,0.634702,0.556388,0.582984,0.559225,0.587036,0.534104,0.550765,0.484136,0.445730,0.062928,0.096337,0.113031,0.008849,9.222791,0.690673,0.309544,0.161948,0.244998,0.194105,0.235061,0.115490,0.134748,0.133438,0.171143,0.129979,0.100655,0.056921,0.086537,0.128826,0.033532,6.396509,0.690175,0.093959,0.074354,0.086826,0.090521,0.078927,0.067022,0.070998,0.069953,0.081063,0.073330,0.051187,3.216667
% filename musak/EG_6_03SagalKo(Honorher)_TuDois.wav
0.037199,0.037826,0.094915,0.101353,-73.610949,7.563217,0.164865,2.742178,0.482371,1.012226,0.857778,0.354281,0.756918,0.449847,0.416864,0.462072,0.322021,0.024389,0.028335,0.135613,0.060776,5.793610,1.784512,1.053480,0.923041,0.695201,0.645530,0.663147,0.651449,0.563919,0.575009,0.539917,0.465952,0.428704,0.024851,0.063452,0.120585,0.015692,9.515801,1.922443,0.584752,0.813438,0.369061,0.505385,0.538333,0.720595,0.385989,0.339816,0.332303,0.191686,0.217454,0.026339,0.057347,0.122282,0.035179,6.921088,0.554252,0.307942,0.380550,0.187694,0.186106,0.208831,0.232704,0.126309,0.121684,0.122520,0.101770,0.085376,31.216667
% filename musak/ES_3_08ElliYeddiHaqEnnas.wav
0.078059,0.064817,0.145223,0.087194,-64.792145,4.310500,-0.004202,1.110149,0.830744,0.306810,0.233256,0.374460,0.257659,0.579762,0.533588,0.548624,0.567472,0.037720,0.038355,0.152698,0.035484,5.156117,1.059257,0.852824,0.636008,0.609978,0.639540,0.627758,0.576625,0.529451,0.540627,0.500026,0.475322,0.462910,0.058271,0.088040,0.104741,0.009910,8.444636,0.928149,1.283235,0.680692,0.489262,0.380332,0.359946,0.206081,0.226427,0.245370,0.173858,0.172399,0.176712,0.051423,0.080787,0.142261,0.032755,8.329760,0.539662,0.215792,0.084370,0.136822,0.121342,0.111374,0.095986,0.070194,0.075319,0.083109,0.058443,0.072171,-3.7
% filename musak/ES_3_09TiempodeSoleaaDJPankoRemix.wav
0.078215,0.073169,0.120919,0.090710,-70.041137,6.932861,-1.138846,1.448292,1.115419,1.054089,0.579715,0.621204,0.463022,0.380474,0.470641,0.209804,0.168537,0.031181,0.035670,0.062320,0.042623,5.566577,1.852206,1.100978,0.853766,0.911711,0.802707,0.694201,0.653801,0.624887,0.587951,0.567447,0.544773,0.490775,0.093398,0.118243,0.152334,0.013031,10.104601,2.930276,1.134056,0.771182,0.835666,0.766400,0.587575,0.418845,0.403131,0.308871,0.318893,0.393873,0.292930,0.046897,0.072919,0.080653,0.032680,7.765052,0.564602,0.240926,0.242727,0.215671,0.191222,0.159682,0.149455,0.136143,0.105678,0.102320,0.097596,0.078282,-3.7
% filename musak/ES_6_06QuienEnganaNoGana.wav
0.051705,0.055865,0.148401,0.091955,-75.366315,6.218385,0.351613,1.326016,0.649733,1.129614,0.500339,0.819477,0.441415,0.555211,0.267717,0.006341,0.194915,0.032855,0.041227,0.141074,0.046731,7.489075,1.888308,1.362065,1.076045,0.903920,0.675785,0.684279,0.652973,0.615819,0.582145,0.611478,0.656579,0.609351,0.030068,0.066820,0.161234,0.011513,9.820910,2.380484,1.430637,0.465286,0.567177,0.488932,0.620069,0.360590,0.474173,0.256000,0.417524,0.448660,0.377844,0.030510,0.053222,0.148316,0.034210,6.271592,0.599724,0.407366,0.301880,0.232477,0.176954,0.142488,0.239796,0.100277,0.118421,0.168027,0.128845,0.162291,-3.7
% filename musak/ET_3_12Gedawo.wav
0.032742,0.032983,0.399532,0.085026,-73.744532,7.256387,2.215767,1.585118,0.909967,0.785701,0.426664,0.657130,0.591483,0.594246,0.621994,0.627118,0.840457,0.023378,0.027168,0.334581,0.039806,5.172579,1.297171,1.053299,0.623671,0.739446,0.699776,0.637441,0.546172,0.511753,0.584929,0.574115,0.516085,0.450572,0.067719,0.096685,0.300283,0.012120,10.119562,1.254687,1.112302,0.318240,0.465516,0.343849,0.421803,0.429295,0.417082,0.790795,0.751190,0.566529,0.320748,0.057953,0.088097,0.156031,0.033676,7.476563,0.696020,0.345114,0.135416,0.190964,0.140591,0.146290,0.104601,0.083909,0.096047,0.114384,0.133700,0.100345,38.74
% filename musak/FI_6_01Kaluaja.wav
0.099306,0.171082,0.252934,0.078639,-111.943125,1.724384,-2.480058,0.295385,2.813289,1.250647,-0.357745,0.786909,0.707491,-0.898350,-0.030222,2.439359,1.835610,0.028532,0.047293,0.070658,0.029341,3.757318,0.712788,0.710612,0.548508,0.533746,0.532655,0.562355,0.515376,0.607928,0.526429,0.485995,0.458114,0.416677,0.065060,0.166614,0.301720,0.010799,12.156376,0.734570,1.889770,0.450414,0.892718,0.301850,0.594143,0.267223,0.380456,0.906521,0.426568,0.787976,0.525370,0.047709,0.080636,0.120813,0.034126,6.744049,0.404692,0.327538,0.092343,0.195342,0.069048,0.109072,0.078400,0.102216,0.189396,0.130779,0.128358,0.094614,24.933333
% filename musak/GN_6_10Sabou.wav
0.069543,0.054069,0.196313,0.088699,-66.061271,5.105971,0.616180,2.137179,0.658833,0.967827,0.475918,0.424428,0.091620,0.109750,0.199739,0.540753,0.608291,0.050695,0.049508,0.261549,0.045129,5.754518,1.240589,1.167244,0.837101,0.707813,0.648097,0.593319,0.586874,0.560054,0.564834,0.495674,0.494705,0.512242,0.034405,0.058803,0.129617,0.008072,10.926077,1.067855,1.063195,0.676065,0.568077,0.247043,0.284462,0.222899,0.329990,0.435827,0.251446,0.397302,0.344100,0.034638,0.052063,0.091740,0.032375,6.671844,0.435549,0.351035,0.217617,0.169156,0.129285,0.133707,0.103121,0.101885,0.167423,0.112532,0.142175,0.118811,-13.7
% filename musak/HR_3_04Cansoneita.wav
0.023057,0.025490,0.474866,0.113283,-90.251822,8.774274,3.383385,2.813451,1.427646,1.109505,0.612743,0.447310,0.444310,0.471679,0.434404,0.488153,0.420125,0.018836,0.023933,0.445998,0.069449,8.287591,1.689054,1.082144,0.628688,0.526231,0.456992,0.436896,0.432657,0.414601,0.376940,0.386731,0.383156,0.389300,0.060131,0.084779,0.197383,0.028936,5.985264,1.424037,0.770817,0.411782,0.349196,0.179274,0.166331,0.185614,0.155337,0.168593,0.122387,0.111456,0.160032,0.058456,0.085161,0.060108,0.037177,6.887049,0.467179,0.216511,0.139706,0.153776,0.094383,0.096373,0.091213,0.087257,0.080412,0.101926,0.082093,0.081950,16
% filename musak/IL_6_07ThroughTheMistOfYourEyes.wav
0.020188,0.025475,0.048807,0.079944,-86.339575,11.388222,2.193982,1.269590,1.400961,0.604442,0.141747,0.978594,0.753190,0.348567,0.374625,0.317451,0.316152,0.013985,0.018861,0.032795,0.033159,5.608764,1.747183,1.084128,0.700662,0.585438,0.542287,0.574338,0.520141,0.582418,0.518344,0.478227,0.426036,0.436245,0.018632,0.055394,0.130469,0.013607,5.444113,1.703765,0.943583,0.472158,0.430015,0.340670,0.309712,0.305277,0.466883,0.359472,0.243490,0.208396,0.253252,0.038696,0.066147,0.102573,0.033501,6.154355,0.619334,0.306683,0.157791,0.120383,0.120052,0.107578,0.109094,0.162913,0.114478,0.081984,0.072590,0.076605,35.216667
% filename musak/IN_6_05PyarKaMatlab.wav
0.097013,0.074774,0.205227,0.084315,-79.578986,3.579218,2.294474,1.363408,1.405754,1.048727,1.251988,0.449175,0.820623,0.389162,0.375593,0.411666,0.508448,0.054205,0.057797,0.193605,0.036231,5.820839,1.449638,1.006769,0.816261,0.698196,0.618078,0.649932,0.607319,0.556266,0.553584,0.506807,0.494710,0.517124,0.072870,0.073259,0.142449,0.009972,9.313537,1.406611,1.945604,0.862903,0.795782,0.489330,0.577752,0.513243,0.425402,0.446578,0.397716,0.264386,0.355467,0.027600,0.048895,0.121507,0.033984,5.997148,0.705231,0.482549,0.303552,0.158074,0.121972,0.105978,0.118272,0.094666,0.099965,0.111794,0.098640,0.146968,77.208889
% filename musak/IQ_3_06YaNas.wav
0.080615,0.072335,0.131269,0.077024,-73.496026,3.990446,0.231384,1.221468,-0.076598,0.789029,0.514126,1.146937,0.235986,-0.089448,0.024931,0.113360,0.269811,0.034359,0.037299,0.066652,0.031090,6.253237,1.047213,0.650089,0.688408,0.601105,0.633115,0.604208,0.686748,0.628910,0.698118,0.572555,0.569751,0.553858,0.064827,0.095366,0.110713,0.012847,8.522722,0.774641,0.800211,0.979411,0.376663,0.450742,0.567433,0.982146,0.608772,0.686546,0.468970,0.314554,0.326779,0.053482,0.083534,0.087353,0.033978,8.034056,0.330639,0.161491,0.218468,0.088589,0.106794,0.171421,0.164716,0.179447,0.238729,0.130576,0.108686,0.106144,44.433333
% filename musak/IR_6_06TheReturn.wav
0.049990,0.052580,0.086247,0.072556,-78.438605,5.850363,-0.785117,1.453352,-0.635776,0.078215,0.640871,1.095974,0.612650,0.916797,0.556267,-0.210045,-0.773439,0.015460,0.021585,0.047867,0.030813,4.039700,1.222784,0.844616,0.765640,0.622187,0.566041,0.506785,0.536536,0.633277,0.516202,0.611614,0.527764,0.512866,0.006739,0.036137,0.073525,0.011814,10.878844,0.899875,0.750558,0.354605,0.317124,0.354356,0.436466,0.389701,0.306869,0.254275,0.337727,0.323778,0.396567,0.004823,0.040838,0.072760,0.033934,5.822814,0.291686,0.150853,0.143064,0.101019,0.086904,0.085037,0.091615,0.107712,0.119132,0.136170,0.082376,0.121942,51.416667
% filename musak/MA_6_12MinYoumi(SinceAlways).wav
0.075858,0.062070,0.125653,0.080544,-64.741743,3.937918,-0.016713,1.154898,-0.363757,1.449196,0.252325,1.371660,-0.033377,0.335396,0.032967,0.538935,0.443800,0.024882,0.026395,0.051357,0.031972,3.339137,0.743753,0.770297,0.632575,0.601591,0.544510,0.571786,0.549150,0.572892,0.619607,0.621101,0.587450,0.590512,0.040258,0.058583,0.115074,0.009882,8.501735,1.102587,1.261653,0.780003,0.450909,0.555677,0.401421,0.471363,0.581637,0.503934,0.528978,0.491588,0.503565,0.035494,0.047964,0.083046,0.033976,6.707256,0.315655,0.257126,0.195828,0.141239,0.097020,0.111837,0.099106,0.131030,0.164976,0.149818,0.152887,0.207047,-6.85
% filename musak/ML_3_03KoteDon.wav
0.058984,0.054819,0.075946,0.081289,-75.942427,8.475293,0.911830,1.664128,-0.057724,1.505194,0.547701,0.305052,1.186190,0.003331,0.515555,0.391816,0.428619,0.044147,0.045961,0.072207,0.031389,6.455251,1.224406,0.916226,0.852997,0.798864,0.633070,0.549871,0.581529,0.562500,0.552268,0.516095,0.462081,0.458465,0.071049,0.101561,0.125301,0.011239,10.526006,1.956869,0.860489,1.056640,1.071196,0.428653,0.534978,0.779872,0.407821,0.495626,0.333369,0.332507,0.426120,0.068988,0.093570,0.109543,0.033623,8.356986,0.741721,0.338823,0.348909,0.285005,0.180529,0.129762,0.171591,0.145266,0.149887,0.129453,0.100354,0.124688,-8
% filename musak/ML_3_05Yala.wav
0.047763,0.044347,0.069692,0.085895,-75.317053,7.946108,-0.280124,2.732130,0.260549,1.580984,-0.584068,-0.423842,-0.456946,0.399073,0.940989,-0.061408,0.265436,0.028139,0.030327,0.071821,0.043555,7.132354,1.526217,1.135704,0.807910,0.964591,0.822063,0.650625,0.848955,0.791542,0.531445,0.613521,0.486582,0.445916,0.057664,0.084021,0.100676,0.009573,8.167683,1.661890,1.085998,0.782151,0.653511,0.622867,0.455095,0.513505,0.643812,0.222126,0.238938,0.219977,0.223337,0.055778,0.084481,0.112124,0.032043,6.690586,0.528028,0.326040,0.216740,0.278430,0.178937,0.125214,0.192662,0.204372,0.084015,0.121750,0.067344,0.069861,-8
% filename musak/ML_6_01Madan.wav
0.050654,0.077001,0.143736,0.082778,-78.670053,7.602798,-0.054321,1.962646,0.225073,0.763368,0.885697,0.708449,0.147916,-0.010090,0.383015,1.068236,0.433814,0.038449,0.037735,0.097730,0.035239,8.286268,1.652083,1.277419,0.889823,0.810389,0.762625,0.687928,0.637251,0.573957,0.576137,0.548094,0.501670,0.505310,0.027265,0.122238,0.218839,0.009914,16.593268,2.298363,0.996838,0.528010,0.485450,0.255477,0.254746,0.241556,0.349167,0.389088,0.242238,0.275834,0.239751,0.034616,0.051017,0.104760,0.033438,6.743951,0.511515,0.393415,0.234212,0.190210,0.139924,0.180110,0.140069,0.133356,0.132890,0.113165,0.119514,0.089013,-8
% filename musak/MX_6_07Sr.Judas.wav
0.041440,0.042801,0.068963,0.074557,-72.031402,6.438674,-0.538894,-0.197994,0.339862,1.222144,0.829731,0.653754,0.304692,0.275646,0.610438,0.830954,0.627809,0.012995,0.020552,0.039697,0.030427,4.940505,0.973002,0.821526,0.839626,0.722274,0.685903,0.663014,0.683912,0.622105,0.543410,0.440065,0.465560,0.402034,0.009234,0.045434,0.083537,0.010445,6.961277,0.556751,0.766178,0.702200,0.519343,0.396029,0.411954,0.460727,0.308231,0.276567,0.189187,0.231979,0.151718,0.010180,0.047847,0.090864,0.034472,6.793984,0.649593,0.355313,0.242070,0.176236,0.165523,0.159753,0.164599,0.119081,0.101069,0.119621,0.095035,0.069681,-99.366667
% filename musak/MX_6_09SaleSobrando.wav
0.109678,0.117992,0.552630,0.094588,-87.502105,3.567093,2.271629,2.114670,1.070362,1.387682,1.023613,0.506026,0.389453,0.657884,0.827757,0.524309,0.448867,0.058491,0.067955,0.365832,0.059645,8.981801,2.586067,1.103461,0.799621,0.734604,0.611637,0.586392,0.598873,0.584785,0.489350,0.497012,0.479164,0.420276,0.145397,0.162567,0.192553,0.009650,10.362556,3.314723,1.434934,0.847097,0.832625,0.520220,0.416962,0.383319,0.419482,0.250354,0.349101,0.217530,0.344324,0.049764,0.054642,0.101882,0.029761,5.853277,0.783714,0.253214,0.105242,0.196043,0.142530,0.127719,0.099314,0.085654,0.083177,0.077853,0.086356,0.077847,-99.366667
% filename musak/NG_6_04Eparapo.wav
0.030499,0.026920,0.483297,0.092806,-76.948024,5.776687,2.932113,1.252515,0.769509,0.624682,0.666995,0.518226,0.464332,0.887329,0.793672,0.754868,0.664674,0.030648,0.030250,0.431701,0.051227,7.006817,1.940918,1.238719,0.674024,0.655918,0.623014,0.621507,0.503940,0.476963,0.481546,0.477811,0.479351,0.413383,0.015793,0.052077,0.194049,0.011925,8.419736,1.687100,0.730339,0.345128,0.449437,0.674786,0.583335,0.349562,0.267956,0.233691,0.252145,0.252183,0.126579,0.016601,0.050254,0.061399,0.031185,5.415536,0.586027,0.279607,0.115284,0.141942,0.159811,0.132442,0.080513,0.066245,0.077730,0.088996,0.073585,0.069602,7.483333
% filename musak/PE_6_03SeMeVanLosPies.wav
0.030067,0.029444,0.392412,0.089677,-87.368911,7.251698,1.795825,1.476063,0.762398,0.636929,0.503483,0.734321,0.507035,0.539521,0.352740,0.522618,0.654162,0.024865,0.026329,0.406036,0.047597,11.281679,1.445469,0.907951,0.780360,0.809111,0.657139,0.610678,0.575099,0.555798,0.502452,0.506575,0.484268,0.472954,0.019305,0.065196,0.211778,0.009237,6.280287,1.247818,0.498642,0.432946,0.509324,0.383455,0.279083,0.225729,0.241954,0.201390,0.196558,0.190681,0.233133,0.024108,0.057223,0.097089,0.032153,5.214788,0.451844,0.194077,0.127118,0.198089,0.138650,0.098860,0.070030,0.088741,0.082263,0.077948,0.069602,0.055828,-77.028333
% filename musak/PL_3_13Childhood.wav
0.113795,0.108506,0.419928,0.079947,-79.552094,4.639731,1.208494,2.182712,0.812305,0.781298,0.271287,0.525608,0.370251,0.101470,0.624625,0.474171,0.463561,0.053136,0.060103,0.304895,0.034955,7.693918,1.572425,0.776060,0.634778,0.591676,0.643603,0.648897,0.526162,0.540684,0.555968,0.500075,0.448849,0.477087,0.140041,0.154989,0.245515,0.010476,9.825241,2.963850,0.937049,0.612644,0.413475,0.293578,0.451645,0.378381,0.409797,0.308257,0.218533,0.208934,0.252376,0.069549,0.095651,0.155158,0.033439,7.025399,1.068090,0.171861,0.123793,0.098724,0.106794,0.128720,0.080552,0.119328,0.091762,0.111222,0.088260,0.068091,21.033333
% filename musak/PL_3_14DoCiebieKasiuni(ToYouKasiuni.wav
0.114217,0.094586,0.188517,0.075450,-86.606764,4.418844,1.026165,0.589070,0.698369,0.514174,0.303571,0.480952,0.236098,-0.268132,-0.559635,-0.034950,0.040620,0.050169,0.051647,0.106050,0.032154,3.997479,0.840970,0.694547,0.646439,0.643662,0.581586,0.580228,0.597263,0.551892,0.512511,0.537047,0.529940,0.518037,0.079091,0.108937,0.157462,0.009864,9.690020,1.761743,0.696035,0.604646,0.342925,0.310444,0.453675,0.506352,0.355792,0.357749,0.662886,0.471625,0.597270,0.046676,0.077723,0.084333,0.034184,7.779643,0.382882,0.216955,0.114612,0.110259,0.098817,0.134158,0.108353,0.096893,0.100330,0.137103,0.113244,0.126080,21.033333
% filename musak/RU_3_12AaShuuDeKei-OoLive.wav
0.075358,0.059523,0.127392,0.086307,-73.487291,6.582049,2.035695,-0.063360,1.429324,1.090292,0.984641,0.840158,0.012225,0.341504,-0.322942,0.410039,0.359874,0.051540,0.050508,0.163295,0.037158,5.404510,1.364828,0.939841,0.743348,0.669430,0.666160,0.617531,0.582823,0.641519,0.581967,0.570774,0.589842,0.528269,0.076152,0.110652,0.132319,0.009492,15.107536,1.315548,0.578360,0.863501,0.350596,0.364590,0.360366,0.369237,0.551747,0.255566,0.554510,0.381550,0.248083,0.052076,0.083750,0.109467,0.033227,5.815815,0.455496,0.202745,0.133823,0.106536,0.120425,0.169050,0.115313,0.126728,0.074041,0.107763,0.105010,0.084100,37.616667
% filename musak/RU_6_12DancingVoices.wav
0.057603,0.053045,0.116141,0.079200,-75.342560,4.618276,0.241176,3.520852,1.015292,-0.051612,-0.005375,-0.051340,0.345282,0.416098,0.334890,0.101355,0.632992,0.019843,0.025323,0.061031,0.029444,6.472891,1.023013,0.901686,1.046824,0.656236,0.621904,0.636401,0.630107,0.568531,0.592331,0.519478,0.513837,0.465360,0.017100,0.056045,0.109840,0.008937,11.339918,1.098609,0.718149,1.395301,0.505284,0.422678,0.451129,0.345212,0.446796,0.364077,0.207675,0.243377,0.165643,0.011649,0.046116,0.082823,0.034755,6.038132,0.339758,0.206516,0.389995,0.113491,0.084529,0.112747,0.158907,0.110991,0.112418,0.088728,0.075314,0.065507,37.616667
% filename musak/SN_3_04Boomerang.wav
0.053455,0.045359,0.096021,0.079821,-68.511384,7.170176,-0.932706,2.036811,-0.105081,1.458227,0.584557,0.746512,0.393031,0.006764,0.396381,0.177147,0.257347,0.028811,0.030369,0.091067,0.032478,3.977081,1.111823,0.902933,0.884500,0.625259,0.709122,0.626015,0.600815,0.643391,0.550897,0.519272,0.526756,0.514685,0.055971,0.081115,0.128687,0.009432,9.466023,1.139998,0.739688,0.850394,0.455862,0.714610,0.364689,0.381004,0.533669,0.269862,0.417900,0.483787,0.274309,0.052338,0.080172,0.118802,0.033999,7.180277,0.752647,0.280548,0.310200,0.103015,0.145851,0.134782,0.139628,0.150308,0.133868,0.091044,0.138668,0.106997,-17.416667
% filename musak/SN_6_10JiinMaJiinMa.wav
0.040393,0.034532,0.141641,0.079486,-71.444441,6.332140,0.070704,2.854590,1.106054,1.005912,0.988232,0.471478,0.389030,0.290569,0.515453,0.281919,0.276414,0.027647,0.025968,0.188774,0.035251,5.158767,1.168287,0.888497,0.718796,0.671821,0.592135,0.572101,0.598225,0.569799,0.527212,0.524949,0.460187,0.444038,0.040371,0.067084,0.164027,0.010162,12.182570,1.651732,1.014908,0.593334,0.699884,0.356276,0.397429,0.520885,0.393918,0.318591,0.328283,0.321313,0.209793,0.048207,0.065359,0.160094,0.033614,6.135845,0.579223,0.289584,0.251676,0.156379,0.125479,0.131974,0.164943,0.134097,0.136969,0.113853,0.091559,0.098187,-17.416667
% filename musak/TR_3_03Nar-INey.wav
0.020999,0.022238,0.702081,0.096029,-82.192246,7.204188,2.179080,2.371137,1.392600,1.523879,1.448037,1.015020,0.449188,0.387490,0.407480,0.380456,0.226234,0.018454,0.023299,0.336749,0.050858,5.741997,1.208098,0.949702,0.640216,0.557584,0.474150,0.462672,0.456390,0.403233,0.405188,0.482393,0.368454,0.398749,0.052323,0.075436,0.261754,0.015445,7.606258,1.231654,1.181327,0.881693,0.812096,0.513444,0.647496,0.416050,0.507708,0.357849,0.388307,0.270647,0.270167,0.056318,0.083951,0.144057,0.032621,6.982541,0.628098,0.322872,0.190225,0.168697,0.232712,0.211321,0.216816,0.199114,0.169673,0.262837,0.154906,0.166660,32.833333
% filename musak/TR_6_08Shinanay.wav
0.044599,0.032906,0.176814,0.083449,-71.579553,4.718305,1.541582,1.068518,0.945456,0.928995,0.847584,0.909272,0.747018,0.534498,0.476889,0.371951,0.275433,0.032264,0.028524,0.280706,0.033053,4.812475,1.268852,0.970916,0.826700,0.670478,0.581248,0.559519,0.541638,0.585002,0.539357,0.513279,0.507992,0.469144,0.017760,0.055939,0.125894,0.010429,7.751024,0.751441,0.450514,0.412750,0.339621,0.326739,0.223354,0.223441,0.313064,0.251417,0.265454,0.240689,0.207643,0.026520,0.045346,0.121203,0.033512,6.701529,0.427457,0.223769,0.121990,0.097900,0.088497,0.080549,0.074081,0.131556,0.120550,0.081611,0.077986,0.068626,32.833333
% filename musak/TV_6_11Alamagoto.wav
0.052734,0.038654,0.121713,0.086889,-66.507213,4.658295,1.899475,2.128544,0.807801,0.979455,0.385425,0.590806,0.193430,0.228788,0.299307,0.256325,0.372779,0.030653,0.030504,0.196857,0.036193,5.420657,1.285598,0.948733,0.889638,0.693106,0.591213,0.652505,0.561296,0.560057,0.572176,0.578792,0.563255,0.506286,0.009863,0.048424,0.087946,0.009525,7.031521,0.685143,0.450619,0.405184,0.240761,0.203502,0.282192,0.278458,0.254874,0.191122,0.232153,0.176833,0.194865,0.006261,0.047066,0.097433,0.033691,7.643539,0.367351,0.169198,0.158345,0.119967,0.096785,0.152413,0.085679,0.098405,0.088162,0.090766,0.105648,0.095362,179.216667
% filename musak/UK_3_02TheOutlandishKnight.wav
0.068851,0.060599,0.109325,0.080029,-72.284272,5.568676,-0.062730,1.934847,-0.110745,0.550452,-0.436478,1.153073,0.037785,0.012520,0.398717,-0.063026,0.344535,0.029253,0.032762,0.055424,0.035323,5.485310,1.068838,0.711723,0.551598,0.605087,0.556718,0.524444,0.523108,0.501217,0.528266,0.493781,0.481090,0.421686,0.054463,0.078841,0.099443,0.012187,7.304318,1.099775,0.450874,0.286422,0.314718,0.288663,0.311666,0.314251,0.368922,0.379082,0.252918,0.232578,0.170355,0.053152,0.080728,0.090789,0.033480,7.726185,0.444043,0.154664,0.118932,0.100940,0.098184,0.085589,0.082109,0.082594,0.084923,0.080277,0.078219,0.066268,-0.1275
% filename musak/UK_6_04PrettyPloughboy.wav
0.089007,0.076034,0.167096,0.075118,-75.306329,4.481695,1.035663,0.899540,0.363107,-0.212114,0.105511,0.261503,-0.048755,0.097732,0.397592,0.824351,0.634651,0.028316,0.034259,0.107336,0.030261,3.193541,0.814846,0.671982,0.685492,0.672661,0.661941,0.609428,0.636980,0.601386,0.548399,0.596922,0.564639,0.569697,0.064152,0.064830,0.127292,0.010089,16.655002,1.069225,1.007396,1.676174,1.060802,1.043004,0.793032,0.782334,0.834135,0.525312,0.550390,0.716861,0.870218,0.017300,0.043185,0.116058,0.034427,6.089642,0.353517,0.236206,0.296465,0.225160,0.271357,0.181402,0.200332,0.173212,0.155158,0.190143,0.156621,0.198539,-0.1275
% filename musak/UZ_14_01SchochVaGado.wav
0.027122,0.036246,0.074537,0.075677,-71.547098,7.903500,-0.172607,1.597407,1.173810,1.475562,0.603621,0.217805,0.371239,0.149347,0.927517,0.376939,0.137770,0.010141,0.019177,0.042952,0.034374,5.858629,0.953494,0.651755,0.644992,0.664914,0.565576,0.575469,0.527006,0.501591,0.483711,0.445042,0.442338,0.410416,0.009789,0.063281,0.149349,0.007195,13.044449,2.099871,0.823882,0.458672,0.620837,0.550593,0.432625,0.337707,0.218801,0.283798,0.318067,0.230815,0.205344,0.006836,0.051037,0.101613,0.034484,9.294754,0.540335,0.239214,0.208555,0.181033,0.126033,0.132596,0.082411,0.088633,0.106906,0.064710,0.068945,0.061791,69.216667
% filename musak/UZ_14_03Bahor.wav
0.149369,0.121363,0.293812,0.078076,-85.656061,1.091484,3.446101,1.161575,0.266967,0.564022,0.254548,-0.372532,0.288773,0.581064,0.830497,0.815961,0.887703,0.050919,0.052645,0.183888,0.034330,4.468439,1.449074,1.052998,0.770494,0.686432,0.691389,0.779255,0.685774,0.560038,0.527455,0.524708,0.514496,0.522083,0.116659,0.108009,0.164153,0.009509,10.901745,3.765016,1.240153,1.160898,0.628182,1.378337,1.307856,0.613690,0.546233,0.358014,0.511852,0.648935,0.394656,0.027358,0.026777,0.116882,0.033255,4.373570,0.863123,0.370463,0.207895,0.165204,0.174681,0.232332,0.171509,0.097718,0.142870,0.137248,0.106317,0.108306,69.216667
% filename musak/UZ_14_04IWishYouWereHere.wav
0.041084,0.023432,0.186268,0.081261,-74.444343,5.062195,1.213596,1.817237,1.018745,1.328908,0.621445,0.352947,0.462232,0.319844,0.653619,0.352365,0.098962,0.022028,0.018246,0.259128,0.039174,5.169148,0.969570,0.743765,0.699860,0.650509,0.664010,0.631394,0.544795,0.553023,0.579964,0.585724,0.525651,0.485018,0.015977,0.010997,0.140536,0.010126,8.090433,1.292575,0.892222,0.347253,0.311746,0.500672,0.310817,0.368870,0.275245,0.384058,0.623253,0.275588,0.271538,0.006233,0.013283,0.148955,0.032875,6.312708,0.256803,0.230177,0.130612,0.133940,0.147791,0.096903,0.126792,0.121997,0.113099,0.105256,0.085528,0.096868,69.216667
% filename musak/UZ_14_05KizilAlma.wav
0.086264,0.052433,0.162988,0.081586,-70.718640,3.750256,0.331693,0.417322,-0.126613,0.520520,0.351138,0.353360,0.933557,1.119496,0.968941,0.368428,0.633897,0.040283,0.031353,0.123319,0.035127,4.173801,1.241977,0.733972,0.695056,0.679243,0.620230,0.632866,0.624769,0.641742,0.713801,0.650621,0.477517,0.548514,0.020391,0.016346,0.086825,0.009936,6.829457,1.254319,0.426057,0.528123,0.707658,0.392454,0.605643,0.347586,0.575318,0.571370,0.507368,0.157165,0.291038,0.008978,0.012380,0.081589,0.033341,5.788389,0.361091,0.159766,0.136459,0.147968,0.114053,0.099935,0.158351,0.205499,0.178309,0.187170,0.083345,0.086410,69.216667
% filename musak/UZ_14_06JeliJeli.wav
0.093684,0.063561,0.206991,0.080777,-70.890696,3.088387,1.691744,1.591695,0.609131,0.769788,0.325146,0.047685,-0.164046,0.001168,0.363607,0.210668,0.778289,0.045950,0.037373,0.155356,0.037440,5.301081,1.176205,1.100522,1.015571,0.746155,0.796702,0.792618,0.755024,0.619245,0.935060,0.673616,0.540865,0.792975,0.021401,0.020056,0.082439,0.010669,7.944211,0.427860,0.469314,0.596548,0.423589,0.354961,0.453940,0.520712,0.532712,0.459802,0.352562,0.371004,0.232443,0.009509,0.011476,0.096075,0.032642,5.598407,0.341377,0.174667,0.293654,0.170589,0.161202,0.266235,0.192938,0.118960,0.319660,0.241533,0.110143,0.190604,69.216667
% filename musak/UZ_14_07Ona.wav
0.019853,0.011138,0.377228,0.082582,-73.093874,6.473603,0.867906,2.049125,0.875932,1.484817,0.911020,0.317835,0.274293,0.511802,0.344139,0.463907,0.417182,0.016915,0.011075,0.415439,0.036419,3.783982,0.926345,0.670132,0.651719,0.593762,0.537389,0.546159,0.578953,0.597769,0.547064,0.469772,0.471002,0.459222,0.009396,0.007295,0.201201,0.010465,5.243111,1.204896,0.610897,0.577268,0.247700,0.483549,0.308829,0.452725,0.634202,0.309216,0.337987,0.242756,0.332340,0.010875,0.015215,0.081441,0.032741,6.523737,0.502944,0.104125,0.127697,0.101581,0.084621,0.113438,0.106547,0.146371,0.129113,0.065924,0.069902,0.080602,69.216667
% filename musak/UZ_14_08Onajon.wav
0.045535,0.025038,0.133970,0.080150,-65.101092,4.402395,-0.209975,1.945903,0.302497,1.481140,1.180433,0.556726,0.429507,0.545046,-0.128985,-0.117956,0.219591,0.018207,0.015162,0.176473,0.032619,3.042597,0.850819,0.650556,0.662561,0.612172,0.612613,0.606102,0.609247,0.605287,0.543728,0.527234,0.463381,0.505134,0.010552,0.006687,0.107092,0.010720,5.850053,0.395634,0.448025,0.451717,0.246137,0.252448,0.320262,0.186987,0.242547,0.159764,0.238960,0.245818,0.491945,0.004955,0.013273,0.145123,0.033009,6.064135,0.424213,0.124533,0.096199,0.078822,0.086012,0.092957,0.088274,0.105525,0.084158,0.068684,0.063286,0.105635,69.216667
% filename musak/UZ_14_09Fergana.wav
0.092311,0.063303,0.326185,0.082227,-75.789552,4.038778,1.013249,0.832408,0.658240,0.614445,0.098384,0.078087,0.645819,0.753458,0.641234,0.379438,0.726519,0.060598,0.053399,0.296976,0.032793,4.751160,1.074799,0.921265,0.928985,0.738984,0.701248,0.706065,0.718907,0.623520,0.623087,0.597564,0.537510,0.551734,0.043622,0.035436,0.146314,0.009836,9.454708,0.527295,0.816336,0.699412,0.474972,0.520307,0.469679,0.405466,0.316576,0.307915,0.262583,0.274372,0.257098,0.032894,0.033831,0.116220,0.033180,5.651113,0.378299,0.314235,0.274956,0.153882,0.151736,0.139514,0.200726,0.119084,0.112366,0.112482,0.113136,0.095841,69.216667
% filename musak/UZ_14_10Binafscha.wav
0.114513,0.081606,0.327248,0.081697,-73.961598,0.068620,0.629025,1.469931,0.723931,1.076515,0.607436,0.783974,1.054571,0.948284,0.780506,0.531408,0.538853,0.044499,0.042538,0.214195,0.034092,5.321998,1.005663,0.754728,0.627904,0.600787,0.630314,0.569856,0.533437,0.579277,0.566348,0.554841,0.500009,0.461560,0.059270,0.054992,0.168260,0.009339,11.048019,2.319588,0.451737,0.197622,0.209876,0.383643,0.186800,0.201923,0.205461,0.213816,0.212413,0.200745,0.255764,0.011649,0.012751,0.118216,0.033608,6.452335,0.452809,0.100749,0.081222,0.083707,0.082754,0.080671,0.079470,0.080123,0.100324,0.100651,0.097354,0.055083,69.216667
% filename musak/UZ_14_11TscheMischod.wav
0.038903,0.025430,0.069047,0.074791,-72.671928,5.635995,1.733198,2.139607,0.381542,0.687876,-0.267281,-0.143792,0.006373,0.795770,0.675278,0.461547,0.377272,0.018155,0.012666,0.057733,0.028619,2.969629,0.886841,0.628344,0.658436,0.643752,0.571412,0.584102,0.537097,0.483333,0.514673,0.536188,0.484589,0.468999,0.017531,0.011078,0.115680,0.011057,5.777077,1.148878,0.662102,0.486624,0.423516,0.359348,0.392651,0.338193,0.350998,0.365666,0.231763,0.263291,0.267264,0.019743,0.019987,0.102958,0.033556,6.487042,0.647372,0.135542,0.175818,0.125772,0.083202,0.120323,0.108180,0.084951,0.102782,0.128821,0.093945,0.065908,69.216667
% filename musak/UZ_14_12Bolalik.wav
0.081755,0.051418,0.163077,0.077551,-68.655603,4.660647,0.018057,0.230276,0.580324,1.294591,0.837608,0.332133,0.399651,1.180553,0.776613,0.554221,0.506955,0.036088,0.026534,0.158831,0.032040,4.265624,0.929118,0.908936,0.705512,0.602318,0.592872,0.593689,0.510808,0.594489,0.585767,0.533309,0.629645,0.510041,0.022598,0.010585,0.112322,0.009898,6.501922,0.712003,0.973557,0.482712,0.497076,0.709650,0.600528,0.300319,0.484212,0.354098,0.360847,0.461536,0.309975,0.015286,0.015370,0.114112,0.033551,6.021745,0.346874,0.217767,0.168936,0.108633,0.105366,0.126815,0.085764,0.150873,0.099053,0.096884,0.187192,0.128584,69.216667
% filename musak/UZ_14_13Jannona.wav
0.061866,0.030579,0.122584,0.080301,-72.208082,4.927861,1.422924,1.272479,0.705721,1.061303,0.586073,0.606315,0.651884,0.823642,0.545940,0.537264,0.333384,0.031884,0.023201,0.175319,0.034721,4.991082,1.218363,0.842131,0.742026,0.617199,0.620476,0.576527,0.594356,0.538368,0.543436,0.526462,0.542528,0.541549,0.013691,0.006968,0.101316,0.010735,5.118568,0.738952,0.601647,0.371097,0.210251,0.274455,0.184256,0.397171,0.185054,0.200194,0.250993,0.172296,0.203101,0.006601,0.013316,0.119670,0.033829,6.273597,0.396128,0.169387,0.144525,0.078639,0.094167,0.073447,0.087135,0.066444,0.079665,0.081394,0.074879,0.104499,69.216667
% filename musak/UZ_14_14TukilmaJonim.wav
0.056794,0.034119,0.153484,0.075544,-70.541427,4.731841,0.700040,1.756760,0.605869,0.521630,0.458350,0.570774,0.426427,0.639765,0.501621,0.367651,0.335102,0.024062,0.018716,0.141257,0.031694,3.552748,0.894609,0.658751,0.628362,0.626445,0.593942,0.564855,0.550496,0.538535,0.541780,0.525788,0.506965,0.472649,0.017470,0.011481,0.149857,0.006095,13.394689,0.899060,0.545800,0.304162,0.432846,0.381050,0.300828,0.360791,0.617898,0.685981,0.614495,0.491784,0.424241,0.009066,0.014090,0.139516,0.034245,8.452140,0.573104,0.115165,0.082798,0.126718,0.098764,0.061560,0.071605,0.067322,0.091758,0.094584,0.063728,0.074400,69.216667
% filename musak/UZ_14_15Yiglama(Live).wav
0.037736,0.026561,0.078373,0.075479,-73.565052,6.029630,0.021489,1.748715,0.772820,1.519102,0.433359,0.356100,0.414571,0.617421,0.457427,0.646406,0.610360,0.014026,0.010726,0.051526,0.029388,3.492393,0.809374,0.646601,0.572269,0.587315,0.594820,0.539774,0.548582,0.509753,0.494650,0.507625,0.483047,0.464476,0.015429,0.010699,0.124172,0.007249,8.623000,0.621428,0.729748,0.382998,0.527214,0.419590,0.351866,0.196998,0.259136,0.275971,0.327142,0.191007,0.185318,0.006918,0.014290,0.100008,0.034162,7.870121,0.537040,0.134906,0.106392,0.142656,0.119398,0.089034,0.080615,0.072373,0.076273,0.100051,0.077267,0.063637,69.216667
% filename musak/UZ_14_16KunglimGuli.wav
0.062558,0.038706,0.118372,0.078423,-72.230299,4.531001,1.266202,1.853268,0.704971,0.736454,0.530173,0.259396,0.422676,0.900209,0.103555,0.648175,0.170055,0.024171,0.018733,0.089322,0.031816,3.501410,0.786069,0.791697,0.653419,0.610622,0.609915,0.622944,0.609935,0.545897,0.616990,0.569325,0.556054,0.580882,0.014805,0.010297,0.080690,0.008266,4.114134,0.435940,0.340931,0.301576,0.274954,0.246743,0.194084,0.262966,0.362816,0.369747,0.375378,0.319998,0.251869,0.008022,0.013737,0.092731,0.034242,4.471622,0.243886,0.162453,0.132824,0.100966,0.090447,0.095570,0.096433,0.080653,0.116372,0.105053,0.094974,0.146214,69.216667
% filename musak/UZ_3_10AdolatTanovari.wav
0.044132,0.042719,0.060336,0.078796,-86.736295,9.358100,1.973284,0.427380,0.106758,1.726159,0.345565,0.439248,0.501385,0.586132,0.742448,0.632752,0.397144,0.027470,0.028763,0.042862,0.030976,4.297173,1.297208,0.658913,0.832369,0.566771,0.581537,0.558653,0.493626,0.482386,0.464972,0.450449,0.448486,0.418276,0.069355,0.094240,0.132429,0.013358,12.178262,2.037201,0.695269,0.970905,0.698550,0.574793,1.223594,0.355141,0.301028,0.383927,0.318076,0.346459,0.259841,0.062385,0.086500,0.102194,0.033963,6.616586,0.688957,0.145988,0.357708,0.074355,0.131698,0.127289,0.092254,0.089836,0.098737,0.100878,0.077612,0.079304,69.216667
% filename musak/UZ_3_10Yer-Yer.wav
0.053796,0.048928,0.070670,0.080389,-76.582014,7.045528,0.301971,0.821583,0.435877,0.971104,0.632212,0.484523,0.229487,0.463971,0.426555,0.245995,0.241099,0.028680,0.031635,0.045955,0.035883,5.526782,1.150864,1.244212,0.857531,0.773215,0.607993,0.540539,0.545952,0.538091,0.552173,0.519365,0.483699,0.483176,0.051098,0.077300,0.090337,0.009289,7.909889,1.157031,1.179593,0.756024,0.573882,0.447097,0.342805,0.308914,0.569246,0.263112,0.300180,0.420008,0.274555,0.054462,0.083121,0.094998,0.033473,6.840948,0.741361,0.617860,0.331332,0.221462,0.141649,0.148850,0.096253,0.095141,0.131956,0.064477,0.091995,0.085190,69.216667
% filename musak/DZ_3_01BelelMadhiTheGateofthePas.wav
0.091887,0.098574,0.139820,0.081473,-77.292623,5.864991,0.288297,2.132254,1.406904,1.091116,0.293601,0.368696,0.802636,0.952245,0.604573,0.323653,0.104822,0.044213,0.041043,0.097907,0.033675,4.699788,1.279569,0.828839,0.629492,0.565292,0.593852,0.530390,0.579518,0.496126,0.492542,0.472288,0.453256,0.459381,0.144224,0.214977,0.245311,0.007681,19.204492,1.822328,0.569422,0.524438,0.453173,0.517128,0.428962,0.637691,0.401339,0.377423,0.351512,0.417299,0.409504,0.052195,0.082679,0.102402,0.033847,7.341665,0.490408,0.264514,0.121881,0.120226,0.169166,0.090449,0.137777,0.101156,0.092102,0.111681,0.086140,0.118061,69.216667
